\relax 
\providecommand\hyper@newdestlabel[2]{}
\providecommand\HyperFirstAtBeginDocument{\AtBeginDocument}
\HyperFirstAtBeginDocument{\ifx\hyper@anchor\@undefined
\global\let\oldcontentsline\contentsline
\gdef\contentsline#1#2#3#4{\oldcontentsline{#1}{#2}{#3}}
\global\let\oldnewlabel\newlabel
\gdef\newlabel#1#2{\newlabelxx{#1}#2}
\gdef\newlabelxx#1#2#3#4#5#6{\oldnewlabel{#1}{{#2}{#3}}}
\AtEndDocument{\ifx\hyper@anchor\@undefined
\let\contentsline\oldcontentsline
\let\newlabel\oldnewlabel
\fi}
\fi}
\global\let\hyper@last\relax 
\gdef\HyperFirstAtBeginDocument#1{#1}
\providecommand\HyField@AuxAddToFields[1]{}
\providecommand\HyField@AuxAddToCoFields[2]{}
\citation{VeriFlow,CCG}
\citation{darema2004dynamic}
\@writefile{toc}{\contentsline {section}{\numberline {1}INTRODUCTION}{1}{section.1}}
\newlabel{sec:intro}{{1}{1}{INTRODUCTION}{section.1}{}}
\citation{onf}
\citation{cadar2008klee,Anteater2011,PHA2012}
\citation{NetPlumber2013,VeriFlow,CCG}
\citation{zUpdate}
\citation{Dionysus}
\citation{TrafficEngineering}
\@writefile{toc}{\contentsline {section}{\numberline {2}BACKGROUND AND RELATED WORK}{2}{section.2}}
\@writefile{toc}{\contentsline {section}{\numberline {3}SYSTEM OVERVIEW}{2}{section.3}}
\citation{openflow}
\citation{VeriFlow}
\@writefile{lof}{\contentsline {figure}{\numberline {1}{\ignorespaces $ConVenus$\xspace  sits between the SDN applications and network devices to intercept and verify every flow update to preserve the congestion-free property. \relax }}{3}{figure.caption.2}}
\providecommand*\caption@xref[2]{\@setref\relax\@undefined{#1}}
\newlabel{fig: rua}{{1}{3}{\name sits between the SDN applications and network devices to intercept and verify every flow update to preserve the congestion-free property. \relax }{figure.caption.2}{}}
\citation{fast-background-traffic}
\citation{openflow}
\@writefile{toc}{\contentsline {section}{\numberline {4}NETWORK FLOW SIMULATION AND MODELING FOR CONGESTION VERIFICATION}{4}{section.4}}
\@writefile{toc}{\contentsline {subsection}{\numberline {4.1}Modeling Assumptions}{4}{subsection.4.1}}
\@writefile{toc}{\contentsline {subsection}{\numberline {4.2}Problem Formulation and Notations}{4}{subsection.4.2}}
\@writefile{lot}{\contentsline {table}{\numberline {1}{\ignorespaces Notations. \relax }}{4}{table.caption.3}}
\newlabel{tab: first}{{1}{4}{Notations. \relax }{table.caption.3}{}}
\citation{Nicol_simulation}
\citation{fast-background-traffic}
\newlabel{def:congestion}{{2}{5}{}{definition.2}{}}
\@writefile{toc}{\contentsline {subsection}{\numberline {4.3}Simulation Algorithm of Flow Rate Computation}{5}{subsection.4.3}}
\newlabel{fourstep}{{4.3}{5}{Simulation Algorithm of Flow Rate Computation}{subsection.4.3}{}}
\@writefile{toc}{\contentsline {subsubsection}{\numberline {4.3.1}\ \ Flow Rate Computation under the FCFS Scheduling Policy}{5}{subsubsection.4.3.1}}
\newlabel{eq:FCFS}{{1}{5}{\ \ Flow Rate Computation under the FCFS Scheduling Policy}{equation.4.1}{}}
\@writefile{toc}{\contentsline {subsubsection}{\numberline {4.3.2}\ \ Circular Dependence Among Affected Flows}{5}{subsubsection.4.3.2}}
\newlabel{eq:circular}{{2}{5}{\ \ Circular Dependence Among Affected Flows}{equation.4.2}{}}
\@writefile{lof}{\contentsline {figure}{\numberline {2}{\ignorespaces An example of circular dependence between two flows. \relax }}{6}{figure.caption.4}}
\newlabel{fig: dependency}{{2}{6}{An example of circular dependence between two flows. \relax }{figure.caption.4}{}}
\@writefile{toc}{\contentsline {subsubsection}{\numberline {4.3.3}\ \ Simulation Algorithm for Network Flow Rate Computation}{6}{subsubsection.4.3.3}}
\@writefile{toc}{\contentsline {section}{\numberline {5}SPEEDING UP CONGESTION VERIFICATION}{6}{section.5}}
\@writefile{lof}{\contentsline {figure}{\numberline {3}{\ignorespaces Flow Chart of the Four-phase Simulation Algorithm for Network Flow Rate Computation. \relax }}{7}{figure.caption.5}}
\newlabel{fig: flow chart}{{3}{7}{Flow Chart of the Four-phase Simulation Algorithm for Network Flow Rate Computation. \relax }{figure.caption.5}{}}
\@writefile{toc}{\contentsline {subsection}{\numberline {5.1}Flow Removal}{7}{subsection.5.1}}
\newlabel{thm:first}{{ 1}{7}{}{theorem.1}{}}
\@writefile{toc}{\contentsline {subsection}{\numberline {5.2}Flow Insertion}{7}{subsection.5.2}}
\newlabel{def:affected flow set}{{5.2}{7}{Flow Insertion}{definition.3}{}}
\newlabel{def:minimum affected network}{{5.2}{7}{Flow Insertion}{definition.4}{}}
\newlabel{thm:insert first}{{ 2}{7}{}{theorem.2}{}}
\@writefile{loa}{\contentsline {algocf}{\numberline {1}{\ignorespaces Generation of the affected flow set and the minimum affected network\relax }}{8}{algocf.1}}
\newlabel{alg: 1}{{1}{8}{Flow Insertion}{algocf.1}{}}
\@writefile{lof}{\contentsline {figure}{\numberline {4}{\ignorespaces A simple example for Algorithm \ref  {alg: 1}: Consider a network $N$ with one existing flow $f_{1} = <(1,6,7,10,11,8,4), R_{f_{1}}>$ and one new flow $f_{2} = <(3,9,7,8,5), R_{f_{2}}>$. The minimum affected network $N_{f_{2}}$ contains $f_{2}$ and the modified $f_{1} = <(1,7,8,4), R_{f_{1}}>$, and the port set \{3, 9, 7, 8, 5, 1, 4\}. \relax }}{8}{figure.caption.7}}
\newlabel{fig: network}{{4}{8}{A simple example for Algorithm \ref {alg: 1}: Consider a network $N$ with one existing flow $f_{1} = <(1,6,7,10,11,8,4), R_{f_{1}}>$ and one new flow $f_{2} = <(3,9,7,8,5), R_{f_{2}}>$. The minimum affected network $N_{f_{2}}$ contains $f_{2}$ and the modified $f_{1} = <(1,7,8,4), R_{f_{1}}>$, and the port set \{3, 9, 7, 8, 5, 1, 4\}. \relax }{figure.caption.7}{}}
\newlabel{thm:insert second}{{ 3}{8}{}{theorem.3}{}}
\citation{campus}
\@writefile{toc}{\contentsline {subsection}{\numberline {5.3}Flow Modification}{9}{subsection.5.3}}
\@writefile{toc}{\contentsline {section}{\numberline {6}EVALUATION}{9}{section.6}}
\@writefile{toc}{\contentsline {subsection}{\numberline {6.1}Experiment Setup}{9}{subsection.6.1}}
\@writefile{lof}{\contentsline {figure}{\numberline {5}{\ignorespaces An example of campus network topology. \relax }}{9}{figure.caption.8}}
\newlabel{fig: campus}{{5}{9}{An example of campus network topology. \relax }{figure.caption.8}{}}
\@writefile{toc}{\contentsline {subsection}{\numberline {6.2}Experimental Results and Analysis}{10}{subsection.6.2}}
\@writefile{lot}{\contentsline {table}{\numberline {2}{\ignorespaces Congestion verification: \# of flow updates resulting in network congestion and circular dependence. $N_{c}$ is the \# of network congestion occurrence and $N_{d}$ is the \# of circular dependence occurrence.\relax }}{10}{table.caption.9}}
\newlabel{tab: num_congestion}{{2}{10}{Congestion verification: \# of flow updates resulting in network congestion and circular dependence. $N_{c}$ is the \# of network congestion occurrence and $N_{d}$ is the \# of circular dependence occurrence.\relax }{table.caption.9}{}}
\newlabel{fig:insertion_congestion}{{6a}{10}{Stage 1: Flow insertion updates.\relax }{figure.caption.10}{}}
\newlabel{sub@fig:insertion_congestion}{{a}{10}{Stage 1: Flow insertion updates.\relax }{figure.caption.10}{}}
\newlabel{fig:update_congestion}{{6b}{10}{Stage 2: Flow insertion and deletion updates.\relax }{figure.caption.10}{}}
\newlabel{sub@fig:update_congestion}{{b}{10}{Stage 2: Flow insertion and deletion updates.\relax }{figure.caption.10}{}}
\@writefile{lof}{\contentsline {figure}{\numberline {6}{\ignorespaces Number of congested flows and ports for each flow update.\relax }}{10}{figure.caption.10}}
\newlabel{fig:congested_flows}{{6}{10}{Number of congested flows and ports for each flow update.\relax }{figure.caption.10}{}}
\bibstyle{wsc}
\bibdata{demobib}
\bibcite{TrafficEngineering}{\citeauthoryear {Agarwal, Kodialam, and Lakshman}{Agarwal et\nobreakspace  {}al.}{2013}}
\bibcite{cadar2008klee}{\citeauthoryear {Cadar, Dunbar, and Engler}{Cadar et\nobreakspace  {}al.}{2008}}
\bibcite{darema2004dynamic}{\citeauthoryear {Darema}{Darema}{2004}}
\bibcite{fast-background-traffic}{\citeauthoryear {Jin and Nicol}{Jin and Nicol}{2010}}
\bibcite{Dionysus}{\citeauthoryear {Jin, Liu, Gandhi, Kandula, Mahajan, Zhang, Rexford, and Wattenhofer}{Jin et\nobreakspace  {}al.}{2014}}
\newlabel{fig:insertion_time}{{7a}{11}{Stage 1: Flow insertion updates.\relax }{figure.caption.11}{}}
\newlabel{sub@fig:insertion_time}{{a}{11}{Stage 1: Flow insertion updates.\relax }{figure.caption.11}{}}
\newlabel{fig:update_time}{{7b}{11}{Stage 2: Flow insertion and deletion updates.\relax }{figure.caption.11}{}}
\newlabel{sub@fig:update_time}{{b}{11}{Stage 2: Flow insertion and deletion updates.\relax }{figure.caption.11}{}}
\@writefile{lof}{\contentsline {figure}{\numberline {7}{\ignorespaces Cumulative distribution function of the update verification time, which consists of: (1) time to generate the graph to model the minimum affected network and (2) time to run the 4-phase simulation algorithm.\relax }}{11}{figure.caption.11}}
\newlabel{fig:verification_time_CDF}{{7}{11}{Cumulative distribution function of the update verification time, which consists of: (1) time to generate the graph to model the minimum affected network and (2) time to run the 4-phase simulation algorithm.\relax }{figure.caption.11}{}}
\@writefile{toc}{\contentsline {section}{\numberline {7}CONCLUSION AND FUTURE WORK}{11}{section.7}}
\bibcite{NetPlumber2013}{\citeauthoryear {Kazemian, Chang, Zeng, Varghese, McKeown, and Whyte}{Kazemian et\nobreakspace  {}al.}{2013}}
\bibcite{PHA2012}{\citeauthoryear {Kazemian, Varghese, and McKeown}{Kazemian et\nobreakspace  {}al.}{2012}}
\bibcite{VeriFlow}{\citeauthoryear {Khurshid, Zou, Zhou, Caesar, and Godfrey}{Khurshid et\nobreakspace  {}al.}{2013}}
\bibcite{zUpdate}{\citeauthoryear {Liu, Wu, Zhang, Yuan, Wattenhofer, and Maltz}{Liu et\nobreakspace  {}al.}{2013}}
\bibcite{Anteater2011}{\citeauthoryear {Mai, Khurshid, Agarwal, Caesar, Godfrey, and King}{Mai et\nobreakspace  {}al.}{2011}}
\bibcite{campus}{\citeauthoryear {Nicol}{David Nicol}{2009}}
\bibcite{Nicol_simulation}{\citeauthoryear {Nicol and Yan}{Nicol and Yan}{2006}}
\bibcite{openflow}{\citeauthoryear {ONF}{ONF}{2014}}
\bibcite{onf}{\citeauthoryear {ONF}{ONF}{2016}}
\bibcite{CCG}{\citeauthoryear {Zhou, Jin, Croft, Caesar, and Godfrey}{Zhou et\nobreakspace  {}al.}{2015}}
