# Format: id ipAddress endDevice [port1 nextHopIpAddress1 bandwidth1] [port2 nextHopIpAddress2 bandwidth2] [port3 nextHopIPAddress3 bandwidth3]...

#Switches
0 10.0.0.0 0 1 10.0.0.7 100.0 2 10.0.0.1 100.0 3 10.0.0.110 100.0 4 10.0.0.5 100.0
1 10.0.0.1 0 1 10.0.0.7 90.0 2 10.0.0.2 100.0 3 10.0.0.101 100.0 4 10.0.0.0 100.0
2 10.0.0.2 0 1 10.0.0.1 80.0 2 10.0.0.103 100.0 3 10.0.0.3 100.0 4 10.0.0.102 100.0
3 10.0.0.3 0 1 10.0.0.2 70.0 2 10.0.0.105 100.0 3 10.0.0.4 100.0 4 10.0.0.104 100.0
4 10.0.0.4 0 1 10.0.0.111 200.0 2 10.0.0.3 100.0 3 10.0.0.106 100.0 4 10.0.0.5 100.0
5 10.0.0.5 0 1 10.0.0.107 100.0 2 10.0.0.4 100.0 3 10.0.0.6 100.0 4 10.0.0.0 100.0
6 10.0.0.6 0 1 10.0.0.109 90.0 2 10.0.0.5 100.0 3 10.0.0.108 100.0
7 10.0.0.7 0 1 10.0.0.100 100.0 2 10.0.0.1 100.0 3 10.0.0.0 100.0

# Hosts	(For hosts, no bandwidth info required)
100 10.0.0.100 1 1 10.0.0.7
101 10.0.0.101 1 1 10.0.0.1 
102 10.0.0.102 1 1 10.0.0.2
103 10.0.0.103 1 1 10.0.0.2
104 10.0.0.104 1 1 10.0.0.3
105 10.0.0.105 1 1 10.0.0.3
106 10.0.0.106 1 1 10.0.0.4
107 10.0.0.107 1 1 10.0.0.5
108 10.0.0.108 1 1 10.0.0.6
109 10.0.0.109 1 1 10.0.0.6
110 10.0.0.110 1 1 10.0.0.0
111 10.0.0.111 1 1 10.0.0.4

 