\relax 
\providecommand\hyper@newdestlabel[2]{}
\providecommand\HyperFirstAtBeginDocument{\AtBeginDocument}
\HyperFirstAtBeginDocument{\ifx\hyper@anchor\@undefined
\global\let\oldcontentsline\contentsline
\gdef\contentsline#1#2#3#4{\oldcontentsline{#1}{#2}{#3}}
\global\let\oldnewlabel\newlabel
\gdef\newlabel#1#2{\newlabelxx{#1}#2}
\gdef\newlabelxx#1#2#3#4#5#6{\oldnewlabel{#1}{{#2}{#3}}}
\AtEndDocument{\ifx\hyper@anchor\@undefined
\let\contentsline\oldcontentsline
\let\newlabel\oldnewlabel
\fi}
\fi}
\global\let\hyper@last\relax 
\gdef\HyperFirstAtBeginDocument#1{#1}
\providecommand\HyField@AuxAddToFields[1]{}
\providecommand\HyField@AuxAddToCoFields[2]{}
\citation{pyretic}
\citation{PGA}
\@writefile{toc}{\contentsline {section}{\numberline {1}INTRODUCTION}{1}{section.1}}
\providecommand*\caption@xref[2]{\@setref\relax\@undefined{#1}}
\newlabel{fig: sdn}{{1a}{1}{SDN High-Level Architecture.\relax }{figure.caption.2}{}}
\newlabel{sub@fig: sdn}{{a}{1}{SDN High-Level Architecture.\relax }{figure.caption.2}{}}
\newlabel{fig: arch}{{1b}{1}{PSMA System Design.\relax }{figure.caption.2}{}}
\newlabel{sub@fig: arch}{{b}{1}{PSMA System Design.\relax }{figure.caption.2}{}}
\@writefile{lof}{\contentsline {figure}{\numberline {1}{\ignorespaces System Architecture of SDN and PSMA.\relax }}{1}{figure.caption.2}}
\newlabel{fig: figure}{{1}{1}{System Architecture of SDN and PSMA.\relax }{figure.caption.2}{}}
\bibstyle{wsc}
\bibdata{demobib}
\bibcite{pyretic}{\citeauthoryear {Monsanto, Reich, Foster, Rexford, and Walker}{Monsanto et\nobreakspace  {}al.}{2013}}
\bibcite{PGA}{\citeauthoryear {Prakash, Lee, Turner, Kang, Akella, Banerjee, Clark, Ma, Sharma, and Zhang}{Prakash et\nobreakspace  {}al.}{2015}}
\@writefile{toc}{\contentsline {section}{\numberline {2}STATE MACHINE ABSTRACTION}{2}{section.2}}
\@writefile{toc}{\contentsline {section}{\numberline {3}SYSTEM OVERVIEW}{2}{section.3}}
\@writefile{toc}{\contentsline {section}{\numberline {4}CHALLENGES AND FUTURE WORK}{2}{section.4}}
