\contentsline {chapter}{\numberline {1}Main Page}{1}{chapter.1}
\contentsline {section}{\numberline {1.1}Overview}{1}{section.1.1}
\contentsline {section}{\numberline {1.2}Modules}{1}{section.1.2}
\contentsline {section}{\numberline {1.3}Contact}{1}{section.1.3}
\contentsline {chapter}{\numberline {2}Namespace Index}{3}{chapter.2}
\contentsline {section}{\numberline {2.1}Namespace List}{3}{section.2.1}
\contentsline {chapter}{\numberline {3}Class Index}{5}{chapter.3}
\contentsline {section}{\numberline {3.1}Class List}{5}{section.3.1}
\contentsline {chapter}{\numberline {4}File Index}{7}{chapter.4}
\contentsline {section}{\numberline {4.1}File List}{7}{section.4.1}
\contentsline {chapter}{\numberline {5}Namespace Documentation}{9}{chapter.5}
\contentsline {section}{\numberline {5.1}std Namespace Reference}{9}{section.5.1}
\contentsline {chapter}{\numberline {6}Class Documentation}{11}{chapter.6}
\contentsline {section}{\numberline {6.1}Application Class Reference}{11}{section.6.1}
\contentsline {subsection}{\numberline {6.1.1}Detailed Description}{12}{subsection.6.1.1}
\contentsline {subsection}{\numberline {6.1.2}Constructor \& Destructor Documentation}{12}{subsection.6.1.2}
\contentsline {subsubsection}{\numberline {6.1.2.1}Application()}{12}{subsubsection.6.1.2.1}
\contentsline {subsection}{\numberline {6.1.3}Member Function Documentation}{12}{subsection.6.1.3}
\contentsline {subsubsection}{\numberline {6.1.3.1}add\discretionary {\unhbox \voidb@x \hbox {\relax \fontsize {7}{8}\selectfont $\leftarrow \joinrel \rhook $}}{}{}Flow\discretionary {\unhbox \voidb@x \hbox {\relax \fontsize {7}{8}\selectfont $\leftarrow \joinrel \rhook $}}{}{}I\discretionary {\unhbox \voidb@x \hbox {\relax \fontsize {7}{8}\selectfont $\leftarrow \joinrel \rhook $}}{}{}D()}{12}{subsubsection.6.1.3.1}
\contentsline {subsubsection}{\numberline {6.1.3.2}delete\discretionary {\unhbox \voidb@x \hbox {\relax \fontsize {7}{8}\selectfont $\leftarrow \joinrel \rhook $}}{}{}Flow\discretionary {\unhbox \voidb@x \hbox {\relax \fontsize {7}{8}\selectfont $\leftarrow \joinrel \rhook $}}{}{}I\discretionary {\unhbox \voidb@x \hbox {\relax \fontsize {7}{8}\selectfont $\leftarrow \joinrel \rhook $}}{}{}D()}{13}{subsubsection.6.1.3.2}
\contentsline {subsubsection}{\numberline {6.1.3.3}generate\discretionary {\unhbox \voidb@x \hbox {\relax \fontsize {7}{8}\selectfont $\leftarrow \joinrel \rhook $}}{}{}B\discretionary {\unhbox \voidb@x \hbox {\relax \fontsize {7}{8}\selectfont $\leftarrow \joinrel \rhook $}}{}{}F\discretionary {\unhbox \voidb@x \hbox {\relax \fontsize {7}{8}\selectfont $\leftarrow \joinrel \rhook $}}{}{}S\discretionary {\unhbox \voidb@x \hbox {\relax \fontsize {7}{8}\selectfont $\leftarrow \joinrel \rhook $}}{}{}Path()}{13}{subsubsection.6.1.3.3}
\contentsline {subsubsection}{\numberline {6.1.3.4}generate\discretionary {\unhbox \voidb@x \hbox {\relax \fontsize {7}{8}\selectfont $\leftarrow \joinrel \rhook $}}{}{}D\discretionary {\unhbox \voidb@x \hbox {\relax \fontsize {7}{8}\selectfont $\leftarrow \joinrel \rhook $}}{}{}F\discretionary {\unhbox \voidb@x \hbox {\relax \fontsize {7}{8}\selectfont $\leftarrow \joinrel \rhook $}}{}{}S\discretionary {\unhbox \voidb@x \hbox {\relax \fontsize {7}{8}\selectfont $\leftarrow \joinrel \rhook $}}{}{}Path()}{13}{subsubsection.6.1.3.4}
\contentsline {subsubsection}{\numberline {6.1.3.5}get\discretionary {\unhbox \voidb@x \hbox {\relax \fontsize {7}{8}\selectfont $\leftarrow \joinrel \rhook $}}{}{}I\discretionary {\unhbox \voidb@x \hbox {\relax \fontsize {7}{8}\selectfont $\leftarrow \joinrel \rhook $}}{}{}D\discretionary {\unhbox \voidb@x \hbox {\relax \fontsize {7}{8}\selectfont $\leftarrow \joinrel \rhook $}}{}{}Set\discretionary {\unhbox \voidb@x \hbox {\relax \fontsize {7}{8}\selectfont $\leftarrow \joinrel \rhook $}}{}{}Size()}{13}{subsubsection.6.1.3.5}
\contentsline {subsubsection}{\numberline {6.1.3.6}issue\discretionary {\unhbox \voidb@x \hbox {\relax \fontsize {7}{8}\selectfont $\leftarrow \joinrel \rhook $}}{}{}Flow()\hspace {0.1cm}{\relax \fontsize {8}{9.5}\selectfont \abovedisplayskip 6\p@ plus2\p@ minus4\p@ \abovedisplayshortskip \z@ plus\p@ \belowdisplayshortskip 3\p@ plus\p@ minus2\p@ \def \leftmargin \leftmargini \parsep 4\p@ plus2\p@ minus\p@ \topsep 8\p@ plus2\p@ minus4\p@ \itemsep 4\p@ plus2\p@ minus\p@ {\leftmargin \leftmargini \topsep 3\p@ plus\p@ minus\p@ \parsep 2\p@ plus\p@ minus\p@ \itemsep \parsep }\belowdisplayskip \abovedisplayskip \ttfamily [1/2]}}{14}{subsubsection.6.1.3.6}
\contentsline {subsubsection}{\numberline {6.1.3.7}issue\discretionary {\unhbox \voidb@x \hbox {\relax \fontsize {7}{8}\selectfont $\leftarrow \joinrel \rhook $}}{}{}Flow()\hspace {0.1cm}{\relax \fontsize {8}{9.5}\selectfont \abovedisplayskip 6\p@ plus2\p@ minus4\p@ \abovedisplayshortskip \z@ plus\p@ \belowdisplayshortskip 3\p@ plus\p@ minus2\p@ \def \leftmargin \leftmargini \parsep 4\p@ plus2\p@ minus\p@ \topsep 8\p@ plus2\p@ minus4\p@ \itemsep 4\p@ plus2\p@ minus\p@ {\leftmargin \leftmargini \topsep 3\p@ plus\p@ minus\p@ \parsep 2\p@ plus\p@ minus\p@ \itemsep \parsep }\belowdisplayskip \abovedisplayskip \ttfamily [2/2]}}{14}{subsubsection.6.1.3.7}
\contentsline {subsubsection}{\numberline {6.1.3.8}issue\discretionary {\unhbox \voidb@x \hbox {\relax \fontsize {7}{8}\selectfont $\leftarrow \joinrel \rhook $}}{}{}Flow\discretionary {\unhbox \voidb@x \hbox {\relax \fontsize {7}{8}\selectfont $\leftarrow \joinrel \rhook $}}{}{}Deletion()}{14}{subsubsection.6.1.3.8}
\contentsline {subsubsection}{\numberline {6.1.3.9}run\discretionary {\unhbox \voidb@x \hbox {\relax \fontsize {7}{8}\selectfont $\leftarrow \joinrel \rhook $}}{}{}D\discretionary {\unhbox \voidb@x \hbox {\relax \fontsize {7}{8}\selectfont $\leftarrow \joinrel \rhook $}}{}{}F\discretionary {\unhbox \voidb@x \hbox {\relax \fontsize {7}{8}\selectfont $\leftarrow \joinrel \rhook $}}{}{}S()}{14}{subsubsection.6.1.3.9}
\contentsline {subsection}{\numberline {6.1.4}Member Data Documentation}{14}{subsection.6.1.4}
\contentsline {subsubsection}{\numberline {6.1.4.1}end\discretionary {\unhbox \voidb@x \hbox {\relax \fontsize {7}{8}\selectfont $\leftarrow \joinrel \rhook $}}{}{}Devices}{15}{subsubsection.6.1.4.1}
\contentsline {subsubsection}{\numberline {6.1.4.2}flow\discretionary {\unhbox \voidb@x \hbox {\relax \fontsize {7}{8}\selectfont $\leftarrow \joinrel \rhook $}}{}{}I\discretionary {\unhbox \voidb@x \hbox {\relax \fontsize {7}{8}\selectfont $\leftarrow \joinrel \rhook $}}{}{}D\discretionary {\unhbox \voidb@x \hbox {\relax \fontsize {7}{8}\selectfont $\leftarrow \joinrel \rhook $}}{}{}Counter}{15}{subsubsection.6.1.4.2}
\contentsline {subsubsection}{\numberline {6.1.4.3}flow\discretionary {\unhbox \voidb@x \hbox {\relax \fontsize {7}{8}\selectfont $\leftarrow \joinrel \rhook $}}{}{}I\discretionary {\unhbox \voidb@x \hbox {\relax \fontsize {7}{8}\selectfont $\leftarrow \joinrel \rhook $}}{}{}D\discretionary {\unhbox \voidb@x \hbox {\relax \fontsize {7}{8}\selectfont $\leftarrow \joinrel \rhook $}}{}{}Set}{15}{subsubsection.6.1.4.3}
\contentsline {subsubsection}{\numberline {6.1.4.4}my\discretionary {\unhbox \voidb@x \hbox {\relax \fontsize {7}{8}\selectfont $\leftarrow \joinrel \rhook $}}{}{}Network}{15}{subsubsection.6.1.4.4}
\contentsline {section}{\numberline {6.2}Dependence\discretionary {\unhbox \voidb@x \hbox {\relax \fontsize {7}{8}\selectfont $\leftarrow \joinrel \rhook $}}{}{}Graph\discretionary {\unhbox \voidb@x \hbox {\relax \fontsize {7}{8}\selectfont $\leftarrow \joinrel \rhook $}}{}{}Node Struct Reference}{15}{section.6.2}
\contentsline {subsection}{\numberline {6.2.1}Detailed Description}{16}{subsection.6.2.1}
\contentsline {subsection}{\numberline {6.2.2}Constructor \& Destructor Documentation}{16}{subsection.6.2.2}
\contentsline {subsubsection}{\numberline {6.2.2.1}Dependence\discretionary {\unhbox \voidb@x \hbox {\relax \fontsize {7}{8}\selectfont $\leftarrow \joinrel \rhook $}}{}{}Graph\discretionary {\unhbox \voidb@x \hbox {\relax \fontsize {7}{8}\selectfont $\leftarrow \joinrel \rhook $}}{}{}Node()}{16}{subsubsection.6.2.2.1}
\contentsline {subsection}{\numberline {6.2.3}Member Data Documentation}{16}{subsection.6.2.3}
\contentsline {subsubsection}{\numberline {6.2.3.1}directed\discretionary {\unhbox \voidb@x \hbox {\relax \fontsize {7}{8}\selectfont $\leftarrow \joinrel \rhook $}}{}{}Nodes}{16}{subsubsection.6.2.3.1}
\contentsline {subsubsection}{\numberline {6.2.3.2}my\discretionary {\unhbox \voidb@x \hbox {\relax \fontsize {7}{8}\selectfont $\leftarrow \joinrel \rhook $}}{}{}Node}{17}{subsubsection.6.2.3.2}
\contentsline {section}{\numberline {6.3}Flow Struct Reference}{17}{section.6.3}
\contentsline {subsection}{\numberline {6.3.1}Detailed Description}{17}{subsection.6.3.1}
\contentsline {subsection}{\numberline {6.3.2}Member Function Documentation}{18}{subsection.6.3.2}
\contentsline {subsubsection}{\numberline {6.3.2.1}operator"!=()}{18}{subsubsection.6.3.2.1}
\contentsline {subsubsection}{\numberline {6.3.2.2}operator$<$()}{18}{subsubsection.6.3.2.2}
\contentsline {subsubsection}{\numberline {6.3.2.3}operator==()}{18}{subsubsection.6.3.2.3}
\contentsline {subsubsection}{\numberline {6.3.2.4}print\discretionary {\unhbox \voidb@x \hbox {\relax \fontsize {7}{8}\selectfont $\leftarrow \joinrel \rhook $}}{}{}Myself()}{18}{subsubsection.6.3.2.4}
\contentsline {subsubsection}{\numberline {6.3.2.5}set\discretionary {\unhbox \voidb@x \hbox {\relax \fontsize {7}{8}\selectfont $\leftarrow \joinrel \rhook $}}{}{}Egress()}{18}{subsubsection.6.3.2.5}
\contentsline {subsection}{\numberline {6.3.3}Member Data Documentation}{19}{subsection.6.3.3}
\contentsline {subsubsection}{\numberline {6.3.3.1}egress\discretionary {\unhbox \voidb@x \hbox {\relax \fontsize {7}{8}\selectfont $\leftarrow \joinrel \rhook $}}{}{}Rate}{19}{subsubsection.6.3.3.1}
\contentsline {subsubsection}{\numberline {6.3.3.2}flow\discretionary {\unhbox \voidb@x \hbox {\relax \fontsize {7}{8}\selectfont $\leftarrow \joinrel \rhook $}}{}{}ID}{19}{subsubsection.6.3.3.2}
\contentsline {subsubsection}{\numberline {6.3.3.3}flow\discretionary {\unhbox \voidb@x \hbox {\relax \fontsize {7}{8}\selectfont $\leftarrow \joinrel \rhook $}}{}{}Path}{19}{subsubsection.6.3.3.3}
\contentsline {subsubsection}{\numberline {6.3.3.4}ingress\discretionary {\unhbox \voidb@x \hbox {\relax \fontsize {7}{8}\selectfont $\leftarrow \joinrel \rhook $}}{}{}Rate}{19}{subsubsection.6.3.3.4}
\contentsline {section}{\numberline {6.4}Flow\discretionary {\unhbox \voidb@x \hbox {\relax \fontsize {7}{8}\selectfont $\leftarrow \joinrel \rhook $}}{}{}Segment Struct Reference}{20}{section.6.4}
\contentsline {subsection}{\numberline {6.4.1}Detailed Description}{20}{subsection.6.4.1}
\contentsline {subsection}{\numberline {6.4.2}Member Function Documentation}{20}{subsection.6.4.2}
\contentsline {subsubsection}{\numberline {6.4.2.1}print\discretionary {\unhbox \voidb@x \hbox {\relax \fontsize {7}{8}\selectfont $\leftarrow \joinrel \rhook $}}{}{}Myself()}{20}{subsubsection.6.4.2.1}
\contentsline {subsection}{\numberline {6.4.3}Member Data Documentation}{20}{subsection.6.4.3}
\contentsline {subsubsection}{\numberline {6.4.3.1}dest\discretionary {\unhbox \voidb@x \hbox {\relax \fontsize {7}{8}\selectfont $\leftarrow \joinrel \rhook $}}{}{}I\discretionary {\unhbox \voidb@x \hbox {\relax \fontsize {7}{8}\selectfont $\leftarrow \joinrel \rhook $}}{}{}P\discretionary {\unhbox \voidb@x \hbox {\relax \fontsize {7}{8}\selectfont $\leftarrow \joinrel \rhook $}}{}{}Address}{21}{subsubsection.6.4.3.1}
\contentsline {subsubsection}{\numberline {6.4.3.2}in\discretionary {\unhbox \voidb@x \hbox {\relax \fontsize {7}{8}\selectfont $\leftarrow \joinrel \rhook $}}{}{}\_\discretionary {\unhbox \voidb@x \hbox {\relax \fontsize {7}{8}\selectfont $\leftarrow \joinrel \rhook $}}{}{}rate}{21}{subsubsection.6.4.3.2}
\contentsline {subsubsection}{\numberline {6.4.3.3}my\discretionary {\unhbox \voidb@x \hbox {\relax \fontsize {7}{8}\selectfont $\leftarrow \joinrel \rhook $}}{}{}Flow\discretionary {\unhbox \voidb@x \hbox {\relax \fontsize {7}{8}\selectfont $\leftarrow \joinrel \rhook $}}{}{}ID}{21}{subsubsection.6.4.3.3}
\contentsline {subsubsection}{\numberline {6.4.3.4}segment\discretionary {\unhbox \voidb@x \hbox {\relax \fontsize {7}{8}\selectfont $\leftarrow \joinrel \rhook $}}{}{}ID}{21}{subsubsection.6.4.3.4}
\contentsline {subsubsection}{\numberline {6.4.3.5}source\discretionary {\unhbox \voidb@x \hbox {\relax \fontsize {7}{8}\selectfont $\leftarrow \joinrel \rhook $}}{}{}I\discretionary {\unhbox \voidb@x \hbox {\relax \fontsize {7}{8}\selectfont $\leftarrow \joinrel \rhook $}}{}{}P\discretionary {\unhbox \voidb@x \hbox {\relax \fontsize {7}{8}\selectfont $\leftarrow \joinrel \rhook $}}{}{}Address}{21}{subsubsection.6.4.3.5}
\contentsline {subsubsection}{\numberline {6.4.3.6}type}{22}{subsubsection.6.4.3.6}
\contentsline {section}{\numberline {6.5}Forwarding\discretionary {\unhbox \voidb@x \hbox {\relax \fontsize {7}{8}\selectfont $\leftarrow \joinrel \rhook $}}{}{}Device Struct Reference}{22}{section.6.5}
\contentsline {subsection}{\numberline {6.5.1}Detailed Description}{22}{subsection.6.5.1}
\contentsline {subsection}{\numberline {6.5.2}Member Data Documentation}{22}{subsection.6.5.2}
\contentsline {subsubsection}{\numberline {6.5.2.1}end\discretionary {\unhbox \voidb@x \hbox {\relax \fontsize {7}{8}\selectfont $\leftarrow \joinrel \rhook $}}{}{}Device}{23}{subsubsection.6.5.2.1}
\contentsline {subsubsection}{\numberline {6.5.2.2}id}{23}{subsubsection.6.5.2.2}
\contentsline {subsubsection}{\numberline {6.5.2.3}ip\discretionary {\unhbox \voidb@x \hbox {\relax \fontsize {7}{8}\selectfont $\leftarrow \joinrel \rhook $}}{}{}Address}{23}{subsubsection.6.5.2.3}
\contentsline {subsubsection}{\numberline {6.5.2.4}next\discretionary {\unhbox \voidb@x \hbox {\relax \fontsize {7}{8}\selectfont $\leftarrow \joinrel \rhook $}}{}{}Hops}{23}{subsubsection.6.5.2.4}
\contentsline {subsubsection}{\numberline {6.5.2.5}out\discretionary {\unhbox \voidb@x \hbox {\relax \fontsize {7}{8}\selectfont $\leftarrow \joinrel \rhook $}}{}{}Port\discretionary {\unhbox \voidb@x \hbox {\relax \fontsize {7}{8}\selectfont $\leftarrow \joinrel \rhook $}}{}{}Bandwidth}{23}{subsubsection.6.5.2.5}
\contentsline {section}{\numberline {6.6}std\discretionary {\unhbox \voidb@x \hbox {\relax \fontsize {7}{8}\selectfont $\leftarrow \joinrel \rhook $}}{}{}:\discretionary {\unhbox \voidb@x \hbox {\relax \fontsize {7}{8}\selectfont $\leftarrow \joinrel \rhook $}}{}{}:hash$<$ Flow $>$ Struct Template Reference}{24}{section.6.6}
\contentsline {subsection}{\numberline {6.6.1}Detailed Description}{24}{subsection.6.6.1}
\contentsline {subsection}{\numberline {6.6.2}Member Function Documentation}{24}{subsection.6.6.2}
\contentsline {subsubsection}{\numberline {6.6.2.1}operator()()}{24}{subsubsection.6.6.2.1}
\contentsline {section}{\numberline {6.7}My\discretionary {\unhbox \voidb@x \hbox {\relax \fontsize {7}{8}\selectfont $\leftarrow \joinrel \rhook $}}{}{}Test Class Reference}{24}{section.6.7}
\contentsline {subsection}{\numberline {6.7.1}Detailed Description}{25}{subsection.6.7.1}
\contentsline {subsection}{\numberline {6.7.2}Member Function Documentation}{25}{subsection.6.7.2}
\contentsline {subsubsection}{\numberline {6.7.2.1}my\discretionary {\unhbox \voidb@x \hbox {\relax \fontsize {7}{8}\selectfont $\leftarrow \joinrel \rhook $}}{}{}Test()}{25}{subsubsection.6.7.2.1}
\contentsline {section}{\numberline {6.8}Network Class Reference}{25}{section.6.8}
\contentsline {subsection}{\numberline {6.8.1}Detailed Description}{26}{subsection.6.8.1}
\contentsline {subsection}{\numberline {6.8.2}Member Function Documentation}{26}{subsection.6.8.2}
\contentsline {subsubsection}{\numberline {6.8.2.1}add\discretionary {\unhbox \voidb@x \hbox {\relax \fontsize {7}{8}\selectfont $\leftarrow \joinrel \rhook $}}{}{}Device()\hspace {0.1cm}{\relax \fontsize {8}{9.5}\selectfont \abovedisplayskip 6\p@ plus2\p@ minus4\p@ \abovedisplayshortskip \z@ plus\p@ \belowdisplayshortskip 3\p@ plus\p@ minus2\p@ \def \leftmargin \leftmargini \parsep 4\p@ plus2\p@ minus\p@ \topsep 8\p@ plus2\p@ minus4\p@ \itemsep 4\p@ plus2\p@ minus\p@ {\leftmargin \leftmargini \topsep 3\p@ plus\p@ minus\p@ \parsep 2\p@ plus\p@ minus\p@ \itemsep \parsep }\belowdisplayskip \abovedisplayskip \ttfamily [1/2]}}{27}{subsubsection.6.8.2.1}
\contentsline {subsubsection}{\numberline {6.8.2.2}add\discretionary {\unhbox \voidb@x \hbox {\relax \fontsize {7}{8}\selectfont $\leftarrow \joinrel \rhook $}}{}{}Device()\hspace {0.1cm}{\relax \fontsize {8}{9.5}\selectfont \abovedisplayskip 6\p@ plus2\p@ minus4\p@ \abovedisplayshortskip \z@ plus\p@ \belowdisplayshortskip 3\p@ plus\p@ minus2\p@ \def \leftmargin \leftmargini \parsep 4\p@ plus2\p@ minus\p@ \topsep 8\p@ plus2\p@ minus4\p@ \itemsep 4\p@ plus2\p@ minus\p@ {\leftmargin \leftmargini \topsep 3\p@ plus\p@ minus\p@ \parsep 2\p@ plus\p@ minus\p@ \itemsep \parsep }\belowdisplayskip \abovedisplayskip \ttfamily [2/2]}}{27}{subsubsection.6.8.2.2}
\contentsline {subsubsection}{\numberline {6.8.2.3}add\discretionary {\unhbox \voidb@x \hbox {\relax \fontsize {7}{8}\selectfont $\leftarrow \joinrel \rhook $}}{}{}Flow()\hspace {0.1cm}{\relax \fontsize {8}{9.5}\selectfont \abovedisplayskip 6\p@ plus2\p@ minus4\p@ \abovedisplayshortskip \z@ plus\p@ \belowdisplayshortskip 3\p@ plus\p@ minus2\p@ \def \leftmargin \leftmargini \parsep 4\p@ plus2\p@ minus\p@ \topsep 8\p@ plus2\p@ minus4\p@ \itemsep 4\p@ plus2\p@ minus\p@ {\leftmargin \leftmargini \topsep 3\p@ plus\p@ minus\p@ \parsep 2\p@ plus\p@ minus\p@ \itemsep \parsep }\belowdisplayskip \abovedisplayskip \ttfamily [1/2]}}{27}{subsubsection.6.8.2.3}
\contentsline {subsubsection}{\numberline {6.8.2.4}add\discretionary {\unhbox \voidb@x \hbox {\relax \fontsize {7}{8}\selectfont $\leftarrow \joinrel \rhook $}}{}{}Flow()\hspace {0.1cm}{\relax \fontsize {8}{9.5}\selectfont \abovedisplayskip 6\p@ plus2\p@ minus4\p@ \abovedisplayshortskip \z@ plus\p@ \belowdisplayshortskip 3\p@ plus\p@ minus2\p@ \def \leftmargin \leftmargini \parsep 4\p@ plus2\p@ minus\p@ \topsep 8\p@ plus2\p@ minus4\p@ \itemsep 4\p@ plus2\p@ minus\p@ {\leftmargin \leftmargini \topsep 3\p@ plus\p@ minus\p@ \parsep 2\p@ plus\p@ minus\p@ \itemsep \parsep }\belowdisplayskip \abovedisplayskip \ttfamily [2/2]}}{27}{subsubsection.6.8.2.4}
\contentsline {subsubsection}{\numberline {6.8.2.5}add\discretionary {\unhbox \voidb@x \hbox {\relax \fontsize {7}{8}\selectfont $\leftarrow \joinrel \rhook $}}{}{}Port()}{28}{subsubsection.6.8.2.5}
\contentsline {subsubsection}{\numberline {6.8.2.6}clear\discretionary {\unhbox \voidb@x \hbox {\relax \fontsize {7}{8}\selectfont $\leftarrow \joinrel \rhook $}}{}{}Flow\discretionary {\unhbox \voidb@x \hbox {\relax \fontsize {7}{8}\selectfont $\leftarrow \joinrel \rhook $}}{}{}Map()}{28}{subsubsection.6.8.2.6}
\contentsline {subsubsection}{\numberline {6.8.2.7}delete\discretionary {\unhbox \voidb@x \hbox {\relax \fontsize {7}{8}\selectfont $\leftarrow \joinrel \rhook $}}{}{}Flow()}{28}{subsubsection.6.8.2.7}
\contentsline {subsubsection}{\numberline {6.8.2.8}flow\discretionary {\unhbox \voidb@x \hbox {\relax \fontsize {7}{8}\selectfont $\leftarrow \joinrel \rhook $}}{}{}Exists()}{28}{subsubsection.6.8.2.8}
\contentsline {subsubsection}{\numberline {6.8.2.9}get\discretionary {\unhbox \voidb@x \hbox {\relax \fontsize {7}{8}\selectfont $\leftarrow \joinrel \rhook $}}{}{}Device\discretionary {\unhbox \voidb@x \hbox {\relax \fontsize {7}{8}\selectfont $\leftarrow \joinrel \rhook $}}{}{}Ip\discretionary {\unhbox \voidb@x \hbox {\relax \fontsize {7}{8}\selectfont $\leftarrow \joinrel \rhook $}}{}{}Address()}{28}{subsubsection.6.8.2.9}
\contentsline {subsubsection}{\numberline {6.8.2.10}get\discretionary {\unhbox \voidb@x \hbox {\relax \fontsize {7}{8}\selectfont $\leftarrow \joinrel \rhook $}}{}{}Device\discretionary {\unhbox \voidb@x \hbox {\relax \fontsize {7}{8}\selectfont $\leftarrow \joinrel \rhook $}}{}{}Map()}{29}{subsubsection.6.8.2.10}
\contentsline {subsubsection}{\numberline {6.8.2.11}get\discretionary {\unhbox \voidb@x \hbox {\relax \fontsize {7}{8}\selectfont $\leftarrow \joinrel \rhook $}}{}{}Flow()}{29}{subsubsection.6.8.2.11}
\contentsline {subsubsection}{\numberline {6.8.2.12}get\discretionary {\unhbox \voidb@x \hbox {\relax \fontsize {7}{8}\selectfont $\leftarrow \joinrel \rhook $}}{}{}Flow\discretionary {\unhbox \voidb@x \hbox {\relax \fontsize {7}{8}\selectfont $\leftarrow \joinrel \rhook $}}{}{}Map()}{29}{subsubsection.6.8.2.12}
\contentsline {subsubsection}{\numberline {6.8.2.13}is\discretionary {\unhbox \voidb@x \hbox {\relax \fontsize {7}{8}\selectfont $\leftarrow \joinrel \rhook $}}{}{}Device\discretionary {\unhbox \voidb@x \hbox {\relax \fontsize {7}{8}\selectfont $\leftarrow \joinrel \rhook $}}{}{}Present()}{29}{subsubsection.6.8.2.13}
\contentsline {subsubsection}{\numberline {6.8.2.14}is\discretionary {\unhbox \voidb@x \hbox {\relax \fontsize {7}{8}\selectfont $\leftarrow \joinrel \rhook $}}{}{}End\discretionary {\unhbox \voidb@x \hbox {\relax \fontsize {7}{8}\selectfont $\leftarrow \joinrel \rhook $}}{}{}Device()}{29}{subsubsection.6.8.2.14}
\contentsline {subsubsection}{\numberline {6.8.2.15}is\discretionary {\unhbox \voidb@x \hbox {\relax \fontsize {7}{8}\selectfont $\leftarrow \joinrel \rhook $}}{}{}Port\discretionary {\unhbox \voidb@x \hbox {\relax \fontsize {7}{8}\selectfont $\leftarrow \joinrel \rhook $}}{}{}Present()}{30}{subsubsection.6.8.2.15}
\contentsline {subsubsection}{\numberline {6.8.2.16}print()}{30}{subsubsection.6.8.2.16}
\contentsline {subsubsection}{\numberline {6.8.2.17}print\discretionary {\unhbox \voidb@x \hbox {\relax \fontsize {7}{8}\selectfont $\leftarrow \joinrel \rhook $}}{}{}Flows()}{30}{subsubsection.6.8.2.17}
\contentsline {subsubsection}{\numberline {6.8.2.18}set\discretionary {\unhbox \voidb@x \hbox {\relax \fontsize {7}{8}\selectfont $\leftarrow \joinrel \rhook $}}{}{}Device\discretionary {\unhbox \voidb@x \hbox {\relax \fontsize {7}{8}\selectfont $\leftarrow \joinrel \rhook $}}{}{}Map()}{30}{subsubsection.6.8.2.18}
\contentsline {subsection}{\numberline {6.8.3}Friends And Related Function Documentation}{30}{subsection.6.8.3}
\contentsline {subsubsection}{\numberline {6.8.3.1}Simulation}{30}{subsubsection.6.8.3.1}
\contentsline {subsection}{\numberline {6.8.4}Member Data Documentation}{31}{subsection.6.8.4}
\contentsline {subsubsection}{\numberline {6.8.4.1}device\discretionary {\unhbox \voidb@x \hbox {\relax \fontsize {7}{8}\selectfont $\leftarrow \joinrel \rhook $}}{}{}Map}{31}{subsubsection.6.8.4.1}
\contentsline {subsubsection}{\numberline {6.8.4.2}flow\discretionary {\unhbox \voidb@x \hbox {\relax \fontsize {7}{8}\selectfont $\leftarrow \joinrel \rhook $}}{}{}Map}{31}{subsubsection.6.8.4.2}
\contentsline {subsubsection}{\numberline {6.8.4.3}id\discretionary {\unhbox \voidb@x \hbox {\relax \fontsize {7}{8}\selectfont $\leftarrow \joinrel \rhook $}}{}{}To\discretionary {\unhbox \voidb@x \hbox {\relax \fontsize {7}{8}\selectfont $\leftarrow \joinrel \rhook $}}{}{}Ip\discretionary {\unhbox \voidb@x \hbox {\relax \fontsize {7}{8}\selectfont $\leftarrow \joinrel \rhook $}}{}{}Address\discretionary {\unhbox \voidb@x \hbox {\relax \fontsize {7}{8}\selectfont $\leftarrow \joinrel \rhook $}}{}{}Map}{31}{subsubsection.6.8.4.3}
\contentsline {section}{\numberline {6.9}Path\discretionary {\unhbox \voidb@x \hbox {\relax \fontsize {7}{8}\selectfont $\leftarrow \joinrel \rhook $}}{}{}Generator Class Reference}{31}{section.6.9}
\contentsline {subsection}{\numberline {6.9.1}Detailed Description}{32}{subsection.6.9.1}
\contentsline {subsection}{\numberline {6.9.2}Constructor \& Destructor Documentation}{32}{subsection.6.9.2}
\contentsline {subsubsection}{\numberline {6.9.2.1}Path\discretionary {\unhbox \voidb@x \hbox {\relax \fontsize {7}{8}\selectfont $\leftarrow \joinrel \rhook $}}{}{}Generator()}{32}{subsubsection.6.9.2.1}
\contentsline {subsection}{\numberline {6.9.3}Member Function Documentation}{32}{subsection.6.9.3}
\contentsline {subsubsection}{\numberline {6.9.3.1}construct\discretionary {\unhbox \voidb@x \hbox {\relax \fontsize {7}{8}\selectfont $\leftarrow \joinrel \rhook $}}{}{}Flow()}{32}{subsubsection.6.9.3.1}
\contentsline {subsubsection}{\numberline {6.9.3.2}run\discretionary {\unhbox \voidb@x \hbox {\relax \fontsize {7}{8}\selectfont $\leftarrow \joinrel \rhook $}}{}{}D\discretionary {\unhbox \voidb@x \hbox {\relax \fontsize {7}{8}\selectfont $\leftarrow \joinrel \rhook $}}{}{}F\discretionary {\unhbox \voidb@x \hbox {\relax \fontsize {7}{8}\selectfont $\leftarrow \joinrel \rhook $}}{}{}S()}{33}{subsubsection.6.9.3.2}
\contentsline {subsection}{\numberline {6.9.4}Member Data Documentation}{33}{subsection.6.9.4}
\contentsline {subsubsection}{\numberline {6.9.4.1}my\discretionary {\unhbox \voidb@x \hbox {\relax \fontsize {7}{8}\selectfont $\leftarrow \joinrel \rhook $}}{}{}Network}{33}{subsubsection.6.9.4.1}
\contentsline {section}{\numberline {6.10}Port\discretionary {\unhbox \voidb@x \hbox {\relax \fontsize {7}{8}\selectfont $\leftarrow \joinrel \rhook $}}{}{}Volumn\discretionary {\unhbox \voidb@x \hbox {\relax \fontsize {7}{8}\selectfont $\leftarrow \joinrel \rhook $}}{}{}State Struct Reference}{33}{section.6.10}
\contentsline {subsection}{\numberline {6.10.1}Detailed Description}{34}{subsection.6.10.1}
\contentsline {subsection}{\numberline {6.10.2}Member Function Documentation}{34}{subsection.6.10.2}
\contentsline {subsubsection}{\numberline {6.10.2.1}print\discretionary {\unhbox \voidb@x \hbox {\relax \fontsize {7}{8}\selectfont $\leftarrow \joinrel \rhook $}}{}{}Myself()}{34}{subsubsection.6.10.2.1}
\contentsline {subsection}{\numberline {6.10.3}Member Data Documentation}{34}{subsection.6.10.3}
\contentsline {subsubsection}{\numberline {6.10.3.1}bandwidth}{34}{subsubsection.6.10.3.1}
\contentsline {subsubsection}{\numberline {6.10.3.2}in\discretionary {\unhbox \voidb@x \hbox {\relax \fontsize {7}{8}\selectfont $\leftarrow \joinrel \rhook $}}{}{}\_\discretionary {\unhbox \voidb@x \hbox {\relax \fontsize {7}{8}\selectfont $\leftarrow \joinrel \rhook $}}{}{}segment}{34}{subsubsection.6.10.3.2}
\contentsline {subsubsection}{\numberline {6.10.3.3}port\discretionary {\unhbox \voidb@x \hbox {\relax \fontsize {7}{8}\selectfont $\leftarrow \joinrel \rhook $}}{}{}State}{35}{subsubsection.6.10.3.3}
\contentsline {section}{\numberline {6.11}Simulation Class Reference}{35}{section.6.11}
\contentsline {subsection}{\numberline {6.11.1}Detailed Description}{36}{subsection.6.11.1}
\contentsline {subsection}{\numberline {6.11.2}Member Function Documentation}{36}{subsection.6.11.2}
\contentsline {subsubsection}{\numberline {6.11.2.1}calculate\discretionary {\unhbox \voidb@x \hbox {\relax \fontsize {7}{8}\selectfont $\leftarrow \joinrel \rhook $}}{}{}Egress()}{36}{subsubsection.6.11.2.1}
\contentsline {subsubsection}{\numberline {6.11.2.2}fixed\discretionary {\unhbox \voidb@x \hbox {\relax \fontsize {7}{8}\selectfont $\leftarrow \joinrel \rhook $}}{}{}Point\discretionary {\unhbox \voidb@x \hbox {\relax \fontsize {7}{8}\selectfont $\leftarrow \joinrel \rhook $}}{}{}Iteration()}{36}{subsubsection.6.11.2.2}
\contentsline {subsubsection}{\numberline {6.11.2.3}generate\discretionary {\unhbox \voidb@x \hbox {\relax \fontsize {7}{8}\selectfont $\leftarrow \joinrel \rhook $}}{}{}Dependence\discretionary {\unhbox \voidb@x \hbox {\relax \fontsize {7}{8}\selectfont $\leftarrow \joinrel \rhook $}}{}{}Graph()}{36}{subsubsection.6.11.2.3}
\contentsline {subsubsection}{\numberline {6.11.2.4}get\discretionary {\unhbox \voidb@x \hbox {\relax \fontsize {7}{8}\selectfont $\leftarrow \joinrel \rhook $}}{}{}Congested\discretionary {\unhbox \voidb@x \hbox {\relax \fontsize {7}{8}\selectfont $\leftarrow \joinrel \rhook $}}{}{}Ports()}{37}{subsubsection.6.11.2.4}
\contentsline {subsubsection}{\numberline {6.11.2.5}print\discretionary {\unhbox \voidb@x \hbox {\relax \fontsize {7}{8}\selectfont $\leftarrow \joinrel \rhook $}}{}{}All\discretionary {\unhbox \voidb@x \hbox {\relax \fontsize {7}{8}\selectfont $\leftarrow \joinrel \rhook $}}{}{}Port()}{37}{subsubsection.6.11.2.5}
\contentsline {subsubsection}{\numberline {6.11.2.6}print\discretionary {\unhbox \voidb@x \hbox {\relax \fontsize {7}{8}\selectfont $\leftarrow \joinrel \rhook $}}{}{}Dependence\discretionary {\unhbox \voidb@x \hbox {\relax \fontsize {7}{8}\selectfont $\leftarrow \joinrel \rhook $}}{}{}Graph()}{37}{subsubsection.6.11.2.6}
\contentsline {subsubsection}{\numberline {6.11.2.7}rule\discretionary {\unhbox \voidb@x \hbox {\relax \fontsize {7}{8}\selectfont $\leftarrow \joinrel \rhook $}}{}{}Based\discretionary {\unhbox \voidb@x \hbox {\relax \fontsize {7}{8}\selectfont $\leftarrow \joinrel \rhook $}}{}{}Update()}{37}{subsubsection.6.11.2.7}
\contentsline {subsubsection}{\numberline {6.11.2.8}setup()}{37}{subsubsection.6.11.2.8}
\contentsline {subsubsection}{\numberline {6.11.2.9}values\discretionary {\unhbox \voidb@x \hbox {\relax \fontsize {7}{8}\selectfont $\leftarrow \joinrel \rhook $}}{}{}Fixed()}{38}{subsubsection.6.11.2.9}
\contentsline {subsection}{\numberline {6.11.3}Member Data Documentation}{38}{subsection.6.11.3}
\contentsline {subsubsection}{\numberline {6.11.3.1}causal\discretionary {\unhbox \voidb@x \hbox {\relax \fontsize {7}{8}\selectfont $\leftarrow \joinrel \rhook $}}{}{}Relation}{38}{subsubsection.6.11.3.1}
\contentsline {subsubsection}{\numberline {6.11.3.2}critical\discretionary {\unhbox \voidb@x \hbox {\relax \fontsize {7}{8}\selectfont $\leftarrow \joinrel \rhook $}}{}{}Segments}{38}{subsubsection.6.11.3.2}
\contentsline {subsubsection}{\numberline {6.11.3.3}dependence\discretionary {\unhbox \voidb@x \hbox {\relax \fontsize {7}{8}\selectfont $\leftarrow \joinrel \rhook $}}{}{}Graph}{38}{subsubsection.6.11.3.3}
\contentsline {subsubsection}{\numberline {6.11.3.4}num\discretionary {\unhbox \voidb@x \hbox {\relax \fontsize {7}{8}\selectfont $\leftarrow \joinrel \rhook $}}{}{}Congested\discretionary {\unhbox \voidb@x \hbox {\relax \fontsize {7}{8}\selectfont $\leftarrow \joinrel \rhook $}}{}{}Ports}{38}{subsubsection.6.11.3.4}
\contentsline {subsubsection}{\numberline {6.11.3.5}port\discretionary {\unhbox \voidb@x \hbox {\relax \fontsize {7}{8}\selectfont $\leftarrow \joinrel \rhook $}}{}{}Map}{39}{subsubsection.6.11.3.5}
\contentsline {section}{\numberline {6.12}String\discretionary {\unhbox \voidb@x \hbox {\relax \fontsize {7}{8}\selectfont $\leftarrow \joinrel \rhook $}}{}{}Tokenizer Class Reference}{39}{section.6.12}
\contentsline {subsection}{\numberline {6.12.1}Detailed Description}{39}{subsection.6.12.1}
\contentsline {subsection}{\numberline {6.12.2}Constructor \& Destructor Documentation}{40}{subsection.6.12.2}
\contentsline {subsubsection}{\numberline {6.12.2.1}String\discretionary {\unhbox \voidb@x \hbox {\relax \fontsize {7}{8}\selectfont $\leftarrow \joinrel \rhook $}}{}{}Tokenizer()}{40}{subsubsection.6.12.2.1}
\contentsline {subsection}{\numberline {6.12.3}Member Function Documentation}{40}{subsection.6.12.3}
\contentsline {subsubsection}{\numberline {6.12.3.1}count\discretionary {\unhbox \voidb@x \hbox {\relax \fontsize {7}{8}\selectfont $\leftarrow \joinrel \rhook $}}{}{}Tokens()}{40}{subsubsection.6.12.3.1}
\contentsline {subsubsection}{\numberline {6.12.3.2}has\discretionary {\unhbox \voidb@x \hbox {\relax \fontsize {7}{8}\selectfont $\leftarrow \joinrel \rhook $}}{}{}More\discretionary {\unhbox \voidb@x \hbox {\relax \fontsize {7}{8}\selectfont $\leftarrow \joinrel \rhook $}}{}{}Tokens()}{40}{subsubsection.6.12.3.2}
\contentsline {subsubsection}{\numberline {6.12.3.3}next\discretionary {\unhbox \voidb@x \hbox {\relax \fontsize {7}{8}\selectfont $\leftarrow \joinrel \rhook $}}{}{}Token()}{40}{subsubsection.6.12.3.3}
\contentsline {subsubsection}{\numberline {6.12.3.4}to\discretionary {\unhbox \voidb@x \hbox {\relax \fontsize {7}{8}\selectfont $\leftarrow \joinrel \rhook $}}{}{}String()}{41}{subsubsection.6.12.3.4}
\contentsline {subsection}{\numberline {6.12.4}Member Data Documentation}{41}{subsection.6.12.4}
\contentsline {subsubsection}{\numberline {6.12.4.1}delim}{41}{subsubsection.6.12.4.1}
\contentsline {subsubsection}{\numberline {6.12.4.2}str}{41}{subsubsection.6.12.4.2}
\contentsline {subsubsection}{\numberline {6.12.4.3}tokens}{41}{subsubsection.6.12.4.3}
\contentsline {section}{\numberline {6.13}Veri\discretionary {\unhbox \voidb@x \hbox {\relax \fontsize {7}{8}\selectfont $\leftarrow \joinrel \rhook $}}{}{}Congestion Class Reference}{41}{section.6.13}
\contentsline {subsection}{\numberline {6.13.1}Detailed Description}{42}{subsection.6.13.1}
\contentsline {subsection}{\numberline {6.13.2}Constructor \& Destructor Documentation}{43}{subsection.6.13.2}
\contentsline {subsubsection}{\numberline {6.13.2.1}Veri\discretionary {\unhbox \voidb@x \hbox {\relax \fontsize {7}{8}\selectfont $\leftarrow \joinrel \rhook $}}{}{}Congestion()}{43}{subsubsection.6.13.2.1}
\contentsline {subsection}{\numberline {6.13.3}Member Function Documentation}{43}{subsection.6.13.3}
\contentsline {subsubsection}{\numberline {6.13.3.1}add\discretionary {\unhbox \voidb@x \hbox {\relax \fontsize {7}{8}\selectfont $\leftarrow \joinrel \rhook $}}{}{}New\discretionary {\unhbox \voidb@x \hbox {\relax \fontsize {7}{8}\selectfont $\leftarrow \joinrel \rhook $}}{}{}Flow()}{43}{subsubsection.6.13.3.1}
\contentsline {subsubsection}{\numberline {6.13.3.2}delete\discretionary {\unhbox \voidb@x \hbox {\relax \fontsize {7}{8}\selectfont $\leftarrow \joinrel \rhook $}}{}{}Flow()}{43}{subsubsection.6.13.3.2}
\contentsline {subsubsection}{\numberline {6.13.3.3}generate\discretionary {\unhbox \voidb@x \hbox {\relax \fontsize {7}{8}\selectfont $\leftarrow \joinrel \rhook $}}{}{}Relevant\discretionary {\unhbox \voidb@x \hbox {\relax \fontsize {7}{8}\selectfont $\leftarrow \joinrel \rhook $}}{}{}Network()}{43}{subsubsection.6.13.3.3}
\contentsline {subsubsection}{\numberline {6.13.3.4}print\discretionary {\unhbox \voidb@x \hbox {\relax \fontsize {7}{8}\selectfont $\leftarrow \joinrel \rhook $}}{}{}Flows()}{44}{subsubsection.6.13.3.4}
\contentsline {subsubsection}{\numberline {6.13.3.5}print\discretionary {\unhbox \voidb@x \hbox {\relax \fontsize {7}{8}\selectfont $\leftarrow \joinrel \rhook $}}{}{}Port\discretionary {\unhbox \voidb@x \hbox {\relax \fontsize {7}{8}\selectfont $\leftarrow \joinrel \rhook $}}{}{}Share()}{44}{subsubsection.6.13.3.5}
\contentsline {subsubsection}{\numberline {6.13.3.6}print\discretionary {\unhbox \voidb@x \hbox {\relax \fontsize {7}{8}\selectfont $\leftarrow \joinrel \rhook $}}{}{}Stats()}{44}{subsubsection.6.13.3.6}
\contentsline {subsubsection}{\numberline {6.13.3.7}simulate()}{44}{subsubsection.6.13.3.7}
\contentsline {subsubsection}{\numberline {6.13.3.8}verify\discretionary {\unhbox \voidb@x \hbox {\relax \fontsize {7}{8}\selectfont $\leftarrow \joinrel \rhook $}}{}{}A\discretionary {\unhbox \voidb@x \hbox {\relax \fontsize {7}{8}\selectfont $\leftarrow \joinrel \rhook $}}{}{}Flow()}{44}{subsubsection.6.13.3.8}
\contentsline {subsection}{\numberline {6.13.4}Member Data Documentation}{45}{subsection.6.13.4}
\contentsline {subsubsection}{\numberline {6.13.4.1}avg\discretionary {\unhbox \voidb@x \hbox {\relax \fontsize {7}{8}\selectfont $\leftarrow \joinrel \rhook $}}{}{}\_\discretionary {\unhbox \voidb@x \hbox {\relax \fontsize {7}{8}\selectfont $\leftarrow \joinrel \rhook $}}{}{}affected\discretionary {\unhbox \voidb@x \hbox {\relax \fontsize {7}{8}\selectfont $\leftarrow \joinrel \rhook $}}{}{}Flows}{45}{subsubsection.6.13.4.1}
\contentsline {subsubsection}{\numberline {6.13.4.2}current\discretionary {\unhbox \voidb@x \hbox {\relax \fontsize {7}{8}\selectfont $\leftarrow \joinrel \rhook $}}{}{}\_\discretionary {\unhbox \voidb@x \hbox {\relax \fontsize {7}{8}\selectfont $\leftarrow \joinrel \rhook $}}{}{}graph\discretionary {\unhbox \voidb@x \hbox {\relax \fontsize {7}{8}\selectfont $\leftarrow \joinrel \rhook $}}{}{}\_\discretionary {\unhbox \voidb@x \hbox {\relax \fontsize {7}{8}\selectfont $\leftarrow \joinrel \rhook $}}{}{}size}{45}{subsubsection.6.13.4.2}
\contentsline {subsubsection}{\numberline {6.13.4.3}num\discretionary {\unhbox \voidb@x \hbox {\relax \fontsize {7}{8}\selectfont $\leftarrow \joinrel \rhook $}}{}{}\_\discretionary {\unhbox \voidb@x \hbox {\relax \fontsize {7}{8}\selectfont $\leftarrow \joinrel \rhook $}}{}{}congestion}{45}{subsubsection.6.13.4.3}
\contentsline {subsubsection}{\numberline {6.13.4.4}num\discretionary {\unhbox \voidb@x \hbox {\relax \fontsize {7}{8}\selectfont $\leftarrow \joinrel \rhook $}}{}{}\_\discretionary {\unhbox \voidb@x \hbox {\relax \fontsize {7}{8}\selectfont $\leftarrow \joinrel \rhook $}}{}{}dependency\discretionary {\unhbox \voidb@x \hbox {\relax \fontsize {7}{8}\selectfont $\leftarrow \joinrel \rhook $}}{}{}Graph}{45}{subsubsection.6.13.4.4}
\contentsline {subsubsection}{\numberline {6.13.4.5}num\discretionary {\unhbox \voidb@x \hbox {\relax \fontsize {7}{8}\selectfont $\leftarrow \joinrel \rhook $}}{}{}\_\discretionary {\unhbox \voidb@x \hbox {\relax \fontsize {7}{8}\selectfont $\leftarrow \joinrel \rhook $}}{}{}verification}{45}{subsubsection.6.13.4.5}
\contentsline {subsubsection}{\numberline {6.13.4.6}port\discretionary {\unhbox \voidb@x \hbox {\relax \fontsize {7}{8}\selectfont $\leftarrow \joinrel \rhook $}}{}{}Share}{46}{subsubsection.6.13.4.6}
\contentsline {subsubsection}{\numberline {6.13.4.7}total\discretionary {\unhbox \voidb@x \hbox {\relax \fontsize {7}{8}\selectfont $\leftarrow \joinrel \rhook $}}{}{}\_\discretionary {\unhbox \voidb@x \hbox {\relax \fontsize {7}{8}\selectfont $\leftarrow \joinrel \rhook $}}{}{}find\discretionary {\unhbox \voidb@x \hbox {\relax \fontsize {7}{8}\selectfont $\leftarrow \joinrel \rhook $}}{}{}\_\discretionary {\unhbox \voidb@x \hbox {\relax \fontsize {7}{8}\selectfont $\leftarrow \joinrel \rhook $}}{}{}affected\discretionary {\unhbox \voidb@x \hbox {\relax \fontsize {7}{8}\selectfont $\leftarrow \joinrel \rhook $}}{}{}\_\discretionary {\unhbox \voidb@x \hbox {\relax \fontsize {7}{8}\selectfont $\leftarrow \joinrel \rhook $}}{}{}time}{46}{subsubsection.6.13.4.7}
\contentsline {subsubsection}{\numberline {6.13.4.8}total\discretionary {\unhbox \voidb@x \hbox {\relax \fontsize {7}{8}\selectfont $\leftarrow \joinrel \rhook $}}{}{}\_\discretionary {\unhbox \voidb@x \hbox {\relax \fontsize {7}{8}\selectfont $\leftarrow \joinrel \rhook $}}{}{}generate\discretionary {\unhbox \voidb@x \hbox {\relax \fontsize {7}{8}\selectfont $\leftarrow \joinrel \rhook $}}{}{}\_\discretionary {\unhbox \voidb@x \hbox {\relax \fontsize {7}{8}\selectfont $\leftarrow \joinrel \rhook $}}{}{}subnetwork\discretionary {\unhbox \voidb@x \hbox {\relax \fontsize {7}{8}\selectfont $\leftarrow \joinrel \rhook $}}{}{}\_\discretionary {\unhbox \voidb@x \hbox {\relax \fontsize {7}{8}\selectfont $\leftarrow \joinrel \rhook $}}{}{}time}{46}{subsubsection.6.13.4.8}
\contentsline {subsubsection}{\numberline {6.13.4.9}total\discretionary {\unhbox \voidb@x \hbox {\relax \fontsize {7}{8}\selectfont $\leftarrow \joinrel \rhook $}}{}{}\_\discretionary {\unhbox \voidb@x \hbox {\relax \fontsize {7}{8}\selectfont $\leftarrow \joinrel \rhook $}}{}{}simulation\discretionary {\unhbox \voidb@x \hbox {\relax \fontsize {7}{8}\selectfont $\leftarrow \joinrel \rhook $}}{}{}\_\discretionary {\unhbox \voidb@x \hbox {\relax \fontsize {7}{8}\selectfont $\leftarrow \joinrel \rhook $}}{}{}time}{46}{subsubsection.6.13.4.9}
\contentsline {subsubsection}{\numberline {6.13.4.10}whole\discretionary {\unhbox \voidb@x \hbox {\relax \fontsize {7}{8}\selectfont $\leftarrow \joinrel \rhook $}}{}{}Network}{46}{subsubsection.6.13.4.10}
\contentsline {chapter}{\numberline {7}File Documentation}{47}{chapter.7}
\contentsline {section}{\numberline {7.1}Application.\discretionary {\unhbox \voidb@x \hbox {\relax \fontsize {7}{8}\selectfont $\leftarrow \joinrel \rhook $}}{}{}cpp File Reference}{47}{section.7.1}
\contentsline {section}{\numberline {7.2}Application.\discretionary {\unhbox \voidb@x \hbox {\relax \fontsize {7}{8}\selectfont $\leftarrow \joinrel \rhook $}}{}{}cpp}{47}{section.7.2}
\contentsline {section}{\numberline {7.3}Application.\discretionary {\unhbox \voidb@x \hbox {\relax \fontsize {7}{8}\selectfont $\leftarrow \joinrel \rhook $}}{}{}h File Reference}{51}{section.7.3}
\contentsline {section}{\numberline {7.4}Application.\discretionary {\unhbox \voidb@x \hbox {\relax \fontsize {7}{8}\selectfont $\leftarrow \joinrel \rhook $}}{}{}h}{51}{section.7.4}
\contentsline {section}{\numberline {7.5}Flow.\discretionary {\unhbox \voidb@x \hbox {\relax \fontsize {7}{8}\selectfont $\leftarrow \joinrel \rhook $}}{}{}h File Reference}{52}{section.7.5}
\contentsline {subsection}{\numberline {7.5.1}Enumeration Type Documentation}{53}{subsection.7.5.1}
\contentsline {subsubsection}{\numberline {7.5.1.1}Flow\discretionary {\unhbox \voidb@x \hbox {\relax \fontsize {7}{8}\selectfont $\leftarrow \joinrel \rhook $}}{}{}Type}{53}{subsubsection.7.5.1.1}
\contentsline {section}{\numberline {7.6}Flow.\discretionary {\unhbox \voidb@x \hbox {\relax \fontsize {7}{8}\selectfont $\leftarrow \joinrel \rhook $}}{}{}h}{53}{section.7.6}
\contentsline {section}{\numberline {7.7}Forwarding\discretionary {\unhbox \voidb@x \hbox {\relax \fontsize {7}{8}\selectfont $\leftarrow \joinrel \rhook $}}{}{}Device.\discretionary {\unhbox \voidb@x \hbox {\relax \fontsize {7}{8}\selectfont $\leftarrow \joinrel \rhook $}}{}{}h File Reference}{54}{section.7.7}
\contentsline {section}{\numberline {7.8}Forwarding\discretionary {\unhbox \voidb@x \hbox {\relax \fontsize {7}{8}\selectfont $\leftarrow \joinrel \rhook $}}{}{}Device.\discretionary {\unhbox \voidb@x \hbox {\relax \fontsize {7}{8}\selectfont $\leftarrow \joinrel \rhook $}}{}{}h}{54}{section.7.8}
\contentsline {section}{\numberline {7.9}Main.\discretionary {\unhbox \voidb@x \hbox {\relax \fontsize {7}{8}\selectfont $\leftarrow \joinrel \rhook $}}{}{}cpp File Reference}{55}{section.7.9}
\contentsline {subsection}{\numberline {7.9.1}Function Documentation}{55}{subsection.7.9.1}
\contentsline {subsubsection}{\numberline {7.9.1.1}main()}{55}{subsubsection.7.9.1.1}
\contentsline {section}{\numberline {7.10}Main.\discretionary {\unhbox \voidb@x \hbox {\relax \fontsize {7}{8}\selectfont $\leftarrow \joinrel \rhook $}}{}{}cpp}{56}{section.7.10}
\contentsline {section}{\numberline {7.11}mainpage.\discretionary {\unhbox \voidb@x \hbox {\relax \fontsize {7}{8}\selectfont $\leftarrow \joinrel \rhook $}}{}{}dox File Reference}{56}{section.7.11}
\contentsline {section}{\numberline {7.12}My\discretionary {\unhbox \voidb@x \hbox {\relax \fontsize {7}{8}\selectfont $\leftarrow \joinrel \rhook $}}{}{}Test.\discretionary {\unhbox \voidb@x \hbox {\relax \fontsize {7}{8}\selectfont $\leftarrow \joinrel \rhook $}}{}{}cpp File Reference}{56}{section.7.12}
\contentsline {subsection}{\numberline {7.12.1}Function Documentation}{57}{subsection.7.12.1}
\contentsline {subsubsection}{\numberline {7.12.1.1}generate\discretionary {\unhbox \voidb@x \hbox {\relax \fontsize {7}{8}\selectfont $\leftarrow \joinrel \rhook $}}{}{}Campus\discretionary {\unhbox \voidb@x \hbox {\relax \fontsize {7}{8}\selectfont $\leftarrow \joinrel \rhook $}}{}{}Network()}{57}{subsubsection.7.12.1.1}
\contentsline {section}{\numberline {7.13}My\discretionary {\unhbox \voidb@x \hbox {\relax \fontsize {7}{8}\selectfont $\leftarrow \joinrel \rhook $}}{}{}Test.\discretionary {\unhbox \voidb@x \hbox {\relax \fontsize {7}{8}\selectfont $\leftarrow \joinrel \rhook $}}{}{}cpp}{57}{section.7.13}
\contentsline {section}{\numberline {7.14}My\discretionary {\unhbox \voidb@x \hbox {\relax \fontsize {7}{8}\selectfont $\leftarrow \joinrel \rhook $}}{}{}Test.\discretionary {\unhbox \voidb@x \hbox {\relax \fontsize {7}{8}\selectfont $\leftarrow \joinrel \rhook $}}{}{}h File Reference}{60}{section.7.14}
\contentsline {section}{\numberline {7.15}My\discretionary {\unhbox \voidb@x \hbox {\relax \fontsize {7}{8}\selectfont $\leftarrow \joinrel \rhook $}}{}{}Test.\discretionary {\unhbox \voidb@x \hbox {\relax \fontsize {7}{8}\selectfont $\leftarrow \joinrel \rhook $}}{}{}h}{61}{section.7.15}
\contentsline {section}{\numberline {7.16}Network.\discretionary {\unhbox \voidb@x \hbox {\relax \fontsize {7}{8}\selectfont $\leftarrow \joinrel \rhook $}}{}{}cpp File Reference}{61}{section.7.16}
\contentsline {section}{\numberline {7.17}Network.\discretionary {\unhbox \voidb@x \hbox {\relax \fontsize {7}{8}\selectfont $\leftarrow \joinrel \rhook $}}{}{}cpp}{61}{section.7.17}
\contentsline {section}{\numberline {7.18}Network.\discretionary {\unhbox \voidb@x \hbox {\relax \fontsize {7}{8}\selectfont $\leftarrow \joinrel \rhook $}}{}{}h File Reference}{64}{section.7.18}
\contentsline {section}{\numberline {7.19}Network.\discretionary {\unhbox \voidb@x \hbox {\relax \fontsize {7}{8}\selectfont $\leftarrow \joinrel \rhook $}}{}{}h}{64}{section.7.19}
\contentsline {section}{\numberline {7.20}Path\discretionary {\unhbox \voidb@x \hbox {\relax \fontsize {7}{8}\selectfont $\leftarrow \joinrel \rhook $}}{}{}Generator.\discretionary {\unhbox \voidb@x \hbox {\relax \fontsize {7}{8}\selectfont $\leftarrow \joinrel \rhook $}}{}{}cpp File Reference}{65}{section.7.20}
\contentsline {section}{\numberline {7.21}Path\discretionary {\unhbox \voidb@x \hbox {\relax \fontsize {7}{8}\selectfont $\leftarrow \joinrel \rhook $}}{}{}Generator.\discretionary {\unhbox \voidb@x \hbox {\relax \fontsize {7}{8}\selectfont $\leftarrow \joinrel \rhook $}}{}{}cpp}{65}{section.7.21}
\contentsline {section}{\numberline {7.22}Path\discretionary {\unhbox \voidb@x \hbox {\relax \fontsize {7}{8}\selectfont $\leftarrow \joinrel \rhook $}}{}{}Generator.\discretionary {\unhbox \voidb@x \hbox {\relax \fontsize {7}{8}\selectfont $\leftarrow \joinrel \rhook $}}{}{}h File Reference}{67}{section.7.22}
\contentsline {section}{\numberline {7.23}Path\discretionary {\unhbox \voidb@x \hbox {\relax \fontsize {7}{8}\selectfont $\leftarrow \joinrel \rhook $}}{}{}Generator.\discretionary {\unhbox \voidb@x \hbox {\relax \fontsize {7}{8}\selectfont $\leftarrow \joinrel \rhook $}}{}{}h}{68}{section.7.23}
\contentsline {section}{\numberline {7.24}Port\discretionary {\unhbox \voidb@x \hbox {\relax \fontsize {7}{8}\selectfont $\leftarrow \joinrel \rhook $}}{}{}Volumn\discretionary {\unhbox \voidb@x \hbox {\relax \fontsize {7}{8}\selectfont $\leftarrow \joinrel \rhook $}}{}{}State.\discretionary {\unhbox \voidb@x \hbox {\relax \fontsize {7}{8}\selectfont $\leftarrow \joinrel \rhook $}}{}{}h File Reference}{68}{section.7.24}
\contentsline {subsection}{\numberline {7.24.1}Enumeration Type Documentation}{68}{subsection.7.24.1}
\contentsline {subsubsection}{\numberline {7.24.1.1}Port\discretionary {\unhbox \voidb@x \hbox {\relax \fontsize {7}{8}\selectfont $\leftarrow \joinrel \rhook $}}{}{}State}{68}{subsubsection.7.24.1.1}
\contentsline {section}{\numberline {7.25}Port\discretionary {\unhbox \voidb@x \hbox {\relax \fontsize {7}{8}\selectfont $\leftarrow \joinrel \rhook $}}{}{}Volumn\discretionary {\unhbox \voidb@x \hbox {\relax \fontsize {7}{8}\selectfont $\leftarrow \joinrel \rhook $}}{}{}State.\discretionary {\unhbox \voidb@x \hbox {\relax \fontsize {7}{8}\selectfont $\leftarrow \joinrel \rhook $}}{}{}h}{69}{section.7.25}
\contentsline {section}{\numberline {7.26}Simulation.\discretionary {\unhbox \voidb@x \hbox {\relax \fontsize {7}{8}\selectfont $\leftarrow \joinrel \rhook $}}{}{}cpp File Reference}{69}{section.7.26}
\contentsline {section}{\numberline {7.27}Simulation.\discretionary {\unhbox \voidb@x \hbox {\relax \fontsize {7}{8}\selectfont $\leftarrow \joinrel \rhook $}}{}{}cpp}{70}{section.7.27}
\contentsline {section}{\numberline {7.28}Simulation.\discretionary {\unhbox \voidb@x \hbox {\relax \fontsize {7}{8}\selectfont $\leftarrow \joinrel \rhook $}}{}{}h File Reference}{82}{section.7.28}
\contentsline {section}{\numberline {7.29}Simulation.\discretionary {\unhbox \voidb@x \hbox {\relax \fontsize {7}{8}\selectfont $\leftarrow \joinrel \rhook $}}{}{}h}{83}{section.7.29}
\contentsline {section}{\numberline {7.30}String\discretionary {\unhbox \voidb@x \hbox {\relax \fontsize {7}{8}\selectfont $\leftarrow \joinrel \rhook $}}{}{}Tokenizer.\discretionary {\unhbox \voidb@x \hbox {\relax \fontsize {7}{8}\selectfont $\leftarrow \joinrel \rhook $}}{}{}cpp File Reference}{84}{section.7.30}
\contentsline {section}{\numberline {7.31}String\discretionary {\unhbox \voidb@x \hbox {\relax \fontsize {7}{8}\selectfont $\leftarrow \joinrel \rhook $}}{}{}Tokenizer.\discretionary {\unhbox \voidb@x \hbox {\relax \fontsize {7}{8}\selectfont $\leftarrow \joinrel \rhook $}}{}{}cpp}{84}{section.7.31}
\contentsline {section}{\numberline {7.32}String\discretionary {\unhbox \voidb@x \hbox {\relax \fontsize {7}{8}\selectfont $\leftarrow \joinrel \rhook $}}{}{}Tokenizer.\discretionary {\unhbox \voidb@x \hbox {\relax \fontsize {7}{8}\selectfont $\leftarrow \joinrel \rhook $}}{}{}h File Reference}{85}{section.7.32}
\contentsline {section}{\numberline {7.33}String\discretionary {\unhbox \voidb@x \hbox {\relax \fontsize {7}{8}\selectfont $\leftarrow \joinrel \rhook $}}{}{}Tokenizer.\discretionary {\unhbox \voidb@x \hbox {\relax \fontsize {7}{8}\selectfont $\leftarrow \joinrel \rhook $}}{}{}h}{85}{section.7.33}
\contentsline {section}{\numberline {7.34}Veri\discretionary {\unhbox \voidb@x \hbox {\relax \fontsize {7}{8}\selectfont $\leftarrow \joinrel \rhook $}}{}{}Congestion.\discretionary {\unhbox \voidb@x \hbox {\relax \fontsize {7}{8}\selectfont $\leftarrow \joinrel \rhook $}}{}{}cpp File Reference}{86}{section.7.34}
\contentsline {section}{\numberline {7.35}Veri\discretionary {\unhbox \voidb@x \hbox {\relax \fontsize {7}{8}\selectfont $\leftarrow \joinrel \rhook $}}{}{}Congestion.\discretionary {\unhbox \voidb@x \hbox {\relax \fontsize {7}{8}\selectfont $\leftarrow \joinrel \rhook $}}{}{}cpp}{86}{section.7.35}
\contentsline {section}{\numberline {7.36}Veri\discretionary {\unhbox \voidb@x \hbox {\relax \fontsize {7}{8}\selectfont $\leftarrow \joinrel \rhook $}}{}{}Congestion.\discretionary {\unhbox \voidb@x \hbox {\relax \fontsize {7}{8}\selectfont $\leftarrow \joinrel \rhook $}}{}{}h File Reference}{91}{section.7.36}
\contentsline {section}{\numberline {7.37}Veri\discretionary {\unhbox \voidb@x \hbox {\relax \fontsize {7}{8}\selectfont $\leftarrow \joinrel \rhook $}}{}{}Congestion.\discretionary {\unhbox \voidb@x \hbox {\relax \fontsize {7}{8}\selectfont $\leftarrow \joinrel \rhook $}}{}{}h}{92}{section.7.37}
\contentsline {chapter}{Index}{93}{section*.43}
