\relax 
\providecommand\hyper@newdestlabel[2]{}
\providecommand\HyperFirstAtBeginDocument{\AtBeginDocument}
\HyperFirstAtBeginDocument{\ifx\hyper@anchor\@undefined
\global\let\oldcontentsline\contentsline
\gdef\contentsline#1#2#3#4{\oldcontentsline{#1}{#2}{#3}}
\global\let\oldnewlabel\newlabel
\gdef\newlabel#1#2{\newlabelxx{#1}#2}
\gdef\newlabelxx#1#2#3#4#5#6{\oldnewlabel{#1}{{#2}{#3}}}
\AtEndDocument{\ifx\hyper@anchor\@undefined
\let\contentsline\oldcontentsline
\let\newlabel\oldnewlabel
\fi}
\fi}
\global\let\hyper@last\relax 
\gdef\HyperFirstAtBeginDocument#1{#1}
\providecommand\HyField@AuxAddToFields[1]{}
\providecommand\HyField@AuxAddToCoFields[2]{}
\providecommand \oddpage@label [2]{}
\@writefile{toc}{\contentsline {chapter}{\numberline {1}Main Page}{1}{chapter.1}}
\@writefile{lof}{\addvspace {10\p@ }}
\@writefile{lot}{\addvspace {10\p@ }}
\newlabel{index}{{1}{1}{Main Page}{chapter.1}{}}
\@writefile{toc}{\contentsline {section}{\numberline {1.1}Overview}{1}{section.1.1}}
\newlabel{index_Overview}{{1.1}{1}{Overview}{section.1.1}{}}
\@writefile{toc}{\contentsline {section}{\numberline {1.2}Modules}{1}{section.1.2}}
\newlabel{index_Modules}{{1.2}{1}{Modules}{section.1.2}{}}
\@writefile{toc}{\contentsline {section}{\numberline {1.3}Contact}{1}{section.1.3}}
\newlabel{index_Contact}{{1.3}{1}{Contact}{section.1.3}{}}
\@writefile{toc}{\contentsline {chapter}{\numberline {2}Namespace Index}{3}{chapter.2}}
\@writefile{lof}{\addvspace {10\p@ }}
\@writefile{lot}{\addvspace {10\p@ }}
\@writefile{toc}{\contentsline {section}{\numberline {2.1}Namespace List}{3}{section.2.1}}
\@writefile{toc}{\contentsline {chapter}{\numberline {3}Class Index}{5}{chapter.3}}
\@writefile{lof}{\addvspace {10\p@ }}
\@writefile{lot}{\addvspace {10\p@ }}
\@writefile{toc}{\contentsline {section}{\numberline {3.1}Class List}{5}{section.3.1}}
\@writefile{toc}{\contentsline {chapter}{\numberline {4}File Index}{7}{chapter.4}}
\@writefile{lof}{\addvspace {10\p@ }}
\@writefile{lot}{\addvspace {10\p@ }}
\@writefile{toc}{\contentsline {section}{\numberline {4.1}File List}{7}{section.4.1}}
\@writefile{toc}{\contentsline {chapter}{\numberline {5}Namespace Documentation}{9}{chapter.5}}
\@writefile{lof}{\addvspace {10\p@ }}
\@writefile{lot}{\addvspace {10\p@ }}
\@writefile{toc}{\contentsline {section}{\numberline {5.1}std Namespace Reference}{9}{section.5.1}}
\newlabel{namespacestd}{{5.1}{9}{std Namespace Reference}{section.5.1}{}}
\@writefile{toc}{\contentsline {chapter}{\numberline {6}Class Documentation}{11}{chapter.6}}
\@writefile{lof}{\addvspace {10\p@ }}
\@writefile{lot}{\addvspace {10\p@ }}
\@writefile{toc}{\contentsline {section}{\numberline {6.1}Application Class Reference}{11}{section.6.1}}
\newlabel{classApplication}{{6.1}{11}{Application Class Reference}{section.6.1}{}}
\@writefile{toc}{\contentsline {subsection}{\numberline {6.1.1}Detailed Description}{12}{subsection.6.1.1}}
\@writefile{toc}{\contentsline {subsection}{\numberline {6.1.2}Constructor \& Destructor Documentation}{12}{subsection.6.1.2}}
\newlabel{classApplication_abdfd49a30496ccecea58e779d3956764}{{6.1.2}{12}{Constructor \& Destructor Documentation}{subsection.6.1.2}{}}
\@writefile{toc}{\contentsline {subsubsection}{\numberline {6.1.2.1}Application()}{12}{subsubsection.6.1.2.1}}
\@writefile{toc}{\contentsline {subsection}{\numberline {6.1.3}Member Function Documentation}{12}{subsection.6.1.3}}
\newlabel{classApplication_aa7edfae208ce392564fdd74e6a31d848}{{6.1.3}{12}{Member Function Documentation}{subsection.6.1.3}{}}
\@writefile{toc}{\contentsline {subsubsection}{\numberline {6.1.3.1}add\discretionary {\unhbox \voidb@x \hbox {\relax \fontsize  {7}{8}\selectfont  $\leftarrow \joinrel  \rhook $}}{}{}Flow\discretionary {\unhbox \voidb@x \hbox {\relax \fontsize  {7}{8}\selectfont  $\leftarrow \joinrel  \rhook $}}{}{}I\discretionary {\unhbox \voidb@x \hbox {\relax \fontsize  {7}{8}\selectfont  $\leftarrow \joinrel  \rhook $}}{}{}D()}{12}{subsubsection.6.1.3.1}}
\newlabel{classApplication_a79746c5d9cf4cfdb5c65a82eddc49f8a}{{6.1.3.1}{12}{\texorpdfstring {add\+Flow\+I\+D()}{addFlowID()}}{subsubsection.6.1.3.1}{}}
\@writefile{toc}{\contentsline {subsubsection}{\numberline {6.1.3.2}delete\discretionary {\unhbox \voidb@x \hbox {\relax \fontsize  {7}{8}\selectfont  $\leftarrow \joinrel  \rhook $}}{}{}Flow\discretionary {\unhbox \voidb@x \hbox {\relax \fontsize  {7}{8}\selectfont  $\leftarrow \joinrel  \rhook $}}{}{}I\discretionary {\unhbox \voidb@x \hbox {\relax \fontsize  {7}{8}\selectfont  $\leftarrow \joinrel  \rhook $}}{}{}D()}{13}{subsubsection.6.1.3.2}}
\newlabel{classApplication_abaf14c0b3d752c2c12b35de93247fec7}{{6.1.3.2}{13}{\texorpdfstring {delete\+Flow\+I\+D()}{deleteFlowID()}}{subsubsection.6.1.3.2}{}}
\@writefile{toc}{\contentsline {subsubsection}{\numberline {6.1.3.3}generate\discretionary {\unhbox \voidb@x \hbox {\relax \fontsize  {7}{8}\selectfont  $\leftarrow \joinrel  \rhook $}}{}{}B\discretionary {\unhbox \voidb@x \hbox {\relax \fontsize  {7}{8}\selectfont  $\leftarrow \joinrel  \rhook $}}{}{}F\discretionary {\unhbox \voidb@x \hbox {\relax \fontsize  {7}{8}\selectfont  $\leftarrow \joinrel  \rhook $}}{}{}S\discretionary {\unhbox \voidb@x \hbox {\relax \fontsize  {7}{8}\selectfont  $\leftarrow \joinrel  \rhook $}}{}{}Path()}{13}{subsubsection.6.1.3.3}}
\newlabel{classApplication_abfb6bfb6654ed5f253666495cb114417}{{6.1.3.3}{13}{\texorpdfstring {generate\+B\+F\+S\+Path()}{generateBFSPath()}}{subsubsection.6.1.3.3}{}}
\@writefile{toc}{\contentsline {subsubsection}{\numberline {6.1.3.4}generate\discretionary {\unhbox \voidb@x \hbox {\relax \fontsize  {7}{8}\selectfont  $\leftarrow \joinrel  \rhook $}}{}{}D\discretionary {\unhbox \voidb@x \hbox {\relax \fontsize  {7}{8}\selectfont  $\leftarrow \joinrel  \rhook $}}{}{}F\discretionary {\unhbox \voidb@x \hbox {\relax \fontsize  {7}{8}\selectfont  $\leftarrow \joinrel  \rhook $}}{}{}S\discretionary {\unhbox \voidb@x \hbox {\relax \fontsize  {7}{8}\selectfont  $\leftarrow \joinrel  \rhook $}}{}{}Path()}{13}{subsubsection.6.1.3.4}}
\newlabel{classApplication_ab83a44c889813ee9f2feb71abbe6ddea}{{6.1.3.4}{13}{\texorpdfstring {generate\+D\+F\+S\+Path()}{generateDFSPath()}}{subsubsection.6.1.3.4}{}}
\@writefile{toc}{\contentsline {subsubsection}{\numberline {6.1.3.5}get\discretionary {\unhbox \voidb@x \hbox {\relax \fontsize  {7}{8}\selectfont  $\leftarrow \joinrel  \rhook $}}{}{}I\discretionary {\unhbox \voidb@x \hbox {\relax \fontsize  {7}{8}\selectfont  $\leftarrow \joinrel  \rhook $}}{}{}D\discretionary {\unhbox \voidb@x \hbox {\relax \fontsize  {7}{8}\selectfont  $\leftarrow \joinrel  \rhook $}}{}{}Set\discretionary {\unhbox \voidb@x \hbox {\relax \fontsize  {7}{8}\selectfont  $\leftarrow \joinrel  \rhook $}}{}{}Size()}{13}{subsubsection.6.1.3.5}}
\newlabel{classApplication_af68f233e21e7799c13b7664b0cf3549b}{{6.1.3.5}{13}{\texorpdfstring {get\+I\+D\+Set\+Size()}{getIDSetSize()}}{subsubsection.6.1.3.5}{}}
\@writefile{toc}{\contentsline {subsubsection}{\numberline {6.1.3.6}issue\discretionary {\unhbox \voidb@x \hbox {\relax \fontsize  {7}{8}\selectfont  $\leftarrow \joinrel  \rhook $}}{}{}Flow()\hspace  {0.1cm}{\relax \fontsize  {8}{9.5}\selectfont  \abovedisplayskip 6\p@ plus2\p@ minus4\p@ \abovedisplayshortskip \z@ plus\p@ \belowdisplayshortskip 3\p@ plus\p@ minus2\p@ \def \leftmargin \leftmargini \parsep 4\p@ plus2\p@ minus\p@ \topsep 8\p@ plus2\p@ minus4\p@ \itemsep 4\p@ plus2\p@ minus\p@ {\leftmargin \leftmargini \topsep 3\p@ plus\p@ minus\p@ \parsep 2\p@ plus\p@ minus\p@ \itemsep \parsep }\belowdisplayskip \abovedisplayskip \ttfamily  [1/2]}}{14}{subsubsection.6.1.3.6}}
\newlabel{classApplication_ad8b1035fcfda263a8632cf08e1e7fd62}{{6.1.3.6}{14}{\texorpdfstring {issue\+Flow()}{issueFlow()}\hspace {0.1cm}{\footnotesize \ttfamily [1/2]}}{subsubsection.6.1.3.6}{}}
\@writefile{toc}{\contentsline {subsubsection}{\numberline {6.1.3.7}issue\discretionary {\unhbox \voidb@x \hbox {\relax \fontsize  {7}{8}\selectfont  $\leftarrow \joinrel  \rhook $}}{}{}Flow()\hspace  {0.1cm}{\relax \fontsize  {8}{9.5}\selectfont  \abovedisplayskip 6\p@ plus2\p@ minus4\p@ \abovedisplayshortskip \z@ plus\p@ \belowdisplayshortskip 3\p@ plus\p@ minus2\p@ \def \leftmargin \leftmargini \parsep 4\p@ plus2\p@ minus\p@ \topsep 8\p@ plus2\p@ minus4\p@ \itemsep 4\p@ plus2\p@ minus\p@ {\leftmargin \leftmargini \topsep 3\p@ plus\p@ minus\p@ \parsep 2\p@ plus\p@ minus\p@ \itemsep \parsep }\belowdisplayskip \abovedisplayskip \ttfamily  [2/2]}}{14}{subsubsection.6.1.3.7}}
\newlabel{classApplication_a81774d7ecf3baea388db82e453eebe97}{{6.1.3.7}{14}{\texorpdfstring {issue\+Flow()}{issueFlow()}\hspace {0.1cm}{\footnotesize \ttfamily [2/2]}}{subsubsection.6.1.3.7}{}}
\@writefile{toc}{\contentsline {subsubsection}{\numberline {6.1.3.8}issue\discretionary {\unhbox \voidb@x \hbox {\relax \fontsize  {7}{8}\selectfont  $\leftarrow \joinrel  \rhook $}}{}{}Flow\discretionary {\unhbox \voidb@x \hbox {\relax \fontsize  {7}{8}\selectfont  $\leftarrow \joinrel  \rhook $}}{}{}Deletion()}{14}{subsubsection.6.1.3.8}}
\newlabel{classApplication_a79fbcd2ff8bb5f4f1812c03fadb73a98}{{6.1.3.8}{14}{\texorpdfstring {issue\+Flow\+Deletion()}{issueFlowDeletion()}}{subsubsection.6.1.3.8}{}}
\@writefile{toc}{\contentsline {subsubsection}{\numberline {6.1.3.9}run\discretionary {\unhbox \voidb@x \hbox {\relax \fontsize  {7}{8}\selectfont  $\leftarrow \joinrel  \rhook $}}{}{}D\discretionary {\unhbox \voidb@x \hbox {\relax \fontsize  {7}{8}\selectfont  $\leftarrow \joinrel  \rhook $}}{}{}F\discretionary {\unhbox \voidb@x \hbox {\relax \fontsize  {7}{8}\selectfont  $\leftarrow \joinrel  \rhook $}}{}{}S()}{14}{subsubsection.6.1.3.9}}
\@writefile{toc}{\contentsline {subsection}{\numberline {6.1.4}Member Data Documentation}{14}{subsection.6.1.4}}
\newlabel{classApplication_a4c18f5973b156be186ff1ffb5add093b}{{6.1.4}{14}{Member Data Documentation}{subsection.6.1.4}{}}
\@writefile{toc}{\contentsline {subsubsection}{\numberline {6.1.4.1}end\discretionary {\unhbox \voidb@x \hbox {\relax \fontsize  {7}{8}\selectfont  $\leftarrow \joinrel  \rhook $}}{}{}Devices}{15}{subsubsection.6.1.4.1}}
\newlabel{classApplication_a7ff81965fc26ffb79aa6430abb38b23a}{{6.1.4.1}{15}{\texorpdfstring {end\+Devices}{endDevices}}{subsubsection.6.1.4.1}{}}
\@writefile{toc}{\contentsline {subsubsection}{\numberline {6.1.4.2}flow\discretionary {\unhbox \voidb@x \hbox {\relax \fontsize  {7}{8}\selectfont  $\leftarrow \joinrel  \rhook $}}{}{}I\discretionary {\unhbox \voidb@x \hbox {\relax \fontsize  {7}{8}\selectfont  $\leftarrow \joinrel  \rhook $}}{}{}D\discretionary {\unhbox \voidb@x \hbox {\relax \fontsize  {7}{8}\selectfont  $\leftarrow \joinrel  \rhook $}}{}{}Counter}{15}{subsubsection.6.1.4.2}}
\newlabel{classApplication_ae4120f3b291f7675029f68bb0793995f}{{6.1.4.2}{15}{\texorpdfstring {flow\+I\+D\+Counter}{flowIDCounter}}{subsubsection.6.1.4.2}{}}
\@writefile{toc}{\contentsline {subsubsection}{\numberline {6.1.4.3}flow\discretionary {\unhbox \voidb@x \hbox {\relax \fontsize  {7}{8}\selectfont  $\leftarrow \joinrel  \rhook $}}{}{}I\discretionary {\unhbox \voidb@x \hbox {\relax \fontsize  {7}{8}\selectfont  $\leftarrow \joinrel  \rhook $}}{}{}D\discretionary {\unhbox \voidb@x \hbox {\relax \fontsize  {7}{8}\selectfont  $\leftarrow \joinrel  \rhook $}}{}{}Set}{15}{subsubsection.6.1.4.3}}
\newlabel{classApplication_aa432069d081c72521920cd57a8265235}{{6.1.4.3}{15}{\texorpdfstring {flow\+I\+D\+Set}{flowIDSet}}{subsubsection.6.1.4.3}{}}
\@writefile{toc}{\contentsline {subsubsection}{\numberline {6.1.4.4}my\discretionary {\unhbox \voidb@x \hbox {\relax \fontsize  {7}{8}\selectfont  $\leftarrow \joinrel  \rhook $}}{}{}Network}{15}{subsubsection.6.1.4.4}}
\@writefile{toc}{\contentsline {section}{\numberline {6.2}Dependence\discretionary {\unhbox \voidb@x \hbox {\relax \fontsize  {7}{8}\selectfont  $\leftarrow \joinrel  \rhook $}}{}{}Graph\discretionary {\unhbox \voidb@x \hbox {\relax \fontsize  {7}{8}\selectfont  $\leftarrow \joinrel  \rhook $}}{}{}Node Struct Reference}{15}{section.6.2}}
\newlabel{structDependenceGraphNode}{{6.2}{15}{Dependence\+Graph\+Node Struct Reference}{section.6.2}{}}
\gdef \LT@i {\LT@entry 
    {3}{19.80185pt}\LT@entry 
    {3}{59.04604pt}}
\@writefile{toc}{\contentsline {subsection}{\numberline {6.2.1}Detailed Description}{16}{subsection.6.2.1}}
\@writefile{toc}{\contentsline {subsection}{\numberline {6.2.2}Constructor \& Destructor Documentation}{16}{subsection.6.2.2}}
\newlabel{structDependenceGraphNode_ac7ef1636bfcd3a3fac324a69458c0b0f}{{6.2.2}{16}{Constructor \& Destructor Documentation}{subsection.6.2.2}{}}
\@writefile{toc}{\contentsline {subsubsection}{\numberline {6.2.2.1}Dependence\discretionary {\unhbox \voidb@x \hbox {\relax \fontsize  {7}{8}\selectfont  $\leftarrow \joinrel  \rhook $}}{}{}Graph\discretionary {\unhbox \voidb@x \hbox {\relax \fontsize  {7}{8}\selectfont  $\leftarrow \joinrel  \rhook $}}{}{}Node()}{16}{subsubsection.6.2.2.1}}
\@writefile{toc}{\contentsline {subsection}{\numberline {6.2.3}Member Data Documentation}{16}{subsection.6.2.3}}
\newlabel{structDependenceGraphNode_aefcc28b79b8daf7c5b74366b91e5e957}{{6.2.3}{16}{Member Data Documentation}{subsection.6.2.3}{}}
\@writefile{toc}{\contentsline {subsubsection}{\numberline {6.2.3.1}directed\discretionary {\unhbox \voidb@x \hbox {\relax \fontsize  {7}{8}\selectfont  $\leftarrow \joinrel  \rhook $}}{}{}Nodes}{16}{subsubsection.6.2.3.1}}
\newlabel{structDependenceGraphNode_a258238b798b43dd4aab75ee366bfc829}{{6.2.3.1}{16}{\texorpdfstring {directed\+Nodes}{directedNodes}}{subsubsection.6.2.3.1}{}}
\@writefile{toc}{\contentsline {subsubsection}{\numberline {6.2.3.2}my\discretionary {\unhbox \voidb@x \hbox {\relax \fontsize  {7}{8}\selectfont  $\leftarrow \joinrel  \rhook $}}{}{}Node}{17}{subsubsection.6.2.3.2}}
\@writefile{toc}{\contentsline {section}{\numberline {6.3}Flow Struct Reference}{17}{section.6.3}}
\newlabel{structFlow}{{6.3}{17}{Flow Struct Reference}{section.6.3}{}}
\@writefile{toc}{\contentsline {subsection}{\numberline {6.3.1}Detailed Description}{17}{subsection.6.3.1}}
\@writefile{toc}{\contentsline {subsection}{\numberline {6.3.2}Member Function Documentation}{18}{subsection.6.3.2}}
\newlabel{structFlow_aeafb94485427421cba5ca780b544b438}{{6.3.2}{18}{Member Function Documentation}{subsection.6.3.2}{}}
\@writefile{toc}{\contentsline {subsubsection}{\numberline {6.3.2.1}operator"!=()}{18}{subsubsection.6.3.2.1}}
\newlabel{structFlow_ad82e15a7c82d0d7e3cfe35f83526cc39}{{6.3.2.1}{18}{\texorpdfstring {operator"!=()}{operator!=()}}{subsubsection.6.3.2.1}{}}
\@writefile{toc}{\contentsline {subsubsection}{\numberline {6.3.2.2}operator$<$()}{18}{subsubsection.6.3.2.2}}
\newlabel{structFlow_ab0ef2fb9ed6b7e11ab98f17f32254800}{{6.3.2.2}{18}{\texorpdfstring {operator$<$()}{operator<()}}{subsubsection.6.3.2.2}{}}
\@writefile{toc}{\contentsline {subsubsection}{\numberline {6.3.2.3}operator==()}{18}{subsubsection.6.3.2.3}}
\newlabel{structFlow_a490874cb53d869cbe6cca6fd7d0733d2}{{6.3.2.3}{18}{\texorpdfstring {operator==()}{operator==()}}{subsubsection.6.3.2.3}{}}
\@writefile{toc}{\contentsline {subsubsection}{\numberline {6.3.2.4}print\discretionary {\unhbox \voidb@x \hbox {\relax \fontsize  {7}{8}\selectfont  $\leftarrow \joinrel  \rhook $}}{}{}Myself()}{18}{subsubsection.6.3.2.4}}
\newlabel{structFlow_a8d14b006560888e5da95283575511c5b}{{6.3.2.4}{18}{\texorpdfstring {print\+Myself()}{printMyself()}}{subsubsection.6.3.2.4}{}}
\@writefile{toc}{\contentsline {subsubsection}{\numberline {6.3.2.5}set\discretionary {\unhbox \voidb@x \hbox {\relax \fontsize  {7}{8}\selectfont  $\leftarrow \joinrel  \rhook $}}{}{}Egress()}{18}{subsubsection.6.3.2.5}}
\@writefile{toc}{\contentsline {subsection}{\numberline {6.3.3}Member Data Documentation}{19}{subsection.6.3.3}}
\newlabel{structFlow_a10befe34180738ac991f715cecc9eaeb}{{6.3.3}{19}{Member Data Documentation}{subsection.6.3.3}{}}
\@writefile{toc}{\contentsline {subsubsection}{\numberline {6.3.3.1}egress\discretionary {\unhbox \voidb@x \hbox {\relax \fontsize  {7}{8}\selectfont  $\leftarrow \joinrel  \rhook $}}{}{}Rate}{19}{subsubsection.6.3.3.1}}
\newlabel{structFlow_a4fbcee94fcc249484906ab8ed618a35b}{{6.3.3.1}{19}{\texorpdfstring {egress\+Rate}{egressRate}}{subsubsection.6.3.3.1}{}}
\@writefile{toc}{\contentsline {subsubsection}{\numberline {6.3.3.2}flow\discretionary {\unhbox \voidb@x \hbox {\relax \fontsize  {7}{8}\selectfont  $\leftarrow \joinrel  \rhook $}}{}{}ID}{19}{subsubsection.6.3.3.2}}
\newlabel{structFlow_a8e48900fa8f02fd8d906414437be05e9}{{6.3.3.2}{19}{\texorpdfstring {flow\+ID}{flowID}}{subsubsection.6.3.3.2}{}}
\@writefile{toc}{\contentsline {subsubsection}{\numberline {6.3.3.3}flow\discretionary {\unhbox \voidb@x \hbox {\relax \fontsize  {7}{8}\selectfont  $\leftarrow \joinrel  \rhook $}}{}{}Path}{19}{subsubsection.6.3.3.3}}
\newlabel{structFlow_ad78b48efee55b7e6673b8d2c2fe014e5}{{6.3.3.3}{19}{\texorpdfstring {flow\+Path}{flowPath}}{subsubsection.6.3.3.3}{}}
\@writefile{toc}{\contentsline {subsubsection}{\numberline {6.3.3.4}ingress\discretionary {\unhbox \voidb@x \hbox {\relax \fontsize  {7}{8}\selectfont  $\leftarrow \joinrel  \rhook $}}{}{}Rate}{19}{subsubsection.6.3.3.4}}
\@writefile{toc}{\contentsline {section}{\numberline {6.4}Flow\discretionary {\unhbox \voidb@x \hbox {\relax \fontsize  {7}{8}\selectfont  $\leftarrow \joinrel  \rhook $}}{}{}Segment Struct Reference}{20}{section.6.4}}
\newlabel{structFlowSegment}{{6.4}{20}{Flow\+Segment Struct Reference}{section.6.4}{}}
\@writefile{toc}{\contentsline {subsection}{\numberline {6.4.1}Detailed Description}{20}{subsection.6.4.1}}
\@writefile{toc}{\contentsline {subsection}{\numberline {6.4.2}Member Function Documentation}{20}{subsection.6.4.2}}
\newlabel{structFlowSegment_a43d5f0448cd09b697775ed018b83d1d1}{{6.4.2}{20}{Member Function Documentation}{subsection.6.4.2}{}}
\@writefile{toc}{\contentsline {subsubsection}{\numberline {6.4.2.1}print\discretionary {\unhbox \voidb@x \hbox {\relax \fontsize  {7}{8}\selectfont  $\leftarrow \joinrel  \rhook $}}{}{}Myself()}{20}{subsubsection.6.4.2.1}}
\@writefile{toc}{\contentsline {subsection}{\numberline {6.4.3}Member Data Documentation}{20}{subsection.6.4.3}}
\newlabel{structFlowSegment_a58c0f298c8a3e3ebcc73638904473abf}{{6.4.3}{20}{Member Data Documentation}{subsection.6.4.3}{}}
\@writefile{toc}{\contentsline {subsubsection}{\numberline {6.4.3.1}dest\discretionary {\unhbox \voidb@x \hbox {\relax \fontsize  {7}{8}\selectfont  $\leftarrow \joinrel  \rhook $}}{}{}I\discretionary {\unhbox \voidb@x \hbox {\relax \fontsize  {7}{8}\selectfont  $\leftarrow \joinrel  \rhook $}}{}{}P\discretionary {\unhbox \voidb@x \hbox {\relax \fontsize  {7}{8}\selectfont  $\leftarrow \joinrel  \rhook $}}{}{}Address}{21}{subsubsection.6.4.3.1}}
\newlabel{structFlowSegment_a263b428f2416b2130bb0dc57eb9acf73}{{6.4.3.1}{21}{\texorpdfstring {dest\+I\+P\+Address}{destIPAddress}}{subsubsection.6.4.3.1}{}}
\@writefile{toc}{\contentsline {subsubsection}{\numberline {6.4.3.2}in\discretionary {\unhbox \voidb@x \hbox {\relax \fontsize  {7}{8}\selectfont  $\leftarrow \joinrel  \rhook $}}{}{}\_\discretionary {\unhbox \voidb@x \hbox {\relax \fontsize  {7}{8}\selectfont  $\leftarrow \joinrel  \rhook $}}{}{}rate}{21}{subsubsection.6.4.3.2}}
\newlabel{structFlowSegment_a51763ea7d9d3930eac8268ef1ea60377}{{6.4.3.2}{21}{\texorpdfstring {in\+\_\+rate}{in\_rate}}{subsubsection.6.4.3.2}{}}
\@writefile{toc}{\contentsline {subsubsection}{\numberline {6.4.3.3}my\discretionary {\unhbox \voidb@x \hbox {\relax \fontsize  {7}{8}\selectfont  $\leftarrow \joinrel  \rhook $}}{}{}Flow\discretionary {\unhbox \voidb@x \hbox {\relax \fontsize  {7}{8}\selectfont  $\leftarrow \joinrel  \rhook $}}{}{}ID}{21}{subsubsection.6.4.3.3}}
\newlabel{structFlowSegment_aa7d38db9aeb24ffc5a940a761c7462a2}{{6.4.3.3}{21}{\texorpdfstring {my\+Flow\+ID}{myFlowID}}{subsubsection.6.4.3.3}{}}
\@writefile{toc}{\contentsline {subsubsection}{\numberline {6.4.3.4}segment\discretionary {\unhbox \voidb@x \hbox {\relax \fontsize  {7}{8}\selectfont  $\leftarrow \joinrel  \rhook $}}{}{}ID}{21}{subsubsection.6.4.3.4}}
\newlabel{structFlowSegment_a8af2e4dbdf555f03e6a7336d5da89009}{{6.4.3.4}{21}{\texorpdfstring {segment\+ID}{segmentID}}{subsubsection.6.4.3.4}{}}
\@writefile{toc}{\contentsline {subsubsection}{\numberline {6.4.3.5}source\discretionary {\unhbox \voidb@x \hbox {\relax \fontsize  {7}{8}\selectfont  $\leftarrow \joinrel  \rhook $}}{}{}I\discretionary {\unhbox \voidb@x \hbox {\relax \fontsize  {7}{8}\selectfont  $\leftarrow \joinrel  \rhook $}}{}{}P\discretionary {\unhbox \voidb@x \hbox {\relax \fontsize  {7}{8}\selectfont  $\leftarrow \joinrel  \rhook $}}{}{}Address}{21}{subsubsection.6.4.3.5}}
\newlabel{structFlowSegment_a0222748637a8101dec1f1f2845e0fd5c}{{6.4.3.5}{21}{\texorpdfstring {source\+I\+P\+Address}{sourceIPAddress}}{subsubsection.6.4.3.5}{}}
\@writefile{toc}{\contentsline {subsubsection}{\numberline {6.4.3.6}type}{22}{subsubsection.6.4.3.6}}
\@writefile{toc}{\contentsline {section}{\numberline {6.5}Forwarding\discretionary {\unhbox \voidb@x \hbox {\relax \fontsize  {7}{8}\selectfont  $\leftarrow \joinrel  \rhook $}}{}{}Device Struct Reference}{22}{section.6.5}}
\newlabel{structForwardingDevice}{{6.5}{22}{Forwarding\+Device Struct Reference}{section.6.5}{}}
\@writefile{toc}{\contentsline {subsection}{\numberline {6.5.1}Detailed Description}{22}{subsection.6.5.1}}
\@writefile{toc}{\contentsline {subsection}{\numberline {6.5.2}Member Data Documentation}{22}{subsection.6.5.2}}
\newlabel{structForwardingDevice_a331e415eb8d0d77a3542bf3a1c9626f7}{{6.5.2}{22}{Member Data Documentation}{subsection.6.5.2}{}}
\@writefile{toc}{\contentsline {subsubsection}{\numberline {6.5.2.1}end\discretionary {\unhbox \voidb@x \hbox {\relax \fontsize  {7}{8}\selectfont  $\leftarrow \joinrel  \rhook $}}{}{}Device}{23}{subsubsection.6.5.2.1}}
\newlabel{structForwardingDevice_a8299b8b418cc504eab48e0fb480c3d98}{{6.5.2.1}{23}{\texorpdfstring {end\+Device}{endDevice}}{subsubsection.6.5.2.1}{}}
\@writefile{toc}{\contentsline {subsubsection}{\numberline {6.5.2.2}id}{23}{subsubsection.6.5.2.2}}
\newlabel{structForwardingDevice_ad86b46318af1514761d26be73f5e4faa}{{6.5.2.2}{23}{\texorpdfstring {id}{id}}{subsubsection.6.5.2.2}{}}
\@writefile{toc}{\contentsline {subsubsection}{\numberline {6.5.2.3}ip\discretionary {\unhbox \voidb@x \hbox {\relax \fontsize  {7}{8}\selectfont  $\leftarrow \joinrel  \rhook $}}{}{}Address}{23}{subsubsection.6.5.2.3}}
\newlabel{structForwardingDevice_a935099d13f7e6562708913c9b2861b58}{{6.5.2.3}{23}{\texorpdfstring {ip\+Address}{ipAddress}}{subsubsection.6.5.2.3}{}}
\@writefile{toc}{\contentsline {subsubsection}{\numberline {6.5.2.4}next\discretionary {\unhbox \voidb@x \hbox {\relax \fontsize  {7}{8}\selectfont  $\leftarrow \joinrel  \rhook $}}{}{}Hops}{23}{subsubsection.6.5.2.4}}
\newlabel{structForwardingDevice_a1007450b4756e90f3bb8b990516c83bd}{{6.5.2.4}{23}{\texorpdfstring {next\+Hops}{nextHops}}{subsubsection.6.5.2.4}{}}
\@writefile{toc}{\contentsline {subsubsection}{\numberline {6.5.2.5}out\discretionary {\unhbox \voidb@x \hbox {\relax \fontsize  {7}{8}\selectfont  $\leftarrow \joinrel  \rhook $}}{}{}Port\discretionary {\unhbox \voidb@x \hbox {\relax \fontsize  {7}{8}\selectfont  $\leftarrow \joinrel  \rhook $}}{}{}Bandwidth}{23}{subsubsection.6.5.2.5}}
\@writefile{toc}{\contentsline {section}{\numberline {6.6}std\discretionary {\unhbox \voidb@x \hbox {\relax \fontsize  {7}{8}\selectfont  $\leftarrow \joinrel  \rhook $}}{}{}:\discretionary {\unhbox \voidb@x \hbox {\relax \fontsize  {7}{8}\selectfont  $\leftarrow \joinrel  \rhook $}}{}{}:hash$<$ Flow $>$ Struct Template Reference}{24}{section.6.6}}
\newlabel{structstd_1_1hash_3_01Flow_01_4}{{6.6}{24}{std\+:\+:hash$<$ Flow $>$ Struct Template Reference}{section.6.6}{}}
\@writefile{toc}{\contentsline {subsection}{\numberline {6.6.1}Detailed Description}{24}{subsection.6.6.1}}
\@writefile{toc}{\contentsline {subsection}{\numberline {6.6.2}Member Function Documentation}{24}{subsection.6.6.2}}
\newlabel{structstd_1_1hash_3_01Flow_01_4_ae58a048a276b69f0a9a4dd65a6e749e0}{{6.6.2}{24}{Member Function Documentation}{subsection.6.6.2}{}}
\@writefile{toc}{\contentsline {subsubsection}{\numberline {6.6.2.1}operator()()}{24}{subsubsection.6.6.2.1}}
\@writefile{toc}{\contentsline {section}{\numberline {6.7}My\discretionary {\unhbox \voidb@x \hbox {\relax \fontsize  {7}{8}\selectfont  $\leftarrow \joinrel  \rhook $}}{}{}Test Class Reference}{24}{section.6.7}}
\newlabel{classMyTest}{{6.7}{24}{My\+Test Class Reference}{section.6.7}{}}
\@writefile{toc}{\contentsline {subsection}{\numberline {6.7.1}Detailed Description}{25}{subsection.6.7.1}}
\@writefile{toc}{\contentsline {subsection}{\numberline {6.7.2}Member Function Documentation}{25}{subsection.6.7.2}}
\newlabel{classMyTest_acf47500928e4d37a407f183331cffbcf}{{6.7.2}{25}{Member Function Documentation}{subsection.6.7.2}{}}
\@writefile{toc}{\contentsline {subsubsection}{\numberline {6.7.2.1}my\discretionary {\unhbox \voidb@x \hbox {\relax \fontsize  {7}{8}\selectfont  $\leftarrow \joinrel  \rhook $}}{}{}Test()}{25}{subsubsection.6.7.2.1}}
\@writefile{toc}{\contentsline {section}{\numberline {6.8}Network Class Reference}{25}{section.6.8}}
\newlabel{classNetwork}{{6.8}{25}{Network Class Reference}{section.6.8}{}}
\@writefile{toc}{\contentsline {subsection}{\numberline {6.8.1}Detailed Description}{26}{subsection.6.8.1}}
\@writefile{toc}{\contentsline {subsection}{\numberline {6.8.2}Member Function Documentation}{26}{subsection.6.8.2}}
\newlabel{classNetwork_a87ecd36d6d19f7f65e4a66cd848ede6b}{{6.8.2}{26}{Member Function Documentation}{subsection.6.8.2}{}}
\@writefile{toc}{\contentsline {subsubsection}{\numberline {6.8.2.1}add\discretionary {\unhbox \voidb@x \hbox {\relax \fontsize  {7}{8}\selectfont  $\leftarrow \joinrel  \rhook $}}{}{}Device()\hspace  {0.1cm}{\relax \fontsize  {8}{9.5}\selectfont  \abovedisplayskip 6\p@ plus2\p@ minus4\p@ \abovedisplayshortskip \z@ plus\p@ \belowdisplayshortskip 3\p@ plus\p@ minus2\p@ \def \leftmargin \leftmargini \parsep 4\p@ plus2\p@ minus\p@ \topsep 8\p@ plus2\p@ minus4\p@ \itemsep 4\p@ plus2\p@ minus\p@ {\leftmargin \leftmargini \topsep 3\p@ plus\p@ minus\p@ \parsep 2\p@ plus\p@ minus\p@ \itemsep \parsep }\belowdisplayskip \abovedisplayskip \ttfamily  [1/2]}}{27}{subsubsection.6.8.2.1}}
\newlabel{classNetwork_adcdac677a0fdad50318a6963caf0b9cb}{{6.8.2.1}{27}{\texorpdfstring {add\+Device()}{addDevice()}\hspace {0.1cm}{\footnotesize \ttfamily [1/2]}}{subsubsection.6.8.2.1}{}}
\@writefile{toc}{\contentsline {subsubsection}{\numberline {6.8.2.2}add\discretionary {\unhbox \voidb@x \hbox {\relax \fontsize  {7}{8}\selectfont  $\leftarrow \joinrel  \rhook $}}{}{}Device()\hspace  {0.1cm}{\relax \fontsize  {8}{9.5}\selectfont  \abovedisplayskip 6\p@ plus2\p@ minus4\p@ \abovedisplayshortskip \z@ plus\p@ \belowdisplayshortskip 3\p@ plus\p@ minus2\p@ \def \leftmargin \leftmargini \parsep 4\p@ plus2\p@ minus\p@ \topsep 8\p@ plus2\p@ minus4\p@ \itemsep 4\p@ plus2\p@ minus\p@ {\leftmargin \leftmargini \topsep 3\p@ plus\p@ minus\p@ \parsep 2\p@ plus\p@ minus\p@ \itemsep \parsep }\belowdisplayskip \abovedisplayskip \ttfamily  [2/2]}}{27}{subsubsection.6.8.2.2}}
\newlabel{classNetwork_a96a403680346655a3f27331118c544d9}{{6.8.2.2}{27}{\texorpdfstring {add\+Device()}{addDevice()}\hspace {0.1cm}{\footnotesize \ttfamily [2/2]}}{subsubsection.6.8.2.2}{}}
\@writefile{toc}{\contentsline {subsubsection}{\numberline {6.8.2.3}add\discretionary {\unhbox \voidb@x \hbox {\relax \fontsize  {7}{8}\selectfont  $\leftarrow \joinrel  \rhook $}}{}{}Flow()\hspace  {0.1cm}{\relax \fontsize  {8}{9.5}\selectfont  \abovedisplayskip 6\p@ plus2\p@ minus4\p@ \abovedisplayshortskip \z@ plus\p@ \belowdisplayshortskip 3\p@ plus\p@ minus2\p@ \def \leftmargin \leftmargini \parsep 4\p@ plus2\p@ minus\p@ \topsep 8\p@ plus2\p@ minus4\p@ \itemsep 4\p@ plus2\p@ minus\p@ {\leftmargin \leftmargini \topsep 3\p@ plus\p@ minus\p@ \parsep 2\p@ plus\p@ minus\p@ \itemsep \parsep }\belowdisplayskip \abovedisplayskip \ttfamily  [1/2]}}{27}{subsubsection.6.8.2.3}}
\newlabel{classNetwork_a211534adbd1bd88889abcf50485cb858}{{6.8.2.3}{27}{\texorpdfstring {add\+Flow()}{addFlow()}\hspace {0.1cm}{\footnotesize \ttfamily [1/2]}}{subsubsection.6.8.2.3}{}}
\@writefile{toc}{\contentsline {subsubsection}{\numberline {6.8.2.4}add\discretionary {\unhbox \voidb@x \hbox {\relax \fontsize  {7}{8}\selectfont  $\leftarrow \joinrel  \rhook $}}{}{}Flow()\hspace  {0.1cm}{\relax \fontsize  {8}{9.5}\selectfont  \abovedisplayskip 6\p@ plus2\p@ minus4\p@ \abovedisplayshortskip \z@ plus\p@ \belowdisplayshortskip 3\p@ plus\p@ minus2\p@ \def \leftmargin \leftmargini \parsep 4\p@ plus2\p@ minus\p@ \topsep 8\p@ plus2\p@ minus4\p@ \itemsep 4\p@ plus2\p@ minus\p@ {\leftmargin \leftmargini \topsep 3\p@ plus\p@ minus\p@ \parsep 2\p@ plus\p@ minus\p@ \itemsep \parsep }\belowdisplayskip \abovedisplayskip \ttfamily  [2/2]}}{27}{subsubsection.6.8.2.4}}
\newlabel{classNetwork_add4c1f132f5df55c0183a6ec2fa3a027}{{6.8.2.4}{27}{\texorpdfstring {add\+Flow()}{addFlow()}\hspace {0.1cm}{\footnotesize \ttfamily [2/2]}}{subsubsection.6.8.2.4}{}}
\@writefile{toc}{\contentsline {subsubsection}{\numberline {6.8.2.5}add\discretionary {\unhbox \voidb@x \hbox {\relax \fontsize  {7}{8}\selectfont  $\leftarrow \joinrel  \rhook $}}{}{}Port()}{28}{subsubsection.6.8.2.5}}
\newlabel{classNetwork_a37ffc1704d14317dcdefa83f8dd32eeb}{{6.8.2.5}{28}{\texorpdfstring {add\+Port()}{addPort()}}{subsubsection.6.8.2.5}{}}
\@writefile{toc}{\contentsline {subsubsection}{\numberline {6.8.2.6}clear\discretionary {\unhbox \voidb@x \hbox {\relax \fontsize  {7}{8}\selectfont  $\leftarrow \joinrel  \rhook $}}{}{}Flow\discretionary {\unhbox \voidb@x \hbox {\relax \fontsize  {7}{8}\selectfont  $\leftarrow \joinrel  \rhook $}}{}{}Map()}{28}{subsubsection.6.8.2.6}}
\newlabel{classNetwork_a173d75451dd6a92844f9fd1febd130ec}{{6.8.2.6}{28}{\texorpdfstring {clear\+Flow\+Map()}{clearFlowMap()}}{subsubsection.6.8.2.6}{}}
\@writefile{toc}{\contentsline {subsubsection}{\numberline {6.8.2.7}delete\discretionary {\unhbox \voidb@x \hbox {\relax \fontsize  {7}{8}\selectfont  $\leftarrow \joinrel  \rhook $}}{}{}Flow()}{28}{subsubsection.6.8.2.7}}
\newlabel{classNetwork_aaa0548429e9d51fc23935a33503ec20c}{{6.8.2.7}{28}{\texorpdfstring {delete\+Flow()}{deleteFlow()}}{subsubsection.6.8.2.7}{}}
\@writefile{toc}{\contentsline {subsubsection}{\numberline {6.8.2.8}flow\discretionary {\unhbox \voidb@x \hbox {\relax \fontsize  {7}{8}\selectfont  $\leftarrow \joinrel  \rhook $}}{}{}Exists()}{28}{subsubsection.6.8.2.8}}
\newlabel{classNetwork_aa3ab43bff231894b93acac1b81e7bec5}{{6.8.2.8}{28}{\texorpdfstring {flow\+Exists()}{flowExists()}}{subsubsection.6.8.2.8}{}}
\@writefile{toc}{\contentsline {subsubsection}{\numberline {6.8.2.9}get\discretionary {\unhbox \voidb@x \hbox {\relax \fontsize  {7}{8}\selectfont  $\leftarrow \joinrel  \rhook $}}{}{}Device\discretionary {\unhbox \voidb@x \hbox {\relax \fontsize  {7}{8}\selectfont  $\leftarrow \joinrel  \rhook $}}{}{}Ip\discretionary {\unhbox \voidb@x \hbox {\relax \fontsize  {7}{8}\selectfont  $\leftarrow \joinrel  \rhook $}}{}{}Address()}{28}{subsubsection.6.8.2.9}}
\newlabel{classNetwork_ad945738f71c5562fa2f7431baa27f3ca}{{6.8.2.9}{28}{\texorpdfstring {get\+Device\+Ip\+Address()}{getDeviceIpAddress()}}{subsubsection.6.8.2.9}{}}
\@writefile{toc}{\contentsline {subsubsection}{\numberline {6.8.2.10}get\discretionary {\unhbox \voidb@x \hbox {\relax \fontsize  {7}{8}\selectfont  $\leftarrow \joinrel  \rhook $}}{}{}Device\discretionary {\unhbox \voidb@x \hbox {\relax \fontsize  {7}{8}\selectfont  $\leftarrow \joinrel  \rhook $}}{}{}Map()}{29}{subsubsection.6.8.2.10}}
\newlabel{classNetwork_a4e4f6bbae6b615abc1b1da5a01212962}{{6.8.2.10}{29}{\texorpdfstring {get\+Device\+Map()}{getDeviceMap()}}{subsubsection.6.8.2.10}{}}
\@writefile{toc}{\contentsline {subsubsection}{\numberline {6.8.2.11}get\discretionary {\unhbox \voidb@x \hbox {\relax \fontsize  {7}{8}\selectfont  $\leftarrow \joinrel  \rhook $}}{}{}Flow()}{29}{subsubsection.6.8.2.11}}
\newlabel{classNetwork_a09064fdfa5a474c8591d353247ebd549}{{6.8.2.11}{29}{\texorpdfstring {get\+Flow()}{getFlow()}}{subsubsection.6.8.2.11}{}}
\@writefile{toc}{\contentsline {subsubsection}{\numberline {6.8.2.12}get\discretionary {\unhbox \voidb@x \hbox {\relax \fontsize  {7}{8}\selectfont  $\leftarrow \joinrel  \rhook $}}{}{}Flow\discretionary {\unhbox \voidb@x \hbox {\relax \fontsize  {7}{8}\selectfont  $\leftarrow \joinrel  \rhook $}}{}{}Map()}{29}{subsubsection.6.8.2.12}}
\newlabel{classNetwork_a983200a934b1ec0e3270c631410af8da}{{6.8.2.12}{29}{\texorpdfstring {get\+Flow\+Map()}{getFlowMap()}}{subsubsection.6.8.2.12}{}}
\@writefile{toc}{\contentsline {subsubsection}{\numberline {6.8.2.13}is\discretionary {\unhbox \voidb@x \hbox {\relax \fontsize  {7}{8}\selectfont  $\leftarrow \joinrel  \rhook $}}{}{}Device\discretionary {\unhbox \voidb@x \hbox {\relax \fontsize  {7}{8}\selectfont  $\leftarrow \joinrel  \rhook $}}{}{}Present()}{29}{subsubsection.6.8.2.13}}
\newlabel{classNetwork_a7567715bafe25dc40c8902369ab923f6}{{6.8.2.13}{29}{\texorpdfstring {is\+Device\+Present()}{isDevicePresent()}}{subsubsection.6.8.2.13}{}}
\@writefile{toc}{\contentsline {subsubsection}{\numberline {6.8.2.14}is\discretionary {\unhbox \voidb@x \hbox {\relax \fontsize  {7}{8}\selectfont  $\leftarrow \joinrel  \rhook $}}{}{}End\discretionary {\unhbox \voidb@x \hbox {\relax \fontsize  {7}{8}\selectfont  $\leftarrow \joinrel  \rhook $}}{}{}Device()}{29}{subsubsection.6.8.2.14}}
\newlabel{classNetwork_a87c27f9100f437d27267c0f468cedd74}{{6.8.2.14}{29}{\texorpdfstring {is\+End\+Device()}{isEndDevice()}}{subsubsection.6.8.2.14}{}}
\@writefile{toc}{\contentsline {subsubsection}{\numberline {6.8.2.15}is\discretionary {\unhbox \voidb@x \hbox {\relax \fontsize  {7}{8}\selectfont  $\leftarrow \joinrel  \rhook $}}{}{}Port\discretionary {\unhbox \voidb@x \hbox {\relax \fontsize  {7}{8}\selectfont  $\leftarrow \joinrel  \rhook $}}{}{}Present()}{30}{subsubsection.6.8.2.15}}
\newlabel{classNetwork_a460c0cbe24c4bf0d3cae056a4576e9e2}{{6.8.2.15}{30}{\texorpdfstring {is\+Port\+Present()}{isPortPresent()}}{subsubsection.6.8.2.15}{}}
\@writefile{toc}{\contentsline {subsubsection}{\numberline {6.8.2.16}print()}{30}{subsubsection.6.8.2.16}}
\newlabel{classNetwork_a5ea9566edeb1a9a069c4ecda6b9da6b6}{{6.8.2.16}{30}{\texorpdfstring {print()}{print()}}{subsubsection.6.8.2.16}{}}
\@writefile{toc}{\contentsline {subsubsection}{\numberline {6.8.2.17}print\discretionary {\unhbox \voidb@x \hbox {\relax \fontsize  {7}{8}\selectfont  $\leftarrow \joinrel  \rhook $}}{}{}Flows()}{30}{subsubsection.6.8.2.17}}
\newlabel{classNetwork_a42914e2ca6f02d6495618b606fa0dd8e}{{6.8.2.17}{30}{\texorpdfstring {print\+Flows()}{printFlows()}}{subsubsection.6.8.2.17}{}}
\@writefile{toc}{\contentsline {subsubsection}{\numberline {6.8.2.18}set\discretionary {\unhbox \voidb@x \hbox {\relax \fontsize  {7}{8}\selectfont  $\leftarrow \joinrel  \rhook $}}{}{}Device\discretionary {\unhbox \voidb@x \hbox {\relax \fontsize  {7}{8}\selectfont  $\leftarrow \joinrel  \rhook $}}{}{}Map()}{30}{subsubsection.6.8.2.18}}
\@writefile{toc}{\contentsline {subsection}{\numberline {6.8.3}Friends And Related Function Documentation}{30}{subsection.6.8.3}}
\newlabel{classNetwork_aeb51e0a4c44d4192cfbdb79598859172}{{6.8.3}{30}{Friends And Related Function Documentation}{subsection.6.8.3}{}}
\@writefile{toc}{\contentsline {subsubsection}{\numberline {6.8.3.1}Simulation}{30}{subsubsection.6.8.3.1}}
\@writefile{toc}{\contentsline {subsection}{\numberline {6.8.4}Member Data Documentation}{31}{subsection.6.8.4}}
\newlabel{classNetwork_a6e8d5f93a4d29303c8d44ae25f165df5}{{6.8.4}{31}{Member Data Documentation}{subsection.6.8.4}{}}
\@writefile{toc}{\contentsline {subsubsection}{\numberline {6.8.4.1}device\discretionary {\unhbox \voidb@x \hbox {\relax \fontsize  {7}{8}\selectfont  $\leftarrow \joinrel  \rhook $}}{}{}Map}{31}{subsubsection.6.8.4.1}}
\newlabel{classNetwork_a96db66ed691a6b1cca5ecc8a4c7f4950}{{6.8.4.1}{31}{\texorpdfstring {device\+Map}{deviceMap}}{subsubsection.6.8.4.1}{}}
\@writefile{toc}{\contentsline {subsubsection}{\numberline {6.8.4.2}flow\discretionary {\unhbox \voidb@x \hbox {\relax \fontsize  {7}{8}\selectfont  $\leftarrow \joinrel  \rhook $}}{}{}Map}{31}{subsubsection.6.8.4.2}}
\newlabel{classNetwork_a298e48167a85926e5be8cabcc096fc08}{{6.8.4.2}{31}{\texorpdfstring {flow\+Map}{flowMap}}{subsubsection.6.8.4.2}{}}
\@writefile{toc}{\contentsline {subsubsection}{\numberline {6.8.4.3}id\discretionary {\unhbox \voidb@x \hbox {\relax \fontsize  {7}{8}\selectfont  $\leftarrow \joinrel  \rhook $}}{}{}To\discretionary {\unhbox \voidb@x \hbox {\relax \fontsize  {7}{8}\selectfont  $\leftarrow \joinrel  \rhook $}}{}{}Ip\discretionary {\unhbox \voidb@x \hbox {\relax \fontsize  {7}{8}\selectfont  $\leftarrow \joinrel  \rhook $}}{}{}Address\discretionary {\unhbox \voidb@x \hbox {\relax \fontsize  {7}{8}\selectfont  $\leftarrow \joinrel  \rhook $}}{}{}Map}{31}{subsubsection.6.8.4.3}}
\@writefile{toc}{\contentsline {section}{\numberline {6.9}Path\discretionary {\unhbox \voidb@x \hbox {\relax \fontsize  {7}{8}\selectfont  $\leftarrow \joinrel  \rhook $}}{}{}Generator Class Reference}{31}{section.6.9}}
\newlabel{classPathGenerator}{{6.9}{31}{Path\+Generator Class Reference}{section.6.9}{}}
\@writefile{toc}{\contentsline {subsection}{\numberline {6.9.1}Detailed Description}{32}{subsection.6.9.1}}
\@writefile{toc}{\contentsline {subsection}{\numberline {6.9.2}Constructor \& Destructor Documentation}{32}{subsection.6.9.2}}
\newlabel{classPathGenerator_a97ee47732ccfd95add0d6c9e7fca7425}{{6.9.2}{32}{Constructor \& Destructor Documentation}{subsection.6.9.2}{}}
\@writefile{toc}{\contentsline {subsubsection}{\numberline {6.9.2.1}Path\discretionary {\unhbox \voidb@x \hbox {\relax \fontsize  {7}{8}\selectfont  $\leftarrow \joinrel  \rhook $}}{}{}Generator()}{32}{subsubsection.6.9.2.1}}
\@writefile{toc}{\contentsline {subsection}{\numberline {6.9.3}Member Function Documentation}{32}{subsection.6.9.3}}
\newlabel{classPathGenerator_a74dafb7c00324a01e0cdef4714c27e20}{{6.9.3}{32}{Member Function Documentation}{subsection.6.9.3}{}}
\@writefile{toc}{\contentsline {subsubsection}{\numberline {6.9.3.1}construct\discretionary {\unhbox \voidb@x \hbox {\relax \fontsize  {7}{8}\selectfont  $\leftarrow \joinrel  \rhook $}}{}{}Flow()}{32}{subsubsection.6.9.3.1}}
\newlabel{classPathGenerator_ac65dbacab4ea402895c67123c68f99e3}{{6.9.3.1}{32}{\texorpdfstring {construct\+Flow()}{constructFlow()}}{subsubsection.6.9.3.1}{}}
\@writefile{toc}{\contentsline {subsubsection}{\numberline {6.9.3.2}run\discretionary {\unhbox \voidb@x \hbox {\relax \fontsize  {7}{8}\selectfont  $\leftarrow \joinrel  \rhook $}}{}{}D\discretionary {\unhbox \voidb@x \hbox {\relax \fontsize  {7}{8}\selectfont  $\leftarrow \joinrel  \rhook $}}{}{}F\discretionary {\unhbox \voidb@x \hbox {\relax \fontsize  {7}{8}\selectfont  $\leftarrow \joinrel  \rhook $}}{}{}S()}{33}{subsubsection.6.9.3.2}}
\@writefile{toc}{\contentsline {subsection}{\numberline {6.9.4}Member Data Documentation}{33}{subsection.6.9.4}}
\newlabel{classPathGenerator_a2bfcd24f62f4714d32dd1773409cd0f0}{{6.9.4}{33}{Member Data Documentation}{subsection.6.9.4}{}}
\@writefile{toc}{\contentsline {subsubsection}{\numberline {6.9.4.1}my\discretionary {\unhbox \voidb@x \hbox {\relax \fontsize  {7}{8}\selectfont  $\leftarrow \joinrel  \rhook $}}{}{}Network}{33}{subsubsection.6.9.4.1}}
\@writefile{toc}{\contentsline {section}{\numberline {6.10}Port\discretionary {\unhbox \voidb@x \hbox {\relax \fontsize  {7}{8}\selectfont  $\leftarrow \joinrel  \rhook $}}{}{}Volumn\discretionary {\unhbox \voidb@x \hbox {\relax \fontsize  {7}{8}\selectfont  $\leftarrow \joinrel  \rhook $}}{}{}State Struct Reference}{33}{section.6.10}}
\newlabel{structPortVolumnState}{{6.10}{33}{Port\+Volumn\+State Struct Reference}{section.6.10}{}}
\@writefile{toc}{\contentsline {subsection}{\numberline {6.10.1}Detailed Description}{34}{subsection.6.10.1}}
\@writefile{toc}{\contentsline {subsection}{\numberline {6.10.2}Member Function Documentation}{34}{subsection.6.10.2}}
\newlabel{structPortVolumnState_a1c08c7192b1af13a7839fd2a38eed2c3}{{6.10.2}{34}{Member Function Documentation}{subsection.6.10.2}{}}
\@writefile{toc}{\contentsline {subsubsection}{\numberline {6.10.2.1}print\discretionary {\unhbox \voidb@x \hbox {\relax \fontsize  {7}{8}\selectfont  $\leftarrow \joinrel  \rhook $}}{}{}Myself()}{34}{subsubsection.6.10.2.1}}
\@writefile{toc}{\contentsline {subsection}{\numberline {6.10.3}Member Data Documentation}{34}{subsection.6.10.3}}
\newlabel{structPortVolumnState_a37a8bd13537ae26081ca1466add462bf}{{6.10.3}{34}{Member Data Documentation}{subsection.6.10.3}{}}
\@writefile{toc}{\contentsline {subsubsection}{\numberline {6.10.3.1}bandwidth}{34}{subsubsection.6.10.3.1}}
\newlabel{structPortVolumnState_ace75d1ffc5a5f847b50af84a96b1d347}{{6.10.3.1}{34}{\texorpdfstring {bandwidth}{bandwidth}}{subsubsection.6.10.3.1}{}}
\@writefile{toc}{\contentsline {subsubsection}{\numberline {6.10.3.2}in\discretionary {\unhbox \voidb@x \hbox {\relax \fontsize  {7}{8}\selectfont  $\leftarrow \joinrel  \rhook $}}{}{}\_\discretionary {\unhbox \voidb@x \hbox {\relax \fontsize  {7}{8}\selectfont  $\leftarrow \joinrel  \rhook $}}{}{}segment}{34}{subsubsection.6.10.3.2}}
\newlabel{structPortVolumnState_aadf97bd02ea1adb18bce9a211eaf9491}{{6.10.3.2}{34}{\texorpdfstring {in\+\_\+segment}{in\_segment}}{subsubsection.6.10.3.2}{}}
\@writefile{toc}{\contentsline {subsubsection}{\numberline {6.10.3.3}port\discretionary {\unhbox \voidb@x \hbox {\relax \fontsize  {7}{8}\selectfont  $\leftarrow \joinrel  \rhook $}}{}{}State}{35}{subsubsection.6.10.3.3}}
\@writefile{toc}{\contentsline {section}{\numberline {6.11}Simulation Class Reference}{35}{section.6.11}}
\newlabel{classSimulation}{{6.11}{35}{Simulation Class Reference}{section.6.11}{}}
\@writefile{toc}{\contentsline {subsection}{\numberline {6.11.1}Detailed Description}{36}{subsection.6.11.1}}
\@writefile{toc}{\contentsline {subsection}{\numberline {6.11.2}Member Function Documentation}{36}{subsection.6.11.2}}
\newlabel{classSimulation_a4b0b3ef9428631492fb76d7e6c0b73ce}{{6.11.2}{36}{Member Function Documentation}{subsection.6.11.2}{}}
\@writefile{toc}{\contentsline {subsubsection}{\numberline {6.11.2.1}calculate\discretionary {\unhbox \voidb@x \hbox {\relax \fontsize  {7}{8}\selectfont  $\leftarrow \joinrel  \rhook $}}{}{}Egress()}{36}{subsubsection.6.11.2.1}}
\newlabel{classSimulation_ad94d6e3762df6cf1af2c139272ae554f}{{6.11.2.1}{36}{\texorpdfstring {calculate\+Egress()}{calculateEgress()}}{subsubsection.6.11.2.1}{}}
\@writefile{toc}{\contentsline {subsubsection}{\numberline {6.11.2.2}fixed\discretionary {\unhbox \voidb@x \hbox {\relax \fontsize  {7}{8}\selectfont  $\leftarrow \joinrel  \rhook $}}{}{}Point\discretionary {\unhbox \voidb@x \hbox {\relax \fontsize  {7}{8}\selectfont  $\leftarrow \joinrel  \rhook $}}{}{}Iteration()}{36}{subsubsection.6.11.2.2}}
\newlabel{classSimulation_a54422b774f48dbf05108e9ab1a6440b2}{{6.11.2.2}{36}{\texorpdfstring {fixed\+Point\+Iteration()}{fixedPointIteration()}}{subsubsection.6.11.2.2}{}}
\@writefile{toc}{\contentsline {subsubsection}{\numberline {6.11.2.3}generate\discretionary {\unhbox \voidb@x \hbox {\relax \fontsize  {7}{8}\selectfont  $\leftarrow \joinrel  \rhook $}}{}{}Dependence\discretionary {\unhbox \voidb@x \hbox {\relax \fontsize  {7}{8}\selectfont  $\leftarrow \joinrel  \rhook $}}{}{}Graph()}{36}{subsubsection.6.11.2.3}}
\newlabel{classSimulation_a2028969031982b1899b5dedb9d92fed7}{{6.11.2.3}{36}{\texorpdfstring {generate\+Dependence\+Graph()}{generateDependenceGraph()}}{subsubsection.6.11.2.3}{}}
\@writefile{toc}{\contentsline {subsubsection}{\numberline {6.11.2.4}get\discretionary {\unhbox \voidb@x \hbox {\relax \fontsize  {7}{8}\selectfont  $\leftarrow \joinrel  \rhook $}}{}{}Congested\discretionary {\unhbox \voidb@x \hbox {\relax \fontsize  {7}{8}\selectfont  $\leftarrow \joinrel  \rhook $}}{}{}Ports()}{37}{subsubsection.6.11.2.4}}
\newlabel{classSimulation_ade880707236057c8df17a9fe6b5bd986}{{6.11.2.4}{37}{\texorpdfstring {get\+Congested\+Ports()}{getCongestedPorts()}}{subsubsection.6.11.2.4}{}}
\@writefile{toc}{\contentsline {subsubsection}{\numberline {6.11.2.5}print\discretionary {\unhbox \voidb@x \hbox {\relax \fontsize  {7}{8}\selectfont  $\leftarrow \joinrel  \rhook $}}{}{}All\discretionary {\unhbox \voidb@x \hbox {\relax \fontsize  {7}{8}\selectfont  $\leftarrow \joinrel  \rhook $}}{}{}Port()}{37}{subsubsection.6.11.2.5}}
\newlabel{classSimulation_a54bfb8710dfe566be83c7482f66a7b50}{{6.11.2.5}{37}{\texorpdfstring {print\+All\+Port()}{printAllPort()}}{subsubsection.6.11.2.5}{}}
\@writefile{toc}{\contentsline {subsubsection}{\numberline {6.11.2.6}print\discretionary {\unhbox \voidb@x \hbox {\relax \fontsize  {7}{8}\selectfont  $\leftarrow \joinrel  \rhook $}}{}{}Dependence\discretionary {\unhbox \voidb@x \hbox {\relax \fontsize  {7}{8}\selectfont  $\leftarrow \joinrel  \rhook $}}{}{}Graph()}{37}{subsubsection.6.11.2.6}}
\newlabel{classSimulation_ae978e6603b06a7e2b3e06d4fb8360efb}{{6.11.2.6}{37}{\texorpdfstring {print\+Dependence\+Graph()}{printDependenceGraph()}}{subsubsection.6.11.2.6}{}}
\@writefile{toc}{\contentsline {subsubsection}{\numberline {6.11.2.7}rule\discretionary {\unhbox \voidb@x \hbox {\relax \fontsize  {7}{8}\selectfont  $\leftarrow \joinrel  \rhook $}}{}{}Based\discretionary {\unhbox \voidb@x \hbox {\relax \fontsize  {7}{8}\selectfont  $\leftarrow \joinrel  \rhook $}}{}{}Update()}{37}{subsubsection.6.11.2.7}}
\newlabel{classSimulation_ad3c427b0fa252299c2a350bf1e9ceefa}{{6.11.2.7}{37}{\texorpdfstring {rule\+Based\+Update()}{ruleBasedUpdate()}}{subsubsection.6.11.2.7}{}}
\@writefile{toc}{\contentsline {subsubsection}{\numberline {6.11.2.8}setup()}{37}{subsubsection.6.11.2.8}}
\newlabel{classSimulation_a9fdb1178bb92ce7caaf7e82167ef7add}{{6.11.2.8}{37}{\texorpdfstring {setup()}{setup()}}{subsubsection.6.11.2.8}{}}
\@writefile{toc}{\contentsline {subsubsection}{\numberline {6.11.2.9}values\discretionary {\unhbox \voidb@x \hbox {\relax \fontsize  {7}{8}\selectfont  $\leftarrow \joinrel  \rhook $}}{}{}Fixed()}{38}{subsubsection.6.11.2.9}}
\@writefile{toc}{\contentsline {subsection}{\numberline {6.11.3}Member Data Documentation}{38}{subsection.6.11.3}}
\newlabel{classSimulation_ad5b75c90a5321cb055a7db963a44db46}{{6.11.3}{38}{Member Data Documentation}{subsection.6.11.3}{}}
\@writefile{toc}{\contentsline {subsubsection}{\numberline {6.11.3.1}causal\discretionary {\unhbox \voidb@x \hbox {\relax \fontsize  {7}{8}\selectfont  $\leftarrow \joinrel  \rhook $}}{}{}Relation}{38}{subsubsection.6.11.3.1}}
\newlabel{classSimulation_a2dc43889fa9bdb1c614db15c4fe54def}{{6.11.3.1}{38}{\texorpdfstring {causal\+Relation}{causalRelation}}{subsubsection.6.11.3.1}{}}
\@writefile{toc}{\contentsline {subsubsection}{\numberline {6.11.3.2}critical\discretionary {\unhbox \voidb@x \hbox {\relax \fontsize  {7}{8}\selectfont  $\leftarrow \joinrel  \rhook $}}{}{}Segments}{38}{subsubsection.6.11.3.2}}
\newlabel{classSimulation_a5db775f6649f37d7937d870d4ec9a7b5}{{6.11.3.2}{38}{\texorpdfstring {critical\+Segments}{criticalSegments}}{subsubsection.6.11.3.2}{}}
\@writefile{toc}{\contentsline {subsubsection}{\numberline {6.11.3.3}dependence\discretionary {\unhbox \voidb@x \hbox {\relax \fontsize  {7}{8}\selectfont  $\leftarrow \joinrel  \rhook $}}{}{}Graph}{38}{subsubsection.6.11.3.3}}
\newlabel{classSimulation_a4688f75930afebc38d280182c2ccf0f5}{{6.11.3.3}{38}{\texorpdfstring {dependence\+Graph}{dependenceGraph}}{subsubsection.6.11.3.3}{}}
\@writefile{toc}{\contentsline {subsubsection}{\numberline {6.11.3.4}num\discretionary {\unhbox \voidb@x \hbox {\relax \fontsize  {7}{8}\selectfont  $\leftarrow \joinrel  \rhook $}}{}{}Congested\discretionary {\unhbox \voidb@x \hbox {\relax \fontsize  {7}{8}\selectfont  $\leftarrow \joinrel  \rhook $}}{}{}Ports}{38}{subsubsection.6.11.3.4}}
\newlabel{classSimulation_a70c4a2d19fd76c820d3e1f62ebd6d306}{{6.11.3.4}{38}{\texorpdfstring {num\+Congested\+Ports}{numCongestedPorts}}{subsubsection.6.11.3.4}{}}
\@writefile{toc}{\contentsline {subsubsection}{\numberline {6.11.3.5}port\discretionary {\unhbox \voidb@x \hbox {\relax \fontsize  {7}{8}\selectfont  $\leftarrow \joinrel  \rhook $}}{}{}Map}{39}{subsubsection.6.11.3.5}}
\@writefile{toc}{\contentsline {section}{\numberline {6.12}String\discretionary {\unhbox \voidb@x \hbox {\relax \fontsize  {7}{8}\selectfont  $\leftarrow \joinrel  \rhook $}}{}{}Tokenizer Class Reference}{39}{section.6.12}}
\newlabel{classStringTokenizer}{{6.12}{39}{String\+Tokenizer Class Reference}{section.6.12}{}}
\@writefile{toc}{\contentsline {subsection}{\numberline {6.12.1}Detailed Description}{39}{subsection.6.12.1}}
\@writefile{toc}{\contentsline {subsection}{\numberline {6.12.2}Constructor \& Destructor Documentation}{40}{subsection.6.12.2}}
\newlabel{classStringTokenizer_adbd0fa7c2ff04a5d75c8d21c7311c6d8}{{6.12.2}{40}{Constructor \& Destructor Documentation}{subsection.6.12.2}{}}
\@writefile{toc}{\contentsline {subsubsection}{\numberline {6.12.2.1}String\discretionary {\unhbox \voidb@x \hbox {\relax \fontsize  {7}{8}\selectfont  $\leftarrow \joinrel  \rhook $}}{}{}Tokenizer()}{40}{subsubsection.6.12.2.1}}
\@writefile{toc}{\contentsline {subsection}{\numberline {6.12.3}Member Function Documentation}{40}{subsection.6.12.3}}
\newlabel{classStringTokenizer_a2990e5a83f4bf577ea8d717a3108a73d}{{6.12.3}{40}{Member Function Documentation}{subsection.6.12.3}{}}
\@writefile{toc}{\contentsline {subsubsection}{\numberline {6.12.3.1}count\discretionary {\unhbox \voidb@x \hbox {\relax \fontsize  {7}{8}\selectfont  $\leftarrow \joinrel  \rhook $}}{}{}Tokens()}{40}{subsubsection.6.12.3.1}}
\newlabel{classStringTokenizer_a777aa9cd13fb1986544cd63ba3644d58}{{6.12.3.1}{40}{\texorpdfstring {count\+Tokens()}{countTokens()}}{subsubsection.6.12.3.1}{}}
\@writefile{toc}{\contentsline {subsubsection}{\numberline {6.12.3.2}has\discretionary {\unhbox \voidb@x \hbox {\relax \fontsize  {7}{8}\selectfont  $\leftarrow \joinrel  \rhook $}}{}{}More\discretionary {\unhbox \voidb@x \hbox {\relax \fontsize  {7}{8}\selectfont  $\leftarrow \joinrel  \rhook $}}{}{}Tokens()}{40}{subsubsection.6.12.3.2}}
\newlabel{classStringTokenizer_a9c95e7412890819dae3e20f23aaa76be}{{6.12.3.2}{40}{\texorpdfstring {has\+More\+Tokens()}{hasMoreTokens()}}{subsubsection.6.12.3.2}{}}
\@writefile{toc}{\contentsline {subsubsection}{\numberline {6.12.3.3}next\discretionary {\unhbox \voidb@x \hbox {\relax \fontsize  {7}{8}\selectfont  $\leftarrow \joinrel  \rhook $}}{}{}Token()}{40}{subsubsection.6.12.3.3}}
\newlabel{classStringTokenizer_acc1afbbd324d1d451ee8df9342adde2f}{{6.12.3.3}{40}{\texorpdfstring {next\+Token()}{nextToken()}}{subsubsection.6.12.3.3}{}}
\@writefile{toc}{\contentsline {subsubsection}{\numberline {6.12.3.4}to\discretionary {\unhbox \voidb@x \hbox {\relax \fontsize  {7}{8}\selectfont  $\leftarrow \joinrel  \rhook $}}{}{}String()}{41}{subsubsection.6.12.3.4}}
\@writefile{toc}{\contentsline {subsection}{\numberline {6.12.4}Member Data Documentation}{41}{subsection.6.12.4}}
\newlabel{classStringTokenizer_ab2e58e7a3880c50ddd6353fbd3a0bd9a}{{6.12.4}{41}{Member Data Documentation}{subsection.6.12.4}{}}
\@writefile{toc}{\contentsline {subsubsection}{\numberline {6.12.4.1}delim}{41}{subsubsection.6.12.4.1}}
\newlabel{classStringTokenizer_a30567b65b4f95b31091d6a9227a07e6a}{{6.12.4.1}{41}{\texorpdfstring {delim}{delim}}{subsubsection.6.12.4.1}{}}
\@writefile{toc}{\contentsline {subsubsection}{\numberline {6.12.4.2}str}{41}{subsubsection.6.12.4.2}}
\newlabel{classStringTokenizer_a241e56ddfe966762ad4a4528e042d095}{{6.12.4.2}{41}{\texorpdfstring {str}{str}}{subsubsection.6.12.4.2}{}}
\@writefile{toc}{\contentsline {subsubsection}{\numberline {6.12.4.3}tokens}{41}{subsubsection.6.12.4.3}}
\@writefile{toc}{\contentsline {section}{\numberline {6.13}Veri\discretionary {\unhbox \voidb@x \hbox {\relax \fontsize  {7}{8}\selectfont  $\leftarrow \joinrel  \rhook $}}{}{}Congestion Class Reference}{41}{section.6.13}}
\newlabel{classVeriCongestion}{{6.13}{41}{Veri\+Congestion Class Reference}{section.6.13}{}}
\@writefile{toc}{\contentsline {subsection}{\numberline {6.13.1}Detailed Description}{42}{subsection.6.13.1}}
\@writefile{toc}{\contentsline {subsection}{\numberline {6.13.2}Constructor \& Destructor Documentation}{43}{subsection.6.13.2}}
\newlabel{classVeriCongestion_a8c9347ae9a573991110feb779dfa38dc}{{6.13.2}{43}{Constructor \& Destructor Documentation}{subsection.6.13.2}{}}
\@writefile{toc}{\contentsline {subsubsection}{\numberline {6.13.2.1}Veri\discretionary {\unhbox \voidb@x \hbox {\relax \fontsize  {7}{8}\selectfont  $\leftarrow \joinrel  \rhook $}}{}{}Congestion()}{43}{subsubsection.6.13.2.1}}
\@writefile{toc}{\contentsline {subsection}{\numberline {6.13.3}Member Function Documentation}{43}{subsection.6.13.3}}
\newlabel{classVeriCongestion_a1ab22a70a16a1c5cc7d135bda3eb66a4}{{6.13.3}{43}{Member Function Documentation}{subsection.6.13.3}{}}
\@writefile{toc}{\contentsline {subsubsection}{\numberline {6.13.3.1}add\discretionary {\unhbox \voidb@x \hbox {\relax \fontsize  {7}{8}\selectfont  $\leftarrow \joinrel  \rhook $}}{}{}New\discretionary {\unhbox \voidb@x \hbox {\relax \fontsize  {7}{8}\selectfont  $\leftarrow \joinrel  \rhook $}}{}{}Flow()}{43}{subsubsection.6.13.3.1}}
\newlabel{classVeriCongestion_a65a32cf8658bae94d2e52795513155c9}{{6.13.3.1}{43}{\texorpdfstring {add\+New\+Flow()}{addNewFlow()}}{subsubsection.6.13.3.1}{}}
\@writefile{toc}{\contentsline {subsubsection}{\numberline {6.13.3.2}delete\discretionary {\unhbox \voidb@x \hbox {\relax \fontsize  {7}{8}\selectfont  $\leftarrow \joinrel  \rhook $}}{}{}Flow()}{43}{subsubsection.6.13.3.2}}
\newlabel{classVeriCongestion_a5a5a77797bdc8f28b5056b3921877ebd}{{6.13.3.2}{43}{\texorpdfstring {delete\+Flow()}{deleteFlow()}}{subsubsection.6.13.3.2}{}}
\@writefile{toc}{\contentsline {subsubsection}{\numberline {6.13.3.3}generate\discretionary {\unhbox \voidb@x \hbox {\relax \fontsize  {7}{8}\selectfont  $\leftarrow \joinrel  \rhook $}}{}{}Relevant\discretionary {\unhbox \voidb@x \hbox {\relax \fontsize  {7}{8}\selectfont  $\leftarrow \joinrel  \rhook $}}{}{}Network()}{43}{subsubsection.6.13.3.3}}
\newlabel{classVeriCongestion_a5231bab0c2b510391df05262e45f8c41}{{6.13.3.3}{43}{\texorpdfstring {generate\+Relevant\+Network()}{generateRelevantNetwork()}}{subsubsection.6.13.3.3}{}}
\@writefile{toc}{\contentsline {subsubsection}{\numberline {6.13.3.4}print\discretionary {\unhbox \voidb@x \hbox {\relax \fontsize  {7}{8}\selectfont  $\leftarrow \joinrel  \rhook $}}{}{}Flows()}{44}{subsubsection.6.13.3.4}}
\newlabel{classVeriCongestion_ae76fc5eeb228f37beda15a56b55831cb}{{6.13.3.4}{44}{\texorpdfstring {print\+Flows()}{printFlows()}}{subsubsection.6.13.3.4}{}}
\@writefile{toc}{\contentsline {subsubsection}{\numberline {6.13.3.5}print\discretionary {\unhbox \voidb@x \hbox {\relax \fontsize  {7}{8}\selectfont  $\leftarrow \joinrel  \rhook $}}{}{}Port\discretionary {\unhbox \voidb@x \hbox {\relax \fontsize  {7}{8}\selectfont  $\leftarrow \joinrel  \rhook $}}{}{}Share()}{44}{subsubsection.6.13.3.5}}
\newlabel{classVeriCongestion_a649eca29c6ba334e4c81ec45f7e39aab}{{6.13.3.5}{44}{\texorpdfstring {print\+Port\+Share()}{printPortShare()}}{subsubsection.6.13.3.5}{}}
\@writefile{toc}{\contentsline {subsubsection}{\numberline {6.13.3.6}print\discretionary {\unhbox \voidb@x \hbox {\relax \fontsize  {7}{8}\selectfont  $\leftarrow \joinrel  \rhook $}}{}{}Stats()}{44}{subsubsection.6.13.3.6}}
\newlabel{classVeriCongestion_a6ba7cf1eb9b7bd44389c171b1f678054}{{6.13.3.6}{44}{\texorpdfstring {print\+Stats()}{printStats()}}{subsubsection.6.13.3.6}{}}
\@writefile{toc}{\contentsline {subsubsection}{\numberline {6.13.3.7}simulate()}{44}{subsubsection.6.13.3.7}}
\newlabel{classVeriCongestion_a6602fcd5ce58aaedb247c839c0155938}{{6.13.3.7}{44}{\texorpdfstring {simulate()}{simulate()}}{subsubsection.6.13.3.7}{}}
\@writefile{toc}{\contentsline {subsubsection}{\numberline {6.13.3.8}verify\discretionary {\unhbox \voidb@x \hbox {\relax \fontsize  {7}{8}\selectfont  $\leftarrow \joinrel  \rhook $}}{}{}A\discretionary {\unhbox \voidb@x \hbox {\relax \fontsize  {7}{8}\selectfont  $\leftarrow \joinrel  \rhook $}}{}{}Flow()}{44}{subsubsection.6.13.3.8}}
\@writefile{toc}{\contentsline {subsection}{\numberline {6.13.4}Member Data Documentation}{45}{subsection.6.13.4}}
\newlabel{classVeriCongestion_a597019259c694c7de956351c2d81e6cd}{{6.13.4}{45}{Member Data Documentation}{subsection.6.13.4}{}}
\@writefile{toc}{\contentsline {subsubsection}{\numberline {6.13.4.1}avg\discretionary {\unhbox \voidb@x \hbox {\relax \fontsize  {7}{8}\selectfont  $\leftarrow \joinrel  \rhook $}}{}{}\_\discretionary {\unhbox \voidb@x \hbox {\relax \fontsize  {7}{8}\selectfont  $\leftarrow \joinrel  \rhook $}}{}{}affected\discretionary {\unhbox \voidb@x \hbox {\relax \fontsize  {7}{8}\selectfont  $\leftarrow \joinrel  \rhook $}}{}{}Flows}{45}{subsubsection.6.13.4.1}}
\newlabel{classVeriCongestion_ac69b374817840583ff2bc66f2831a732}{{6.13.4.1}{45}{\texorpdfstring {avg\+\_\+affected\+Flows}{avg\_affectedFlows}}{subsubsection.6.13.4.1}{}}
\@writefile{toc}{\contentsline {subsubsection}{\numberline {6.13.4.2}current\discretionary {\unhbox \voidb@x \hbox {\relax \fontsize  {7}{8}\selectfont  $\leftarrow \joinrel  \rhook $}}{}{}\_\discretionary {\unhbox \voidb@x \hbox {\relax \fontsize  {7}{8}\selectfont  $\leftarrow \joinrel  \rhook $}}{}{}graph\discretionary {\unhbox \voidb@x \hbox {\relax \fontsize  {7}{8}\selectfont  $\leftarrow \joinrel  \rhook $}}{}{}\_\discretionary {\unhbox \voidb@x \hbox {\relax \fontsize  {7}{8}\selectfont  $\leftarrow \joinrel  \rhook $}}{}{}size}{45}{subsubsection.6.13.4.2}}
\newlabel{classVeriCongestion_a699c9cbdd494d2b4602704c7b1e14c43}{{6.13.4.2}{45}{\texorpdfstring {current\+\_\+graph\+\_\+size}{current\_graph\_size}}{subsubsection.6.13.4.2}{}}
\@writefile{toc}{\contentsline {subsubsection}{\numberline {6.13.4.3}num\discretionary {\unhbox \voidb@x \hbox {\relax \fontsize  {7}{8}\selectfont  $\leftarrow \joinrel  \rhook $}}{}{}\_\discretionary {\unhbox \voidb@x \hbox {\relax \fontsize  {7}{8}\selectfont  $\leftarrow \joinrel  \rhook $}}{}{}congestion}{45}{subsubsection.6.13.4.3}}
\newlabel{classVeriCongestion_a10399e8e8b8bbfefb139fe89ddbe8798}{{6.13.4.3}{45}{\texorpdfstring {num\+\_\+congestion}{num\_congestion}}{subsubsection.6.13.4.3}{}}
\@writefile{toc}{\contentsline {subsubsection}{\numberline {6.13.4.4}num\discretionary {\unhbox \voidb@x \hbox {\relax \fontsize  {7}{8}\selectfont  $\leftarrow \joinrel  \rhook $}}{}{}\_\discretionary {\unhbox \voidb@x \hbox {\relax \fontsize  {7}{8}\selectfont  $\leftarrow \joinrel  \rhook $}}{}{}dependency\discretionary {\unhbox \voidb@x \hbox {\relax \fontsize  {7}{8}\selectfont  $\leftarrow \joinrel  \rhook $}}{}{}Graph}{45}{subsubsection.6.13.4.4}}
\newlabel{classVeriCongestion_a34ee991d590f05fe74cc2da47a1558a9}{{6.13.4.4}{45}{\texorpdfstring {num\+\_\+dependency\+Graph}{num\_dependencyGraph}}{subsubsection.6.13.4.4}{}}
\@writefile{toc}{\contentsline {subsubsection}{\numberline {6.13.4.5}num\discretionary {\unhbox \voidb@x \hbox {\relax \fontsize  {7}{8}\selectfont  $\leftarrow \joinrel  \rhook $}}{}{}\_\discretionary {\unhbox \voidb@x \hbox {\relax \fontsize  {7}{8}\selectfont  $\leftarrow \joinrel  \rhook $}}{}{}verification}{45}{subsubsection.6.13.4.5}}
\newlabel{classVeriCongestion_a7427e3ee4ff0fd2b7bda6757196f9db8}{{6.13.4.5}{45}{\texorpdfstring {num\+\_\+verification}{num\_verification}}{subsubsection.6.13.4.5}{}}
\@writefile{toc}{\contentsline {subsubsection}{\numberline {6.13.4.6}port\discretionary {\unhbox \voidb@x \hbox {\relax \fontsize  {7}{8}\selectfont  $\leftarrow \joinrel  \rhook $}}{}{}Share}{46}{subsubsection.6.13.4.6}}
\newlabel{classVeriCongestion_ae12b5adabb58dadbb3e0598879b979c0}{{6.13.4.6}{46}{\texorpdfstring {port\+Share}{portShare}}{subsubsection.6.13.4.6}{}}
\@writefile{toc}{\contentsline {subsubsection}{\numberline {6.13.4.7}total\discretionary {\unhbox \voidb@x \hbox {\relax \fontsize  {7}{8}\selectfont  $\leftarrow \joinrel  \rhook $}}{}{}\_\discretionary {\unhbox \voidb@x \hbox {\relax \fontsize  {7}{8}\selectfont  $\leftarrow \joinrel  \rhook $}}{}{}find\discretionary {\unhbox \voidb@x \hbox {\relax \fontsize  {7}{8}\selectfont  $\leftarrow \joinrel  \rhook $}}{}{}\_\discretionary {\unhbox \voidb@x \hbox {\relax \fontsize  {7}{8}\selectfont  $\leftarrow \joinrel  \rhook $}}{}{}affected\discretionary {\unhbox \voidb@x \hbox {\relax \fontsize  {7}{8}\selectfont  $\leftarrow \joinrel  \rhook $}}{}{}\_\discretionary {\unhbox \voidb@x \hbox {\relax \fontsize  {7}{8}\selectfont  $\leftarrow \joinrel  \rhook $}}{}{}time}{46}{subsubsection.6.13.4.7}}
\newlabel{classVeriCongestion_abf2d7c0cde4161e4c74d286298b595e1}{{6.13.4.7}{46}{\texorpdfstring {total\+\_\+find\+\_\+affected\+\_\+time}{total\_find\_affected\_time}}{subsubsection.6.13.4.7}{}}
\@writefile{toc}{\contentsline {subsubsection}{\numberline {6.13.4.8}total\discretionary {\unhbox \voidb@x \hbox {\relax \fontsize  {7}{8}\selectfont  $\leftarrow \joinrel  \rhook $}}{}{}\_\discretionary {\unhbox \voidb@x \hbox {\relax \fontsize  {7}{8}\selectfont  $\leftarrow \joinrel  \rhook $}}{}{}generate\discretionary {\unhbox \voidb@x \hbox {\relax \fontsize  {7}{8}\selectfont  $\leftarrow \joinrel  \rhook $}}{}{}\_\discretionary {\unhbox \voidb@x \hbox {\relax \fontsize  {7}{8}\selectfont  $\leftarrow \joinrel  \rhook $}}{}{}subnetwork\discretionary {\unhbox \voidb@x \hbox {\relax \fontsize  {7}{8}\selectfont  $\leftarrow \joinrel  \rhook $}}{}{}\_\discretionary {\unhbox \voidb@x \hbox {\relax \fontsize  {7}{8}\selectfont  $\leftarrow \joinrel  \rhook $}}{}{}time}{46}{subsubsection.6.13.4.8}}
\newlabel{classVeriCongestion_a8d07553ff57d943445fcc30a634d8bb9}{{6.13.4.8}{46}{\texorpdfstring {total\+\_\+generate\+\_\+subnetwork\+\_\+time}{total\_generate\_subnetwork\_time}}{subsubsection.6.13.4.8}{}}
\@writefile{toc}{\contentsline {subsubsection}{\numberline {6.13.4.9}total\discretionary {\unhbox \voidb@x \hbox {\relax \fontsize  {7}{8}\selectfont  $\leftarrow \joinrel  \rhook $}}{}{}\_\discretionary {\unhbox \voidb@x \hbox {\relax \fontsize  {7}{8}\selectfont  $\leftarrow \joinrel  \rhook $}}{}{}simulation\discretionary {\unhbox \voidb@x \hbox {\relax \fontsize  {7}{8}\selectfont  $\leftarrow \joinrel  \rhook $}}{}{}\_\discretionary {\unhbox \voidb@x \hbox {\relax \fontsize  {7}{8}\selectfont  $\leftarrow \joinrel  \rhook $}}{}{}time}{46}{subsubsection.6.13.4.9}}
\newlabel{classVeriCongestion_a4dd1f464bce867fadb5d089a1e510b32}{{6.13.4.9}{46}{\texorpdfstring {total\+\_\+simulation\+\_\+time}{total\_simulation\_time}}{subsubsection.6.13.4.9}{}}
\@writefile{toc}{\contentsline {subsubsection}{\numberline {6.13.4.10}whole\discretionary {\unhbox \voidb@x \hbox {\relax \fontsize  {7}{8}\selectfont  $\leftarrow \joinrel  \rhook $}}{}{}Network}{46}{subsubsection.6.13.4.10}}
\@writefile{toc}{\contentsline {chapter}{\numberline {7}File Documentation}{47}{chapter.7}}
\@writefile{lof}{\addvspace {10\p@ }}
\@writefile{lot}{\addvspace {10\p@ }}
\@writefile{toc}{\contentsline {section}{\numberline {7.1}Application.\discretionary {\unhbox \voidb@x \hbox {\relax \fontsize  {7}{8}\selectfont  $\leftarrow \joinrel  \rhook $}}{}{}cpp File Reference}{47}{section.7.1}}
\newlabel{Application_8cpp}{{7.1}{47}{Application.\+cpp File Reference}{section.7.1}{}}
\@writefile{toc}{\contentsline {section}{\numberline {7.2}Application.\discretionary {\unhbox \voidb@x \hbox {\relax \fontsize  {7}{8}\selectfont  $\leftarrow \joinrel  \rhook $}}{}{}cpp}{47}{section.7.2}}
\@writefile{toc}{\contentsline {section}{\numberline {7.3}Application.\discretionary {\unhbox \voidb@x \hbox {\relax \fontsize  {7}{8}\selectfont  $\leftarrow \joinrel  \rhook $}}{}{}h File Reference}{51}{section.7.3}}
\newlabel{Application_8h}{{7.3}{51}{Application.\+h File Reference}{section.7.3}{}}
\@writefile{toc}{\contentsline {section}{\numberline {7.4}Application.\discretionary {\unhbox \voidb@x \hbox {\relax \fontsize  {7}{8}\selectfont  $\leftarrow \joinrel  \rhook $}}{}{}h}{51}{section.7.4}}
\@writefile{toc}{\contentsline {section}{\numberline {7.5}Flow.\discretionary {\unhbox \voidb@x \hbox {\relax \fontsize  {7}{8}\selectfont  $\leftarrow \joinrel  \rhook $}}{}{}h File Reference}{52}{section.7.5}}
\newlabel{Flow_8h}{{7.5}{52}{Flow.\+h File Reference}{section.7.5}{}}
\gdef \LT@ii {\LT@entry 
    {3}{51.82312pt}\LT@entry 
    {3}{12.4pt}}
\@writefile{toc}{\contentsline {subsection}{\numberline {7.5.1}Enumeration Type Documentation}{53}{subsection.7.5.1}}
\newlabel{Flow_8h_a02ad1c7cf791a069dd54e409f8db4790}{{7.5.1}{53}{Enumeration Type Documentation}{subsection.7.5.1}{}}
\@writefile{toc}{\contentsline {subsubsection}{\numberline {7.5.1.1}Flow\discretionary {\unhbox \voidb@x \hbox {\relax \fontsize  {7}{8}\selectfont  $\leftarrow \joinrel  \rhook $}}{}{}Type}{53}{subsubsection.7.5.1.1}}
\newlabel{Flow_8h_a02ad1c7cf791a069dd54e409f8db4790a8136257f1bff461f0404e833e57edeff}{{7.1}{53}{\texorpdfstring {Flow\+Type}{FlowType}}{table.7.1}{}}
\newlabel{Flow_8h_a02ad1c7cf791a069dd54e409f8db4790a7aa6a2d97299a00c315cfd14de86646a}{{7.1}{53}{\texorpdfstring {Flow\+Type}{FlowType}}{table.7.1}{}}
\newlabel{Flow_8h_a02ad1c7cf791a069dd54e409f8db4790a66481633026b414b8c414d5b1fbebb1e}{{7.1}{53}{\texorpdfstring {Flow\+Type}{FlowType}}{table.7.1}{}}
\@writefile{toc}{\contentsline {section}{\numberline {7.6}Flow.\discretionary {\unhbox \voidb@x \hbox {\relax \fontsize  {7}{8}\selectfont  $\leftarrow \joinrel  \rhook $}}{}{}h}{53}{section.7.6}}
\@writefile{toc}{\contentsline {section}{\numberline {7.7}Forwarding\discretionary {\unhbox \voidb@x \hbox {\relax \fontsize  {7}{8}\selectfont  $\leftarrow \joinrel  \rhook $}}{}{}Device.\discretionary {\unhbox \voidb@x \hbox {\relax \fontsize  {7}{8}\selectfont  $\leftarrow \joinrel  \rhook $}}{}{}h File Reference}{54}{section.7.7}}
\newlabel{ForwardingDevice_8h}{{7.7}{54}{Forwarding\+Device.\+h File Reference}{section.7.7}{}}
\@writefile{toc}{\contentsline {section}{\numberline {7.8}Forwarding\discretionary {\unhbox \voidb@x \hbox {\relax \fontsize  {7}{8}\selectfont  $\leftarrow \joinrel  \rhook $}}{}{}Device.\discretionary {\unhbox \voidb@x \hbox {\relax \fontsize  {7}{8}\selectfont  $\leftarrow \joinrel  \rhook $}}{}{}h}{54}{section.7.8}}
\@writefile{toc}{\contentsline {section}{\numberline {7.9}Main.\discretionary {\unhbox \voidb@x \hbox {\relax \fontsize  {7}{8}\selectfont  $\leftarrow \joinrel  \rhook $}}{}{}cpp File Reference}{55}{section.7.9}}
\newlabel{Main_8cpp}{{7.9}{55}{Main.\+cpp File Reference}{section.7.9}{}}
\@writefile{toc}{\contentsline {subsection}{\numberline {7.9.1}Function Documentation}{55}{subsection.7.9.1}}
\newlabel{Main_8cpp_a3c04138a5bfe5d72780bb7e82a18e627}{{7.9.1}{55}{Function Documentation}{subsection.7.9.1}{}}
\@writefile{toc}{\contentsline {subsubsection}{\numberline {7.9.1.1}main()}{55}{subsubsection.7.9.1.1}}
\@writefile{toc}{\contentsline {section}{\numberline {7.10}Main.\discretionary {\unhbox \voidb@x \hbox {\relax \fontsize  {7}{8}\selectfont  $\leftarrow \joinrel  \rhook $}}{}{}cpp}{56}{section.7.10}}
\@writefile{toc}{\contentsline {section}{\numberline {7.11}mainpage.\discretionary {\unhbox \voidb@x \hbox {\relax \fontsize  {7}{8}\selectfont  $\leftarrow \joinrel  \rhook $}}{}{}dox File Reference}{56}{section.7.11}}
\newlabel{mainpage_8dox}{{7.11}{56}{mainpage.\+dox File Reference}{section.7.11}{}}
\@writefile{toc}{\contentsline {section}{\numberline {7.12}My\discretionary {\unhbox \voidb@x \hbox {\relax \fontsize  {7}{8}\selectfont  $\leftarrow \joinrel  \rhook $}}{}{}Test.\discretionary {\unhbox \voidb@x \hbox {\relax \fontsize  {7}{8}\selectfont  $\leftarrow \joinrel  \rhook $}}{}{}cpp File Reference}{56}{section.7.12}}
\newlabel{MyTest_8cpp}{{7.12}{56}{My\+Test.\+cpp File Reference}{section.7.12}{}}
\@writefile{toc}{\contentsline {subsection}{\numberline {7.12.1}Function Documentation}{57}{subsection.7.12.1}}
\newlabel{MyTest_8cpp_a1dd34ffb5c8fa58977f83c043e20212c}{{7.12.1}{57}{Function Documentation}{subsection.7.12.1}{}}
\@writefile{toc}{\contentsline {subsubsection}{\numberline {7.12.1.1}generate\discretionary {\unhbox \voidb@x \hbox {\relax \fontsize  {7}{8}\selectfont  $\leftarrow \joinrel  \rhook $}}{}{}Campus\discretionary {\unhbox \voidb@x \hbox {\relax \fontsize  {7}{8}\selectfont  $\leftarrow \joinrel  \rhook $}}{}{}Network()}{57}{subsubsection.7.12.1.1}}
\@writefile{toc}{\contentsline {section}{\numberline {7.13}My\discretionary {\unhbox \voidb@x \hbox {\relax \fontsize  {7}{8}\selectfont  $\leftarrow \joinrel  \rhook $}}{}{}Test.\discretionary {\unhbox \voidb@x \hbox {\relax \fontsize  {7}{8}\selectfont  $\leftarrow \joinrel  \rhook $}}{}{}cpp}{57}{section.7.13}}
\@writefile{toc}{\contentsline {section}{\numberline {7.14}My\discretionary {\unhbox \voidb@x \hbox {\relax \fontsize  {7}{8}\selectfont  $\leftarrow \joinrel  \rhook $}}{}{}Test.\discretionary {\unhbox \voidb@x \hbox {\relax \fontsize  {7}{8}\selectfont  $\leftarrow \joinrel  \rhook $}}{}{}h File Reference}{60}{section.7.14}}
\newlabel{MyTest_8h}{{7.14}{60}{My\+Test.\+h File Reference}{section.7.14}{}}
\@writefile{toc}{\contentsline {section}{\numberline {7.15}My\discretionary {\unhbox \voidb@x \hbox {\relax \fontsize  {7}{8}\selectfont  $\leftarrow \joinrel  \rhook $}}{}{}Test.\discretionary {\unhbox \voidb@x \hbox {\relax \fontsize  {7}{8}\selectfont  $\leftarrow \joinrel  \rhook $}}{}{}h}{61}{section.7.15}}
\@writefile{toc}{\contentsline {section}{\numberline {7.16}Network.\discretionary {\unhbox \voidb@x \hbox {\relax \fontsize  {7}{8}\selectfont  $\leftarrow \joinrel  \rhook $}}{}{}cpp File Reference}{61}{section.7.16}}
\newlabel{Network_8cpp}{{7.16}{61}{Network.\+cpp File Reference}{section.7.16}{}}
\@writefile{toc}{\contentsline {section}{\numberline {7.17}Network.\discretionary {\unhbox \voidb@x \hbox {\relax \fontsize  {7}{8}\selectfont  $\leftarrow \joinrel  \rhook $}}{}{}cpp}{61}{section.7.17}}
\@writefile{toc}{\contentsline {section}{\numberline {7.18}Network.\discretionary {\unhbox \voidb@x \hbox {\relax \fontsize  {7}{8}\selectfont  $\leftarrow \joinrel  \rhook $}}{}{}h File Reference}{64}{section.7.18}}
\newlabel{Network_8h}{{7.18}{64}{Network.\+h File Reference}{section.7.18}{}}
\@writefile{toc}{\contentsline {section}{\numberline {7.19}Network.\discretionary {\unhbox \voidb@x \hbox {\relax \fontsize  {7}{8}\selectfont  $\leftarrow \joinrel  \rhook $}}{}{}h}{64}{section.7.19}}
\@writefile{toc}{\contentsline {section}{\numberline {7.20}Path\discretionary {\unhbox \voidb@x \hbox {\relax \fontsize  {7}{8}\selectfont  $\leftarrow \joinrel  \rhook $}}{}{}Generator.\discretionary {\unhbox \voidb@x \hbox {\relax \fontsize  {7}{8}\selectfont  $\leftarrow \joinrel  \rhook $}}{}{}cpp File Reference}{65}{section.7.20}}
\newlabel{PathGenerator_8cpp}{{7.20}{65}{Path\+Generator.\+cpp File Reference}{section.7.20}{}}
\@writefile{toc}{\contentsline {section}{\numberline {7.21}Path\discretionary {\unhbox \voidb@x \hbox {\relax \fontsize  {7}{8}\selectfont  $\leftarrow \joinrel  \rhook $}}{}{}Generator.\discretionary {\unhbox \voidb@x \hbox {\relax \fontsize  {7}{8}\selectfont  $\leftarrow \joinrel  \rhook $}}{}{}cpp}{65}{section.7.21}}
\@writefile{toc}{\contentsline {section}{\numberline {7.22}Path\discretionary {\unhbox \voidb@x \hbox {\relax \fontsize  {7}{8}\selectfont  $\leftarrow \joinrel  \rhook $}}{}{}Generator.\discretionary {\unhbox \voidb@x \hbox {\relax \fontsize  {7}{8}\selectfont  $\leftarrow \joinrel  \rhook $}}{}{}h File Reference}{67}{section.7.22}}
\newlabel{PathGenerator_8h}{{7.22}{67}{Path\+Generator.\+h File Reference}{section.7.22}{}}
\@writefile{toc}{\contentsline {section}{\numberline {7.23}Path\discretionary {\unhbox \voidb@x \hbox {\relax \fontsize  {7}{8}\selectfont  $\leftarrow \joinrel  \rhook $}}{}{}Generator.\discretionary {\unhbox \voidb@x \hbox {\relax \fontsize  {7}{8}\selectfont  $\leftarrow \joinrel  \rhook $}}{}{}h}{68}{section.7.23}}
\@writefile{toc}{\contentsline {section}{\numberline {7.24}Port\discretionary {\unhbox \voidb@x \hbox {\relax \fontsize  {7}{8}\selectfont  $\leftarrow \joinrel  \rhook $}}{}{}Volumn\discretionary {\unhbox \voidb@x \hbox {\relax \fontsize  {7}{8}\selectfont  $\leftarrow \joinrel  \rhook $}}{}{}State.\discretionary {\unhbox \voidb@x \hbox {\relax \fontsize  {7}{8}\selectfont  $\leftarrow \joinrel  \rhook $}}{}{}h File Reference}{68}{section.7.24}}
\newlabel{PortVolumnState_8h}{{7.24}{68}{Port\+Volumn\+State.\+h File Reference}{section.7.24}{}}
\@writefile{toc}{\contentsline {subsection}{\numberline {7.24.1}Enumeration Type Documentation}{68}{subsection.7.24.1}}
\newlabel{PortVolumnState_8h_a679431f1afc75d7bb9e972c022e53672}{{7.24.1}{68}{Enumeration Type Documentation}{subsection.7.24.1}{}}
\@writefile{toc}{\contentsline {subsubsection}{\numberline {7.24.1.1}Port\discretionary {\unhbox \voidb@x \hbox {\relax \fontsize  {7}{8}\selectfont  $\leftarrow \joinrel  \rhook $}}{}{}State}{68}{subsubsection.7.24.1.1}}
\gdef \LT@iii {\LT@entry 
    {3}{60.73294pt}\LT@entry 
    {3}{12.4pt}}
\newlabel{PortVolumnState_8h_a679431f1afc75d7bb9e972c022e53672a667686c05247211f5f61a9fcaafa957c}{{7.2}{69}{\texorpdfstring {Port\+State}{PortState}}{table.7.2}{}}
\newlabel{PortVolumnState_8h_a679431f1afc75d7bb9e972c022e53672a9eda5189bc72231852b49a068e5176a5}{{7.2}{69}{\texorpdfstring {Port\+State}{PortState}}{table.7.2}{}}
\newlabel{PortVolumnState_8h_a679431f1afc75d7bb9e972c022e53672a58798b2166efe1c2b05b86deb5487e46}{{7.2}{69}{\texorpdfstring {Port\+State}{PortState}}{table.7.2}{}}
\@writefile{toc}{\contentsline {section}{\numberline {7.25}Port\discretionary {\unhbox \voidb@x \hbox {\relax \fontsize  {7}{8}\selectfont  $\leftarrow \joinrel  \rhook $}}{}{}Volumn\discretionary {\unhbox \voidb@x \hbox {\relax \fontsize  {7}{8}\selectfont  $\leftarrow \joinrel  \rhook $}}{}{}State.\discretionary {\unhbox \voidb@x \hbox {\relax \fontsize  {7}{8}\selectfont  $\leftarrow \joinrel  \rhook $}}{}{}h}{69}{section.7.25}}
\@writefile{toc}{\contentsline {section}{\numberline {7.26}Simulation.\discretionary {\unhbox \voidb@x \hbox {\relax \fontsize  {7}{8}\selectfont  $\leftarrow \joinrel  \rhook $}}{}{}cpp File Reference}{69}{section.7.26}}
\newlabel{Simulation_8cpp}{{7.26}{69}{Simulation.\+cpp File Reference}{section.7.26}{}}
\@writefile{toc}{\contentsline {section}{\numberline {7.27}Simulation.\discretionary {\unhbox \voidb@x \hbox {\relax \fontsize  {7}{8}\selectfont  $\leftarrow \joinrel  \rhook $}}{}{}cpp}{70}{section.7.27}}
\@writefile{toc}{\contentsline {section}{\numberline {7.28}Simulation.\discretionary {\unhbox \voidb@x \hbox {\relax \fontsize  {7}{8}\selectfont  $\leftarrow \joinrel  \rhook $}}{}{}h File Reference}{82}{section.7.28}}
\newlabel{Simulation_8h}{{7.28}{82}{Simulation.\+h File Reference}{section.7.28}{}}
\@writefile{toc}{\contentsline {section}{\numberline {7.29}Simulation.\discretionary {\unhbox \voidb@x \hbox {\relax \fontsize  {7}{8}\selectfont  $\leftarrow \joinrel  \rhook $}}{}{}h}{83}{section.7.29}}
\@writefile{toc}{\contentsline {section}{\numberline {7.30}String\discretionary {\unhbox \voidb@x \hbox {\relax \fontsize  {7}{8}\selectfont  $\leftarrow \joinrel  \rhook $}}{}{}Tokenizer.\discretionary {\unhbox \voidb@x \hbox {\relax \fontsize  {7}{8}\selectfont  $\leftarrow \joinrel  \rhook $}}{}{}cpp File Reference}{84}{section.7.30}}
\newlabel{StringTokenizer_8cpp}{{7.30}{84}{String\+Tokenizer.\+cpp File Reference}{section.7.30}{}}
\@writefile{toc}{\contentsline {section}{\numberline {7.31}String\discretionary {\unhbox \voidb@x \hbox {\relax \fontsize  {7}{8}\selectfont  $\leftarrow \joinrel  \rhook $}}{}{}Tokenizer.\discretionary {\unhbox \voidb@x \hbox {\relax \fontsize  {7}{8}\selectfont  $\leftarrow \joinrel  \rhook $}}{}{}cpp}{84}{section.7.31}}
\@writefile{toc}{\contentsline {section}{\numberline {7.32}String\discretionary {\unhbox \voidb@x \hbox {\relax \fontsize  {7}{8}\selectfont  $\leftarrow \joinrel  \rhook $}}{}{}Tokenizer.\discretionary {\unhbox \voidb@x \hbox {\relax \fontsize  {7}{8}\selectfont  $\leftarrow \joinrel  \rhook $}}{}{}h File Reference}{85}{section.7.32}}
\newlabel{StringTokenizer_8h}{{7.32}{85}{String\+Tokenizer.\+h File Reference}{section.7.32}{}}
\@writefile{toc}{\contentsline {section}{\numberline {7.33}String\discretionary {\unhbox \voidb@x \hbox {\relax \fontsize  {7}{8}\selectfont  $\leftarrow \joinrel  \rhook $}}{}{}Tokenizer.\discretionary {\unhbox \voidb@x \hbox {\relax \fontsize  {7}{8}\selectfont  $\leftarrow \joinrel  \rhook $}}{}{}h}{85}{section.7.33}}
\@writefile{toc}{\contentsline {section}{\numberline {7.34}Veri\discretionary {\unhbox \voidb@x \hbox {\relax \fontsize  {7}{8}\selectfont  $\leftarrow \joinrel  \rhook $}}{}{}Congestion.\discretionary {\unhbox \voidb@x \hbox {\relax \fontsize  {7}{8}\selectfont  $\leftarrow \joinrel  \rhook $}}{}{}cpp File Reference}{86}{section.7.34}}
\newlabel{VeriCongestion_8cpp}{{7.34}{86}{Veri\+Congestion.\+cpp File Reference}{section.7.34}{}}
\@writefile{toc}{\contentsline {section}{\numberline {7.35}Veri\discretionary {\unhbox \voidb@x \hbox {\relax \fontsize  {7}{8}\selectfont  $\leftarrow \joinrel  \rhook $}}{}{}Congestion.\discretionary {\unhbox \voidb@x \hbox {\relax \fontsize  {7}{8}\selectfont  $\leftarrow \joinrel  \rhook $}}{}{}cpp}{86}{section.7.35}}
\@writefile{toc}{\contentsline {section}{\numberline {7.36}Veri\discretionary {\unhbox \voidb@x \hbox {\relax \fontsize  {7}{8}\selectfont  $\leftarrow \joinrel  \rhook $}}{}{}Congestion.\discretionary {\unhbox \voidb@x \hbox {\relax \fontsize  {7}{8}\selectfont  $\leftarrow \joinrel  \rhook $}}{}{}h File Reference}{91}{section.7.36}}
\newlabel{VeriCongestion_8h}{{7.36}{91}{Veri\+Congestion.\+h File Reference}{section.7.36}{}}
\@writefile{toc}{\contentsline {section}{\numberline {7.37}Veri\discretionary {\unhbox \voidb@x \hbox {\relax \fontsize  {7}{8}\selectfont  $\leftarrow \joinrel  \rhook $}}{}{}Congestion.\discretionary {\unhbox \voidb@x \hbox {\relax \fontsize  {7}{8}\selectfont  $\leftarrow \joinrel  \rhook $}}{}{}h}{92}{section.7.37}}
\@writefile{toc}{\contentsline {chapter}{Index}{93}{section*.43}}
