1 0.000184 0.020672 0.000000 0.000000 0.000000 0.020952
2 0.000160 0.020720 0.000000 0.000000 0.000000 0.020976
3 0.000168 0.020128 0.000000 0.000000 0.000000 0.020392
4 0.000160 0.020712 0.000000 0.000000 0.000000 0.020960
5 0.000152 0.020640 0.000000 0.000000 0.000000 0.020888
6 0.000168 0.020216 0.000000 0.000000 0.000000 0.020472
7 0.000200 0.020792 0.000000 0.000000 0.000000 0.021088
8 0.000160 0.020600 0.000000 0.000000 0.000000 0.020848
9 0.000168 0.019960 0.000000 0.000000 0.000000 0.020256
10 0.000168 0.020376 0.000000 0.000000 0.000000 0.020648
11 0.000168 0.020416 0.000000 0.000000 0.000000 0.020688
12 0.000152 0.020104 0.000000 0.000000 0.000000 0.020392
13 0.000224 0.019936 0.000000 0.000000 0.000000 0.020248
14 0.000152 0.020264 0.000000 0.000000 0.000000 0.020504
15 0.000160 0.019848 0.000000 0.000000 0.000000 0.020144
16 0.000240 0.019792 0.000000 0.000000 0.000000 0.020144
17 0.000200 0.020064 0.000000 0.000000 0.000000 0.020360
18 0.000168 0.019616 0.000000 0.000000 0.000000 0.019872
19 0.000256 0.019688 0.000000 0.000000 0.000000 0.020032
20 0.000160 0.019912 0.000000 0.000000 0.000000 0.020200
21 0.000176 0.019360 0.000000 0.000000 0.000000 0.019632
22 0.000152 0.019504 0.000000 0.000000 0.000000 0.019744
23 0.000144 0.019752 0.000000 0.000000 0.000000 0.019984
24 0.000168 0.018984 0.000000 0.000000 0.000000 0.019240
25 0.000208 0.019624 0.000000 0.000000 0.000000 0.019928
26 0.000160 0.019496 0.000000 0.000000 0.000000 0.019744
27 0.000224 0.019048 0.000000 0.000000 0.000000 0.019352
28 0.000160 0.019224 0.000000 0.000000 0.000000 0.019472
29 0.000152 0.019392 0.000000 0.000000 0.000000 0.019632
30 0.000160 0.018784 0.000000 0.000000 0.000000 0.019032
31 0.000160 0.019136 0.000000 0.000000 0.000000 0.019376
32 0.000144 0.019072 0.000000 0.000000 0.000000 0.019360
33 0.000168 0.018624 0.000000 0.000000 0.000000 0.018880
34 0.000160 0.018920 0.000000 0.000000 0.000000 0.019176
35 0.000144 0.018592 0.000000 0.000000 0.000000 0.018848
36 0.000152 0.018848 0.000000 0.000000 0.000000 0.019096
37 0.000152 0.019008 0.000000 0.000000 0.000000 0.019256
38 0.000152 0.019368 0.000000 0.000000 0.000000 0.019616
39 0.000184 0.020552 0.000000 0.000000 0.000000 0.020832
40 0.000160 0.018944 0.000000 0.000000 0.000000 0.019216
41 0.000160 0.018208 0.000000 0.000000 0.000000 0.018488
42 0.000176 0.018640 0.000000 0.000000 0.000000 0.018904
43 0.000152 0.018080 0.000000 0.000000 0.000000 0.018328
44 0.000160 0.018464 0.000000 0.000000 0.000000 0.018704
45 0.000144 0.018560 0.000000 0.000000 0.000000 0.018784
46 0.000160 0.017864 0.000000 0.000000 0.000000 0.018104
47 0.000144 0.018504 0.000000 0.000000 0.000000 0.018736
48 0.000144 0.018120 0.000000 0.000000 0.000000 0.018392
49 0.000192 0.017960 0.000000 0.000000 0.000000 0.018232
50 0.000144 0.018216 0.000000 0.000000 0.000000 0.018448
51 0.000160 0.017824 0.000000 0.000000 0.000000 0.018056
52 0.000144 0.018896 0.000000 0.000000 0.000000 0.019120
53 0.000136 0.018264 0.000000 0.000000 0.000000 0.018504
54 0.000144 0.017704 0.000000 0.000000 0.000000 0.017936
55 0.000176 0.018080 0.000000 0.000000 0.000000 0.018352
56 0.000152 0.017664 0.000000 0.000000 0.000000 0.017896
57 0.000144 0.017984 0.000000 0.000000 0.000000 0.018248
58 0.000136 0.017864 0.000000 0.000000 0.000000 0.018096
59 0.000184 0.017504 0.000000 0.000000 0.000000 0.017776
60 0.000136 0.017776 0.000000 0.000000 0.000000 0.018000
61 0.000152 0.017416 0.000000 0.000000 0.000000 0.017648
62 0.000136 0.017800 0.000000 0.000000 0.000000 0.018016
63 0.000160 0.017552 0.000000 0.000000 0.000000 0.017816
64 0.000168 0.017328 0.000000 0.000000 0.000000 0.017576
65 0.000144 0.017800 0.000000 0.000000 0.000000 0.018024
66 0.000128 0.017120 0.000000 0.000000 0.000000 0.017336
67 0.000136 0.016576 0.000000 0.000000 0.000000 0.016816
68 0.000208 0.016048 0.000000 0.000000 0.000000 0.016344
69 0.000160 0.016400 0.000000 0.000000 0.000000 0.016640
70 0.000128 0.016056 0.000000 0.000000 0.000000 0.016256
71 0.000192 0.016392 0.000000 0.000000 0.000000 0.016664
72 0.000144 0.016136 0.000000 0.000000 0.000000 0.016432
73 0.000184 0.015968 0.000000 0.000000 0.000000 0.016232
74 0.000144 0.016064 0.000000 0.000000 0.000000 0.016304
75 0.000168 0.015632 0.000000 0.000000 0.000000 0.015880
76 0.000152 0.015960 0.000000 0.000000 0.000000 0.016200
77 0.000128 0.015512 0.000000 0.000000 0.000000 0.015712
78 0.000184 0.015784 0.000000 0.000000 0.000000 0.016048
79 0.000144 0.015352 0.000000 0.000000 0.000000 0.015576
80 0.000136 0.015680 0.000000 0.000000 0.000000 0.015888
81 0.000128 0.015240 0.000000 0.000000 0.000000 0.015448
82 0.000144 0.015288 0.000000 0.000000 0.000000 0.015512
83 0.000136 0.015352 0.000000 0.000000 0.000000 0.015560
84 0.000144 0.015400 0.000000 0.000000 0.000000 0.015624
85 0.000120 0.014992 0.000000 0.000000 0.000000 0.015192
86 0.000136 0.015256 0.000000 0.000000 0.000000 0.015464
87 0.000120 0.014912 0.000000 0.000000 0.000000 0.015112
88 0.000128 0.015152 0.000000 0.000000 0.000000 0.015360
89 0.000128 0.014784 0.000000 0.000000 0.000000 0.015024
90 0.000144 0.015088 0.000000 0.000000 0.000000 0.015304
91 0.000136 0.014584 0.000000 0.000000 0.000000 0.014784
92 0.000128 0.015144 0.000000 0.000000 0.000000 0.015344
93 0.000120 0.014736 0.000000 0.000000 0.000000 0.014928
94 0.000128 0.015144 0.000000 0.000000 0.000000 0.015352
95 0.000128 0.014504 0.000000 0.000000 0.000000 0.014712
96 0.000128 0.015024 0.000000 0.000000 0.000000 0.015224
97 0.000144 0.014360 0.000000 0.000000 0.000000 0.014584
98 0.000168 0.016024 0.000000 0.000000 0.000000 0.016304
99 0.000136 0.015568 0.000000 0.000000 0.000000 0.015792
100 0.000120 0.014632 0.000000 0.000000 0.000000 0.014824
101 0.000128 0.014272 0.000000 0.000000 0.000000 0.014464
102 0.000144 0.015080 0.000000 0.000000 0.000000 0.015328
103 0.000168 0.014512 0.000000 0.000000 0.000000 0.014792
104 0.000136 0.014448 0.000000 0.000000 0.000000 0.014656
105 0.000128 0.014008 0.000000 0.000000 0.000000 0.014208
106 0.000160 0.014280 0.000000 0.000000 0.000000 0.014512
107 0.000120 0.013928 0.000000 0.000000 0.000000 0.014120
108 0.000128 0.014216 0.000000 0.000000 0.000000 0.014416
109 0.000120 0.013832 0.000000 0.000000 0.000000 0.014024
110 0.000120 0.014032 0.000000 0.000000 0.000000 0.014224
111 0.000128 0.013848 0.000000 0.000000 0.000000 0.014048
112 0.000128 0.014024 0.000000 0.000000 0.000000 0.014240
113 0.000144 0.013664 0.000000 0.000000 0.000000 0.013880
114 0.000120 0.013824 0.000000 0.000000 0.000000 0.014016
115 0.000128 0.015088 0.000000 0.000000 0.000000 0.015288
116 0.000120 0.013536 0.000000 0.000000 0.000000 0.013720
117 0.000136 0.013952 0.000000 0.000000 0.000000 0.014160
118 0.000120 0.013408 0.000000 0.000000 0.000000 0.013608
119 0.000112 0.014168 0.000000 0.000000 0.000000 0.014360
120 0.000136 0.013464 0.000000 0.000000 0.000000 0.013688
121 0.000128 0.014128 0.000000 0.000000 0.000000 0.014328
122 0.000136 0.013392 0.000000 0.000000 0.000000 0.013592
123 0.000112 0.013664 0.000000 0.000000 0.000000 0.013840
124 0.000112 0.013360 0.000000 0.000000 0.000000 0.013536
125 0.000112 0.013608 0.000000 0.000000 0.000000 0.013792
126 0.000120 0.013304 0.000000 0.000000 0.000000 0.013488
127 0.000120 0.013224 0.000000 0.000000 0.000000 0.013416
128 0.000112 0.013416 0.000000 0.000000 0.000000 0.013592
129 0.000160 0.013144 0.000000 0.000000 0.000000 0.013376
130 0.000112 0.013592 0.000000 0.000000 0.000000 0.013776
131 0.000120 0.013000 0.000000 0.000000 0.000000 0.013184
132 0.000120 0.013368 0.000000 0.000000 0.000000 0.013560
133 0.000128 0.012896 0.000000 0.000000 0.000000 0.013088
134 0.000144 0.013064 0.000000 0.000000 0.000000 0.013288
135 0.000128 0.012840 0.000000 0.000000 0.000000 0.013032
136 0.000120 0.012576 0.000000 0.000000 0.000000 0.012808
137 0.000136 0.013072 0.000000 0.000000 0.000000 0.013280
138 0.000120 0.012520 0.000000 0.000000 0.000000 0.012696
139 0.000112 0.013016 0.000000 0.000000 0.000000 0.013192
140 0.000104 0.012432 0.000000 0.000000 0.000000 0.012600
141 0.000112 0.012848 0.000000 0.000000 0.000000 0.013056
142 0.000136 0.012360 0.000000 0.000000 0.000000 0.012576
143 0.000104 0.012200 0.000000 0.000000 0.000000 0.012360
144 0.000104 0.012680 0.000000 0.000000 0.000000 0.012848
145 0.000128 0.012184 0.000000 0.000000 0.000000 0.012368
146 0.000104 0.012648 0.000000 0.000000 0.000000 0.012824
147 0.000120 0.011968 0.000000 0.000000 0.000000 0.012152
148 0.000112 0.012088 0.000000 0.000000 0.000000 0.012256
149 0.000112 0.012304 0.000000 0.000000 0.000000 0.012480
150 0.000120 0.011832 0.000000 0.000000 0.000000 0.012016
151 0.000112 0.012312 0.000000 0.000000 0.000000 0.012488
152 0.000104 0.011800 0.000000 0.000000 0.000000 0.011960
153 0.000112 0.011944 0.000000 0.000000 0.000000 0.012120
154 0.000128 0.012080 0.000000 0.000000 0.000000 0.012272
155 0.000112 0.011616 0.000000 0.000000 0.000000 0.011784
156 0.000096 0.012216 0.000000 0.000000 0.000000 0.012368
157 0.000104 0.011616 0.000000 0.000000 0.000000 0.011792
158 0.000096 0.011592 0.000000 0.000000 0.000000 0.011752
159 0.000176 0.011912 0.000000 0.000000 0.000000 0.012152
160 0.000096 0.011520 0.000000 0.000000 0.000000 0.011672
161 0.000104 0.011920 0.000000 0.000000 0.000000 0.012104
162 0.000136 0.011296 0.000000 0.000000 0.000000 0.011496
163 0.000112 0.011288 0.000000 0.000000 0.000000 0.011456
164 0.000104 0.011536 0.000000 0.000000 0.000000 0.011696
165 0.000104 0.011088 0.000000 0.000000 0.000000 0.011256
166 0.000088 0.011600 0.000000 0.000000 0.000000 0.011760
167 0.000112 0.011376 0.000000 0.000000 0.000000 0.011544
168 0.000104 0.010968 0.000000 0.000000 0.000000 0.011128
169 0.000104 0.011592 0.000000 0.000000 0.000000 0.011760
170 0.000096 0.010968 0.000000 0.000000 0.000000 0.011120
171 0.000104 0.010864 0.000000 0.000000 0.000000 0.011024
172 0.000104 0.011400 0.000000 0.000000 0.000000 0.011568
173 0.000096 0.010864 0.000000 0.000000 0.000000 0.011016
174 0.000096 0.011112 0.000000 0.000000 0.000000 0.011312
175 0.000144 0.010744 0.000000 0.000000 0.000000 0.010944
176 0.000104 0.011736 0.000000 0.000000 0.000000 0.011896
177 0.000112 0.011560 0.000000 0.000000 0.000000 0.011752
178 0.000096 0.010552 0.000000 0.000000 0.000000 0.010704
179 0.000096 0.010544 0.000000 0.000000 0.000000 0.010704
180 0.000104 0.010880 0.000000 0.000000 0.000000 0.011056
181 0.000104 0.010256 0.000000 0.000000 0.000000 0.010416
182 0.000088 0.010416 0.000000 0.000000 0.000000 0.010560
183 0.000104 0.010904 0.000000 0.000000 0.000000 0.011072
184 0.000088 0.010184 0.000000 0.000000 0.000000 0.010336
185 0.000096 0.010544 0.000000 0.000000 0.000000 0.010744
186 0.000128 0.010248 0.000000 0.000000 0.000000 0.010432
187 0.000104 0.010080 0.000000 0.000000 0.000000 0.010240
188 0.000096 0.010304 0.000000 0.000000 0.000000 0.010512
189 0.000112 0.009888 0.000000 0.000000 0.000000 0.010072
190 0.000096 0.009864 0.000000 0.000000 0.000000 0.010008
191 0.000104 0.010056 0.000000 0.000000 0.000000 0.010248
192 0.000120 0.009736 0.000000 0.000000 0.000000 0.009912
193 0.000104 0.009648 0.000000 0.000000 0.000000 0.009808
194 0.000096 0.009712 0.000000 0.000000 0.000000 0.009896
195 0.000152 0.009872 0.000000 0.000000 0.000000 0.010080
196 0.000104 0.009480 0.000000 0.000000 0.000000 0.009648
197 0.000088 0.009536 0.000000 0.000000 0.000000 0.009688
198 0.000096 0.009760 0.000000 0.000000 0.000000 0.009968
199 0.000080 0.009224 0.000000 0.000000 0.000000 0.009360
200 0.000096 0.009360 0.000000 0.000000 0.000000 0.009504
201 0.000104 0.011112 0.000000 0.000000 0.000000 0.011264
202 0.000096 0.009096 0.000000 0.000000 0.000000 0.009240
203 0.000088 0.009016 0.000000 0.000000 0.000000 0.009152
204 0.000080 0.009400 0.000000 0.000000 0.000000 0.009528
205 0.000088 0.009032 0.000000 0.000000 0.000000 0.009168
206 0.000088 0.008824 0.000000 0.000000 0.000000 0.008960
207 0.000096 0.009472 0.000000 0.000000 0.000000 0.009624
208 0.000088 0.008704 0.000000 0.000000 0.000000 0.008840
209 0.000080 0.008728 0.000000 0.000000 0.000000 0.008864
210 0.000080 0.009144 0.000000 0.000000 0.000000 0.009288
211 0.000112 0.008672 0.000000 0.000000 0.000000 0.008848
212 0.000080 0.008616 0.000000 0.000000 0.000000 0.008752
213 0.000088 0.008056 0.000000 0.000000 0.000000 0.008192
214 0.000096 0.008288 0.000000 0.000000 0.000000 0.008440
215 0.000080 0.007984 0.000000 0.000000 0.000000 0.008104
216 0.000080 0.008072 0.000000 0.000000 0.000000 0.008200
217 0.000080 0.008312 0.000000 0.000000 0.000000 0.008472
218 0.000096 0.008080 0.000000 0.000000 0.000000 0.008224
219 0.000080 0.007824 0.000000 0.000000 0.000000 0.007968
220 0.000088 0.007840 0.000000 0.000000 0.000000 0.007976
221 0.000072 0.008096 0.000000 0.000000 0.000000 0.008224
222 0.000088 0.007784 0.000000 0.000000 0.000000 0.007920
223 0.000088 0.007624 0.000000 0.000000 0.000000 0.007760
224 0.000080 0.007592 0.000000 0.000000 0.000000 0.007736
225 0.000088 0.007848 0.000000 0.000000 0.000000 0.008016
226 0.000104 0.007512 0.000000 0.000000 0.000000 0.007680
227 0.000112 0.007544 0.000000 0.000000 0.000000 0.007696
228 0.000088 0.007376 0.000000 0.000000 0.000000 0.007504
229 0.000080 0.007904 0.000000 0.000000 0.000000 0.008032
230 0.000080 0.007392 0.000000 0.000000 0.000000 0.007512
231 0.000072 0.007440 0.000000 0.000000 0.000000 0.007568
232 0.000080 0.007320 0.000000 0.000000 0.000000 0.007440
233 0.000080 0.007656 0.000000 0.000000 0.000000 0.007808
234 0.000080 0.007224 0.000000 0.000000 0.000000 0.007344
235 0.000080 0.007240 0.000000 0.000000 0.000000 0.007360
236 0.000080 0.007024 0.000000 0.000000 0.000000 0.007144
237 0.000088 0.007440 0.000000 0.000000 0.000000 0.007600
238 0.000072 0.007080 0.000000 0.000000 0.000000 0.007208
239 0.000072 0.007008 0.000000 0.000000 0.000000 0.007120
240 0.000072 0.007096 0.000000 0.000000 0.000000 0.007208
241 0.000080 0.007312 0.000000 0.000000 0.000000 0.007440
242 0.000080 0.007040 0.000000 0.000000 0.000000 0.007160
243 0.000064 0.006824 0.000000 0.000000 0.000000 0.006928
244 0.000072 0.006880 0.000000 0.000000 0.000000 0.006992
245 0.000072 0.006824 0.000000 0.000000 0.000000 0.007000
246 0.000128 0.006968 0.000000 0.000000 0.000000 0.007136
247 0.000064 0.006992 0.000000 0.000000 0.000000 0.007096
248 0.000080 0.006672 0.000000 0.000000 0.000000 0.006792
249 0.000072 0.006648 0.000000 0.000000 0.000000 0.006760
250 0.000072 0.007128 0.000000 0.000000 0.000000 0.007240
251 0.000080 0.006560 0.000000 0.000000 0.000000 0.006704
252 0.000096 0.006536 0.000000 0.000000 0.000000 0.006672
253 0.000064 0.006408 0.000000 0.000000 0.000000 0.006512
254 0.000064 0.006800 0.000000 0.000000 0.000000 0.006912
255 0.000152 0.006448 0.000000 0.000000 0.000000 0.006632
256 0.000072 0.006384 0.000000 0.000000 0.000000 0.006496
257 0.000072 0.006376 0.000000 0.000000 0.000000 0.006488
258 0.000072 0.006232 0.000000 0.000000 0.000000 0.006336
259 0.000064 0.006808 0.000000 0.000000 0.000000 0.006920
260 0.000072 0.006112 0.000000 0.000000 0.000000 0.006224
261 0.000064 0.006080 0.000000 0.000000 0.000000 0.006192
262 0.000072 0.006072 0.000000 0.000000 0.000000 0.006184
263 0.000064 0.006168 0.000000 0.000000 0.000000 0.006280
264 0.000080 0.006304 0.000000 0.000000 0.000000 0.006424
265 0.000064 0.005856 0.000000 0.000000 0.000000 0.005952
266 0.000064 0.005840 0.000000 0.000000 0.000000 0.005936
267 0.000064 0.005944 0.000000 0.000000 0.000000 0.006048
268 0.000072 0.005952 0.000000 0.000000 0.000000 0.006064
269 0.000120 0.005920 0.000000 0.000000 0.000000 0.006080
270 0.000064 0.005720 0.000000 0.000000 0.000000 0.005816
271 0.000072 0.005624 0.000000 0.000000 0.000000 0.005736
272 0.000072 0.005648 0.000000 0.000000 0.000000 0.005752
273 0.000056 0.005576 0.000000 0.000000 0.000000 0.005664
274 0.000104 0.005840 0.000000 0.000000 0.000000 0.005976
275 0.000072 0.005640 0.000000 0.000000 0.000000 0.005744
276 0.000064 0.005544 0.000000 0.000000 0.000000 0.005648
277 0.000072 0.005408 0.000000 0.000000 0.000000 0.005520
278 0.000072 0.005456 0.000000 0.000000 0.000000 0.005560
279 0.000064 0.005848 0.000000 0.000000 0.000000 0.005944
280 0.000072 0.005392 0.000000 0.000000 0.000000 0.005496
281 0.000056 0.005528 0.000000 0.000000 0.000000 0.005616
282 0.000064 0.005376 0.000000 0.000000 0.000000 0.005472
283 0.000064 0.005248 0.000000 0.000000 0.000000 0.005344
284 0.000080 0.005616 0.000000 0.000000 0.000000 0.005744
285 0.000072 0.005400 0.000000 0.000000 0.000000 0.005504
286 0.000064 0.005136 0.000000 0.000000 0.000000 0.005232
287 0.000048 0.005184 0.000000 0.000000 0.000000 0.005264
288 0.000072 0.005152 0.000000 0.000000 0.000000 0.005256
289 0.000056 0.005128 0.000000 0.000000 0.000000 0.005224
290 0.000056 0.005456 0.000000 0.000000 0.000000 0.005560
291 0.000064 0.005104 0.000000 0.000000 0.000000 0.005200
292 0.000064 0.005024 0.000000 0.000000 0.000000 0.005120
293 0.000056 0.005088 0.000000 0.000000 0.000000 0.005176
294 0.000072 0.004840 0.000000 0.000000 0.000000 0.004944
295 0.000072 0.004496 0.000000 0.000000 0.000000 0.004616
296 0.000056 0.005024 0.000000 0.000000 0.000000 0.005128
297 0.000048 0.004656 0.000000 0.000000 0.000000 0.004736
298 0.000072 0.004512 0.000000 0.000000 0.000000 0.004632
299 0.000056 0.004480 0.000000 0.000000 0.000000 0.004568
300 0.000064 0.004472 0.000000 0.000000 0.000000 0.004568
301 0.000112 0.004320 0.000000 0.000000 0.000000 0.004464
302 0.000064 0.004576 0.000000 0.000000 0.000000 0.004680
303 0.000048 0.004440 0.000000 0.000000 0.000000 0.004520
304 0.000064 0.004320 0.000000 0.000000 0.000000 0.004408
305 0.000064 0.004176 0.000000 0.000000 0.000000 0.004272
306 0.000064 0.004112 0.000000 0.000000 0.000000 0.004208
307 0.000064 0.003976 0.000000 0.000000 0.000000 0.004072
308 0.000064 0.004016 0.000000 0.000000 0.000000 0.004112
309 0.000064 0.004072 0.000000 0.000000 0.000000 0.004168
310 0.000064 0.004024 0.000000 0.000000 0.000000 0.004120
311 0.000104 0.003824 0.000000 0.000000 0.000000 0.003960
312 0.000088 0.003768 0.000000 0.000000 0.000000 0.003880
313 0.000080 0.003712 0.000000 0.000000 0.000000 0.003816
314 0.000056 0.003632 0.000000 0.000000 0.000000 0.003720
315 0.000056 0.004056 0.000000 0.000000 0.000000 0.004152
316 0.000040 0.003760 0.000000 0.000000 0.000000 0.003832
317 0.000064 0.003992 0.000000 0.000000 0.000000 0.004088
318 0.000056 0.004048 0.000000 0.000000 0.000000 0.004168
319 0.000072 0.003984 0.000000 0.000000 0.000000 0.004096
320 0.000048 0.003392 0.000000 0.000000 0.000000 0.003480
321 0.000048 0.003280 0.000000 0.000000 0.000000 0.003360
322 0.000056 0.003232 0.000000 0.000000 0.000000 0.003312
323 0.000056 0.003128 0.000000 0.000000 0.000000 0.003208
324 0.000048 0.003136 0.000000 0.000000 0.000000 0.003208
325 0.000048 0.003384 0.000000 0.000000 0.000000 0.003472
326 0.000072 0.003328 0.000000 0.000000 0.000000 0.003440
327 0.000072 0.003056 0.000000 0.000000 0.000000 0.003152
328 0.000040 0.002984 0.000000 0.000000 0.000000 0.003048
329 0.000056 0.002984 0.000000 0.000000 0.000000 0.003064
330 0.000040 0.003000 0.000000 0.000000 0.000000 0.003064
331 0.000048 0.002752 0.000000 0.000000 0.000000 0.002848
332 0.000048 0.002616 0.000000 0.000000 0.000000 0.002688
333 0.000056 0.002536 0.000000 0.000000 0.000000 0.002616
334 0.000048 0.002552 0.000000 0.000000 0.000000 0.002624
335 0.000048 0.002712 0.000000 0.000000 0.000000 0.002800
336 0.000032 0.002776 0.000000 0.000000 0.000000 0.002848
337 0.000056 0.002528 0.000000 0.000000 0.000000 0.002624
338 0.000064 0.002392 0.000000 0.000000 0.000000 0.002480
339 0.000048 0.002384 0.000000 0.000000 0.000000 0.002456
340 0.000048 0.002368 0.000000 0.000000 0.000000 0.002448
341 0.000040 0.002320 0.000000 0.000000 0.000000 0.002392
342 0.000048 0.002368 0.000000 0.000000 0.000000 0.002440
343 0.000048 0.002240 0.000000 0.000000 0.000000 0.002312
344 0.000040 0.002296 0.000000 0.000000 0.000000 0.002360
345 0.000048 0.002168 0.000000 0.000000 0.000000 0.002240
346 0.000048 0.002112 0.000000 0.000000 0.000000 0.002184
347 0.000048 0.002288 0.000000 0.000000 0.000000 0.002384
348 0.000056 0.002200 0.000000 0.000000 0.000000 0.002288
349 0.000064 0.002256 0.000000 0.000000 0.000000 0.002344
350 0.000048 0.002080 0.000000 0.000000 0.000000 0.002160
351 0.000040 0.002032 0.000000 0.000000 0.000000 0.002096
352 0.000048 0.001952 0.000000 0.000000 0.000000 0.002016
353 0.000040 0.001880 0.000000 0.000000 0.000000 0.001952
354 0.000048 0.001864 0.000000 0.000000 0.000000 0.001936
355 0.000040 0.001792 0.000000 0.000000 0.000000 0.001856
356 0.000032 0.001728 0.000000 0.000000 0.000000 0.001776
357 0.000048 0.001752 0.000000 0.000000 0.000000 0.001816
358 0.000048 0.001672 0.000000 0.000000 0.000000 0.001744
359 0.000040 0.001576 0.000000 0.000000 0.000000 0.001632
360 0.000048 0.001520 0.000000 0.000000 0.000000 0.001592
361 0.000032 0.001512 0.000000 0.000000 0.000000 0.001560
362 0.000032 0.001552 0.000000 0.000000 0.000000 0.001600
363 0.000040 0.001736 0.000000 0.000000 0.000000 0.001792
364 0.000048 0.001456 0.000000 0.000000 0.000000 0.001544
365 0.000032 0.001408 0.000000 0.000000 0.000000 0.001472
366 0.000032 0.001400 0.000000 0.000000 0.000000 0.001464
367 0.000040 0.001376 0.000000 0.000000 0.000000 0.001440
368 0.000024 0.001264 0.000000 0.000000 0.000000 0.001320
369 0.000032 0.001168 0.000000 0.000000 0.000000 0.001224
370 0.000040 0.000904 0.000000 0.000000 0.000000 0.000968
371 0.000032 0.000856 0.000000 0.000000 0.000000 0.000896
372 0.000024 0.000792 0.000000 0.000000 0.000000 0.000832
373 0.000024 0.000760 0.000000 0.000000 0.000000 0.000800
374 0.000032 0.000704 0.000000 0.000000 0.000000 0.000752
375 0.000016 0.000688 0.000000 0.000000 0.000000 0.000720
376 0.000024 0.000680 0.000000 0.000000 0.000000 0.000728
377 0.000040 0.000680 0.000000 0.000000 0.000000 0.000728
378 0.000024 0.000600 0.000000 0.000000 0.000000 0.000648
379 0.000024 0.000504 0.000000 0.000000 0.000000 0.000544
380 0.000016 0.000496 0.000000 0.000000 0.000000 0.000520
381 0.000024 0.000488 0.000000 0.000000 0.000000 0.000520
382 0.000024 0.000448 0.000000 0.000000 0.000000 0.000480
383 0.000024 0.000448 0.000000 0.000000 0.000000 0.000488
384 0.000032 0.000392 0.000000 0.000000 0.000000 0.000440
385 0.000024 0.000376 0.000000 0.000000 0.000000 0.000408
386 0.000024 0.000336 0.000000 0.000000 0.000000 0.000368
387 0.000024 0.000336 0.000000 0.000000 0.000000 0.000376
388 0.000016 0.000280 0.000000 0.000000 0.000000 0.000304
389 0.000032 0.000168 0.000000 0.000000 0.000000 0.000208
390 0.000024 0.000200 0.000000 0.000000 0.000000 0.000232
391 0.000016 0.000232 0.000000 0.000000 0.000000 0.000256
392 0.000008 0.000152 0.000000 0.000000 0.000000 0.000168
393 0.000008 0.000136 0.000000 0.000000 0.000000 0.000152
394 0.000024 0.000136 0.000000 0.000000 0.000000 0.000176
395 0.000008 0.000104 0.000000 0.000000 0.000000 0.000120
396 0.000008 0.000104 0.000000 0.000000 0.000000 0.000120
397 0.000016 0.000096 0.000000 0.000000 0.000000 0.000120
398 0.000008 0.000096 0.000000 0.000000 0.000000 0.000112
399 0.000016 0.000080 0.000000 0.000000 0.000000 0.000104
400 0.000008 0.000048 0.000000 0.000000 0.000000 0.000072
401 0.000008 0.000048 0.000000 0.000000 0.000000 0.000056
402 0.000008 0.000040 0.000000 0.000000 0.000000 0.000056
403 0.000008 0.000024 0.000000 0.000000 0.000000 0.000048
404 0.000000 0.000016 0.000000 0.000000 0.000000 0.000032
405 0.000008 0.000000 0.000000 0.000000 0.000000 0.000016
