1 0.021040
2 0.021040
3 0.020416
4 0.021000
5 0.020944
6 0.020504
7 0.021144
8 0.020896
9 0.020288
10 0.020704
11 0.020744
12 0.020456
13 0.020296
14 0.020544
15 0.020200
16 0.020192
17 0.020392
18 0.019912
19 0.020080
20 0.020248
21 0.019664
22 0.019776
23 0.020016
24 0.019280
25 0.019968
26 0.019776
27 0.019392
28 0.019504
29 0.019664
30 0.019064
31 0.019416
32 0.019408
33 0.018920
34 0.019208
35 0.018880
36 0.019136
37 0.019296
38 0.019648
39 0.020856
40 0.019280
41 0.018512
42 0.018944
43 0.018368
44 0.018744
45 0.018832
46 0.018152
47 0.018768
48 0.018440
49 0.018288
50 0.018480
51 0.018096
52 0.019160
53 0.018544
54 0.017968
55 0.018400
56 0.017944
57 0.018312
58 0.018144
59 0.017816
60 0.018032
61 0.017680
62 0.018064
63 0.017864
64 0.017624
65 0.018064
66 0.017368
67 0.016856
68 0.016368
69 0.016672
70 0.016288
71 0.016696
72 0.016496
73 0.016272
74 0.016336
75 0.015912
76 0.016232
77 0.015744
78 0.016088
79 0.015616
80 0.015936
81 0.015472
82 0.015560
83 0.015608
84 0.015656
85 0.015216
86 0.015504
87 0.015144
88 0.015400
89 0.015056
90 0.015344
91 0.014808
92 0.015384
93 0.014944
94 0.015392
95 0.014736
96 0.015256
97 0.014608
98 0.016352
99 0.015824
100 0.014864
101 0.014504
102 0.015376
103 0.014832
104 0.014680
105 0.014240
106 0.014536
107 0.014144
108 0.014440
109 0.014048
110 0.014264
111 0.014080
112 0.014288
113 0.013912
114 0.014040
115 0.015320
116 0.013736
117 0.014192
118 0.013624
119 0.014392
120 0.013704
121 0.014368
122 0.013608
123 0.013880
124 0.013568
125 0.013832
126 0.013520
127 0.013456
128 0.013640
129 0.013400
130 0.013792
131 0.013216
132 0.013608
133 0.013112
134 0.013328
135 0.013064
136 0.012840
137 0.013320
138 0.012728
139 0.013232
140 0.012632
141 0.013112
142 0.012632
143 0.012392
144 0.012888
145 0.012400
146 0.012880
147 0.012192
148 0.012304
149 0.012512
150 0.012056
151 0.012520
152 0.011976
153 0.012152
154 0.012304
155 0.011824
156 0.012416
157 0.011824
158 0.011792
159 0.012200
160 0.011696
161 0.012152
162 0.011528
163 0.011480
164 0.011728
165 0.011272
166 0.011800
167 0.011584
168 0.011168
169 0.011792
170 0.011144
171 0.011064
172 0.011608
173 0.011032
174 0.011384
175 0.010976
176 0.011920
177 0.011808
178 0.010736
179 0.010728
180 0.011088
181 0.010448
182 0.010592
183 0.011120
184 0.010360
185 0.010816
186 0.010480
187 0.010256
188 0.010552
189 0.010112
190 0.010040
191 0.010288
192 0.009960
193 0.009832
194 0.009928
195 0.010128
196 0.009672
197 0.009704
198 0.009992
199 0.009376
200 0.009520
201 0.011304
202 0.009264
203 0.009168
204 0.009560
205 0.009184
206 0.008976
207 0.009664
208 0.008864
209 0.008864
210 0.009336
211 0.008896
212 0.008792
213 0.008216
214 0.008472
215 0.008128
216 0.008232
217 0.008520
218 0.008272
219 0.008008
220 0.007992
221 0.008264
222 0.007960
223 0.007776
224 0.007752
225 0.008048
226 0.007696
227 0.007712
228 0.007528
229 0.008056
230 0.007528
231 0.007584
232 0.007464
233 0.007832
234 0.007384
235 0.007376
236 0.007160
237 0.007664
238 0.007232
239 0.007136
240 0.007232
241 0.007472
242 0.007192
243 0.006968
244 0.007008
245 0.007040
246 0.007168
247 0.007112
248 0.006808
249 0.006784
250 0.007272
251 0.006728
252 0.006712
253 0.006536
254 0.006952
255 0.006680
256 0.006520
257 0.006504
258 0.006352
259 0.006960
260 0.006240
261 0.006208
262 0.006200
263 0.006312
264 0.006456
265 0.005992
266 0.005968
267 0.006072
268 0.006104
269 0.006112
270 0.005848
271 0.005760
272 0.005800
273 0.005696
274 0.006008
275 0.005784
276 0.005680
277 0.005544
278 0.005576
279 0.005984
280 0.005528
281 0.005648
282 0.005488
283 0.005368
284 0.005792
285 0.005536
286 0.005256
287 0.005288
288 0.005280
289 0.005248
290 0.005584
291 0.005224
292 0.005136
293 0.005208
294 0.004976
295 0.004648
296 0.005176
297 0.004760
298 0.004680
299 0.004600
300 0.004600
301 0.004512
302 0.004720
303 0.004560
304 0.004424
305 0.004312
306 0.004248
307 0.004096
308 0.004144
309 0.004192
310 0.004160
311 0.003992
312 0.003912
313 0.003840
314 0.003744
315 0.004176
316 0.003856
317 0.004120
318 0.004240
319 0.004136
320 0.003504
321 0.003384
322 0.003336
323 0.003256
324 0.003240
325 0.003512
326 0.003480
327 0.003184
328 0.003064
329 0.003088
330 0.003080
331 0.002864
332 0.002712
333 0.002648
334 0.002656
335 0.002824
336 0.002872
337 0.002656
338 0.002520
339 0.002480
340 0.002480
341 0.002416
342 0.002464
343 0.002344
344 0.002384
345 0.002272
346 0.002216
347 0.002424
348 0.002320
349 0.002384
350 0.002192
351 0.002136
352 0.002048
353 0.001984
354 0.001960
355 0.001904
356 0.001808
357 0.001856
358 0.001776
359 0.001664
360 0.001616
361 0.001584
362 0.001624
363 0.001808
364 0.001568
365 0.001488
366 0.001480
367 0.001472
368 0.001336
369 0.001240
370 0.001000
371 0.000928
372 0.000880
373 0.000832
374 0.000792
375 0.000744
376 0.000744
377 0.000760
378 0.000680
379 0.000576
380 0.000552
381 0.000536
382 0.000504
383 0.000512
384 0.000472
385 0.000432
386 0.000408
387 0.000408
388 0.000344
389 0.000232
390 0.000272
391 0.000272
392 0.000184
393 0.000168
394 0.000208
395 0.000144
396 0.000136
397 0.000128
398 0.000120
399 0.000128
400 0.000088
401 0.000072
402 0.000064
403 0.000056
404 0.000048
405 0.000032
